mcu/report/power_measurement/sys/sys_3v6.csv

;Scopy version,438f138
;Exported on,samedi décembre 14/12/2024
;Device,M2K
;Nr of samples,3200
;Sample rate,1000
;Tool,Oscilloscope
;Additional Information,
Sample,Time(S),CH1(V)
0,-1.6,0.569127
1,-1.599,0.567389
2,-1.598,0.567389
3,-1.597,0.567389
4,-1.596,0.567389
5,-1.595,0.567389
6,-1.594,0.567389
7,-1.593,0.567389
8,-1.592,0.56565
9,-1.591,0.569127
10,-1.59,0.56565
11,-1.589,0.567389
12,-1.588,0.567389
13,-1.587,0.567389
14,-1.586,0.567389
15,-1.585,0.567389
16,-1.584,0.56565
17,-1.583,0.569127
18,-1.582,0.567389
19,-1.581,0.567389
20,-1.58,0.56565
21,-1.579,0.569127
22,-1.578,0.567389
23,-1.577,0.567389
24,-1.576,0.56565
25,-1.575,0.569127
26,-1.574,0.567389
27,-1.573,0.567389
28,-1.572,0.56565
29,-1.571,0.569127
30,-1.57,0.567389
31,-1.569,0.569127
32,-1.568,0.569127
33,-1.567,0.569127
34,-1.566,0.569127
35,-1.565,0.569127
36,-1.564,0.569127
37,-1.563,0.569127
38,-1.562,0.567389
39,-1.561,0.567389
40,-1.56,0.570866
41,-1.559,0.570866
42,-1.558,0.569127
43,-1.557,0.56565
44,-1.556,0.567389
45,-1.555,0.567389
46,-1.554,0.567389
47,-1.553,0.563911
48,-1.552,0.563911
49,-1.551,0.567389
50,-1.55,0.56565
51,-1.549,0.56565
52,-1.548,0.563911
53,-1.547,0.567389
54,-1.546,0.567389
55,-1.545,0.567389
56,-1.544,0.56565
57,-1.543,0.569127
58,-1.542,0.567389
59,-1.541,0.567389
60,-1.54,0.567389
61,-1.539,0.569127
62,-1.538,0.569127
63,-1.537,0.567389
64,-1.536,0.567389
65,-1.535,0.567389
66,-1.534,0.567389
67,-1.533,0.567389
68,-1.532,0.56565
69,-1.531,0.569127
70,-1.53,0.567389
71,-1.529,0.569127
72,-1.528,0.569127
73,-1.527,0.569127
74,-1.526,0.569127
75,-1.525,0.569127
76,-1.524,0.569127
77,-1.523,0.569127
78,-1.522,0.569127
79,-1.521,0.569127
80,-1.52,0.569127
81,-1.519,0.569127
82,-1.518,0.569127
83,-1.517,0.569127
84,-1.516,0.569127
85,-1.515,0.569127
86,-1.514,0.569127
87,-1.513,0.569127
88,-1.512,0.569127
89,-1.511,0.569127
90,-1.51,0.569127
91,-1.509,0.569127
92,-1.508,0.569127
93,-1.507,0.569127
94,-1.506,0.569127
95,-1.505,0.569127
96,-1.504,0.569127
97,-1.503,0.569127
98,-1.502,0.570866
99,-1.501,0.570866
100,-1.5,0.570866
101,-1.499,0.570866
102,-1.498,0.570866
103,-1.497,0.570866
104,-1.496,0.570866
105,-1.495,0.570866
106,-1.494,0.567389
107,-1.493,0.56565
108,-1.492,0.56565
109,-1.491,0.56565
110,-1.49,0.56565
111,-1.489,0.563911
112,-1.488,0.563911
113,-1.487,0.56565
114,-1.486,0.56565
115,-1.485,0.56565
116,-1.484,0.56565
117,-1.483,0.56565
118,-1.482,0.56565
119,-1.481,0.56565
120,-1.48,0.563911
121,-1.479,0.567389
122,-1.478,0.563911
123,-1.477,0.56565
124,-1.476,0.56565
125,-1.475,0.56565
126,-1.474,0.56565
127,-1.473,0.56565
128,-1.472,0.563911
129,-1.471,0.567389
130,-1.47,0.563911
131,-1.469,0.56565
132,-1.468,0.563911
133,-1.467,0.567389
134,-1.466,0.567389
135,-1.465,0.567389
136,-1.464,0.56565
137,-1.463,0.569127
138,-1.462,0.56565
139,-1.461,0.567389
140,-1.46,0.567389
141,-1.459,0.56565
142,-1.458,0.56565
143,-1.457,0.56565
144,-1.456,0.563911
145,-1.455,0.567389
146,-1.454,0.563911
147,-1.453,0.56565
148,-1.452,0.56565
149,-1.451,0.56565
150,-1.45,0.56565
151,-1.449,0.56565
152,-1.448,0.56565
153,-1.447,0.56565
154,-1.446,0.567389
155,-1.445,0.567389
156,-1.444,0.567389
157,-1.443,0.567389
158,-1.442,0.56565
159,-1.441,0.567389
160,-1.44,0.567389
161,-1.439,0.567389
162,-1.438,0.567389
163,-1.437,0.567389
164,-1.436,0.567389
165,-1.435,0.567389
166,-1.434,0.567389
167,-1.433,0.567389
168,-1.432,0.56565
169,-1.431,0.569127
170,-1.43,0.56565
171,-1.429,0.56565
172,-1.428,0.56565
173,-1.427,0.56565
174,-1.426,0.56565
175,-1.425,0.56565
176,-1.424,0.563911
177,-1.423,0.567389
178,-1.422,0.563911
179,-1.421,0.56565
180,-1.42,0.563911
181,-1.419,0.567389
182,-1.418,0.56565
183,-1.417,0.577822
184,-1.416,0.583038
185,-1.415,0.586516
186,-1.414,0.588255
187,-1.413,0.589994
188,-1.412,0.589994
189,-1.411,0.589994
190,-1.41,0.589994
191,-1.409,0.588255
192,-1.408,0.591732
193,-1.407,0.591732
194,-1.406,0.591732
195,-1.405,0.591732
196,-1.404,0.591732
197,-1.403,0.591732
198,-1.402,0.591732
199,-1.401,0.591732
200,-1.4,0.589994
201,-1.399,0.593471
202,-1.398,0.589994
203,-1.397,0.589994
204,-1.396,0.588255
205,-1.395,0.591732
206,-1.394,0.589994
207,-1.393,0.588255
208,-1.392,0.591732
209,-1.391,0.591732
210,-1.39,0.591732
211,-1.389,0.588255
212,-1.388,0.589994
213,-1.387,0.591732
214,-1.386,0.591732
215,-1.385,0.591732
216,-1.384,0.591732
217,-1.383,0.591732
218,-1.382,0.591732
219,-1.381,0.591732
220,-1.38,0.591732
221,-1.379,0.591732
222,-1.378,0.589994
223,-1.377,0.591732
224,-1.376,0.589994
225,-1.375,0.593471
226,-1.374,0.589994
227,-1.373,0.591732
228,-1.372,0.591732
229,-1.371,0.591732
230,-1.37,0.591732
231,-1.369,0.591732
232,-1.368,0.589994
233,-1.367,0.593471
234,-1.366,0.591732
235,-1.365,0.588255
236,-1.364,0.588255
237,-1.363,0.591732
238,-1.362,0.591732
239,-1.361,0.589994
240,-1.36,0.591732
241,-1.359,0.591732
242,-1.358,0.589994
243,-1.357,0.589994
244,-1.356,0.589994
245,-1.355,0.589994
246,-1.354,0.589994
247,-1.353,0.589994
248,-1.352,0.589994
249,-1.351,0.589994
250,-1.35,0.589994
251,-1.349,0.589994
252,-1.348,0.589994
253,-1.347,0.589994
254,-1.346,0.591732
255,-1.345,0.591732
256,-1.344,0.591732
257,-1.343,0.591732
258,-1.342,0.591732
259,-1.341,0.591732
260,-1.34,0.591732
261,-1.339,0.591732
262,-1.338,0.591732
263,-1.337,0.591732
264,-1.336,0.591732
265,-1.335,0.591732
266,-1.334,0.591732
267,-1.333,0.588255
268,-1.332,0.589994
269,-1.331,0.591732
270,-1.33,0.591732
271,-1.329,0.591732
272,-1.328,0.591732
273,-1.327,0.591732
274,-1.326,0.591732
275,-1.325,0.591732
276,-1.324,0.591732
277,-1.323,0.591732
278,-1.322,0.591732
279,-1.321,0.591732
280,-1.32,0.591732
281,-1.319,0.591732
282,-1.318,0.589994
283,-1.317,0.591732
284,-1.316,0.591732
285,-1.315,0.591732
286,-1.314,0.591732
287,-1.313,0.591732
288,-1.312,0.589994
289,-1.311,0.593471
290,-1.31,0.589994
291,-1.309,0.591732
292,-1.308,0.591732
293,-1.307,0.591732
294,-1.306,0.593471
295,-1.305,0.593471
296,-1.304,0.593471
297,-1.303,0.593471
298,-1.302,0.591732
299,-1.301,0.591732
300,-1.3,0.591732
301,-1.299,0.591732
302,-1.298,0.591732
303,-1.297,0.588255
304,-1.296,0.589994
305,-1.295,0.589994
306,-1.294,0.589994
307,-1.293,0.589994
308,-1.292,0.589994
309,-1.291,0.589994
310,-1.29,0.589994
311,-1.289,0.589994
312,-1.288,0.588255
313,-1.287,0.591732
314,-1.286,0.591732
315,-1.285,0.591732
316,-1.284,0.591732
317,-1.283,0.591732
318,-1.282,0.591732
319,-1.281,0.591732
320,-1.28,0.591732
321,-1.279,0.591732
322,-1.278,0.589994
323,-1.277,0.591732
324,-1.276,0.591732
325,-1.275,0.591732
326,-1.274,0.591732
327,-1.273,0.591732
328,-1.272,0.591732
329,-1.271,0.591732
330,-1.27,0.591732
331,-1.269,0.589994
332,-1.268,0.591732
333,-1.267,0.591732
334,-1.266,0.591732
335,-1.265,0.591732
336,-1.264,0.589994
337,-1.263,0.593471
338,-1.262,0.591732
339,-1.261,0.591732
340,-1.26,0.591732
341,-1.259,0.591732
342,-1.258,0.589994
343,-1.257,0.591732
344,-1.256,0.591732
345,-1.255,0.591732
346,-1.254,0.591732
347,-1.253,0.591732
348,-1.252,0.591732
349,-1.251,0.591732
350,-1.25,0.591732
351,-1.249,0.591732
352,-1.248,0.589994
353,-1.247,0.593471
354,-1.246,0.593471
355,-1.245,0.593471
356,-1.244,0.593471
357,-1.243,0.593471
358,-1.242,0.593471
359,-1.241,0.593471
360,-1.24,0.593471
361,-1.239,0.593471
362,-1.238,0.591732
363,-1.237,0.591732
364,-1.236,0.588255
365,-1.235,0.589994
366,-1.234,0.588255
367,-1.233,0.589994
368,-1.232,0.589994
369,-1.231,0.589994
370,-1.23,0.589994
371,-1.229,0.589994
372,-1.228,0.588255
373,-1.227,0.591732
374,-1.226,0.591732
375,-1.225,0.591732
376,-1.224,0.591732
377,-1.223,0.591732
378,-1.222,0.591732
379,-1.221,0.591732
380,-1.22,0.591732
381,-1.219,0.591732
382,-1.218,0.591732
383,-1.217,0.591732
384,-1.216,0.583038
385,-1.215,0.576083
386,-1.214,0.570866
387,-1.213,0.569127
388,-1.212,0.56565
389,-1.211,0.567389
390,-1.21,0.567389
391,-1.209,0.567389
392,-1.208,0.567389
393,-1.207,0.567389
394,-1.206,0.56565
395,-1.205,0.567389
396,-1.204,0.567389
397,-1.203,0.567389
398,-1.202,0.567389
399,-1.201,0.567389
400,-1.2,0.56565
401,-1.199,0.569127
402,-1.198,0.56565
403,-1.197,0.567389
404,-1.196,0.567389
405,-1.195,0.567389
406,-1.194,0.567389
407,-1.193,0.567389
408,-1.192,0.567389
409,-1.191,0.567389
410,-1.19,0.567389
411,-1.189,0.567389
412,-1.188,0.567389
413,-1.187,0.567389
414,-1.186,0.567389
415,-1.185,0.569127
416,-1.184,0.569127
417,-1.183,0.569127
418,-1.182,0.569127
419,-1.181,0.569127
420,-1.18,0.569127
421,-1.179,0.569127
422,-1.178,0.569127
423,-1.177,0.569127
424,-1.176,0.569127
425,-1.175,0.567389
426,-1.174,0.567389
427,-1.173,0.567389
428,-1.172,0.567389
429,-1.171,0.567389
430,-1.17,0.567389
431,-1.169,0.567389
432,-1.168,0.567389
433,-1.167,0.567389
434,-1.166,0.567389
435,-1.165,0.567389
436,-1.164,0.567389
437,-1.163,0.567389
438,-1.162,0.567389
439,-1.161,0.567389
440,-1.16,0.567389
441,-1.159,0.567389
442,-1.158,0.567389
443,-1.157,0.567389
444,-1.156,0.567389
445,-1.155,0.567389
446,-1.154,0.567389
447,-1.153,0.567389
448,-1.152,0.567389
449,-1.151,0.567389
450,-1.15,0.567389
451,-1.149,0.567389
452,-1.148,0.567389
453,-1.147,0.567389
454,-1.146,0.56565
455,-1.145,0.569127
456,-1.144,0.569127
457,-1.143,0.569127
458,-1.142,0.569127
459,-1.141,0.569127
460,-1.14,0.569127
461,-1.139,0.569127
462,-1.138,0.569127
463,-1.137,0.569127
464,-1.136,0.569127
465,-1.135,0.567389
466,-1.134,0.567389
467,-1.133,0.567389
468,-1.132,0.567389
469,-1.131,0.567389
470,-1.13,0.567389
471,-1.129,0.569127
472,-1.128,0.569127
473,-1.127,0.569127
474,-1.126,0.569127
475,-1.125,0.569127
476,-1.124,0.569127
477,-1.123,0.569127
478,-1.122,0.569127
479,-1.121,0.569127
480,-1.12,0.569127
481,-1.119,0.570866
482,-1.118,0.567389
483,-1.117,0.569127
484,-1.116,0.569127
485,-1.115,0.569127
486,-1.114,0.569127
487,-1.113,0.569127
488,-1.112,0.569127
489,-1.111,0.567389
490,-1.11,0.567389
491,-1.109,0.567389
492,-1.108,0.567389
493,-1.107,0.567389
494,-1.106,0.567389
495,-1.105,0.567389
496,-1.104,0.567389
497,-1.103,0.567389
498,-1.102,0.56565
499,-1.101,0.567389
500,-1.1,0.567389
501,-1.099,0.567389
502,-1.098,0.567389
503,-1.097,0.567389
504,-1.096,0.567389
505,-1.095,0.567389
506,-1.094,0.567389
507,-1.093,0.567389
508,-1.092,0.567389
509,-1.091,0.567389
510,-1.09,0.567389
511,-1.089,0.567389
512,-1.088,0.567389
513,-1.087,0.567389
514,-1.086,0.56565
515,-1.085,0.567389
516,-1.084,0.56565
517,-1.083,0.569127
518,-1.082,0.569127
519,-1.081,0.569127
520,-1.08,0.569127
521,-1.079,0.567389
522,-1.078,0.567389
523,-1.077,0.567389
524,-1.076,0.567389
525,-1.075,0.567389
526,-1.074,0.567389
527,-1.073,0.567389
528,-1.072,0.567389
529,-1.071,0.567389
530,-1.07,0.567389
531,-1.069,0.567389
532,-1.068,0.567389
533,-1.067,0.56565
534,-1.066,0.567389
535,-1.065,0.569127
536,-1.064,0.569127
537,-1.063,0.569127
538,-1.062,0.569127
539,-1.061,0.569127
540,-1.06,0.569127
541,-1.059,0.569127
542,-1.058,0.569127
543,-1.057,0.569127
544,-1.056,0.569127
545,-1.055,0.569127
546,-1.054,0.569127
547,-1.053,0.569127
548,-1.052,0.569127
549,-1.051,0.569127
550,-1.05,0.569127
551,-1.049,0.569127
552,-1.048,0.569127
553,-1.047,0.569127
554,-1.046,0.569127
555,-1.045,0.56565
556,-1.044,0.567389
557,-1.043,0.567389
558,-1.042,0.567389
559,-1.041,0.567389
560,-1.04,0.567389
561,-1.039,0.567389
562,-1.038,0.567389
563,-1.037,0.567389
564,-1.036,0.567389
565,-1.035,0.567389
566,-1.034,0.567389
567,-1.033,0.567389
568,-1.032,0.567389
569,-1.031,0.567389
570,-1.03,0.567389
571,-1.029,0.567389
572,-1.028,0.567389
573,-1.027,0.567389
574,-1.026,0.567389
575,-1.025,0.569127
576,-1.024,0.569127
577,-1.023,0.569127
578,-1.022,0.569127
579,-1.021,0.569127
580,-1.02,0.569127
581,-1.019,0.569127
582,-1.018,0.569127
583,-1.017,0.569127
584,-1.016,0.569127
585,-1.015,0.577822
586,-1.014,0.584777
587,-1.013,0.588255
588,-1.012,0.589994
589,-1.011,0.591732
590,-1.01,0.591732
591,-1.009,0.591732
592,-1.008,0.591732
593,-1.007,0.593471
594,-1.006,0.593471
595,-1.005,0.593471
596,-1.004,0.593471
597,-1.003,0.593471
598,-1.002,0.593471
599,-1.001,0.593471
600,-1,0.593471
601,-0.999,0.593471
602,-0.998,0.593471
603,-0.997,0.593471
604,-0.996,0.593471
605,-0.995,0.593471
606,-0.994,0.593471
607,-0.993,0.593471
608,-0.992,0.593471
609,-0.991,0.593471
610,-0.99,0.593471
611,-0.989,0.593471
612,-0.988,0.593471
613,-0.987,0.593471
614,-0.986,0.593471
615,-0.985,0.593471
616,-0.984,0.59521
617,-0.983,0.59521
618,-0.982,0.593471
619,-0.981,0.589994
620,-0.98,0.591732
621,-0.979,0.591732
622,-0.978,0.591732
623,-0.977,0.591732
624,-0.976,0.591732
625,-0.975,0.591732
626,-0.974,0.589994
627,-0.973,0.589994
628,-0.972,0.589994
629,-0.971,0.591732
630,-0.97,0.591732
631,-0.969,0.591732
632,-0.968,0.591732
633,-0.967,0.591732
634,-0.966,0.591732
635,-0.965,0.591732
636,-0.964,0.591732
637,-0.963,0.591732
638,-0.962,0.593471
639,-0.961,0.593471
640,-0.96,0.593471
641,-0.959,0.593471
642,-0.958,0.591732
643,-0.957,0.591732
644,-0.956,0.591732
645,-0.955,0.591732
646,-0.954,0.591732
647,-0.953,0.589994
648,-0.952,0.593471
649,-0.951,0.593471
650,-0.95,0.589994
651,-0.949,0.591732
652,-0.948,0.591732
653,-0.947,0.591732
654,-0.946,0.591732
655,-0.945,0.591732
656,-0.944,0.591732
657,-0.943,0.593471
658,-0.942,0.593471
659,-0.941,0.589994
660,-0.94,0.591732
661,-0.939,0.591732
662,-0.938,0.591732
663,-0.937,0.591732
664,-0.936,0.593471
665,-0.935,0.593471
666,-0.934,0.591732
667,-0.933,0.591732
668,-0.932,0.589994
669,-0.931,0.593471
670,-0.93,0.593471
671,-0.929,0.593471
672,-0.928,0.593471
673,-0.927,0.593471
674,-0.926,0.593471
675,-0.925,0.593471
676,-0.924,0.593471
677,-0.923,0.593471
678,-0.922,0.593471
679,-0.921,0.591732
680,-0.92,0.59521
681,-0.919,0.59521
682,-0.918,0.593471
683,-0.917,0.589994
684,-0.916,0.591732
685,-0.915,0.591732
686,-0.914,0.591732
687,-0.913,0.591732
688,-0.912,0.591732
689,-0.911,0.591732
690,-0.91,0.591732
691,-0.909,0.591732
692,-0.908,0.591732
693,-0.907,0.591732
694,-0.906,0.591732
695,-0.905,0.591732
696,-0.904,0.591732
697,-0.903,0.593471
698,-0.902,0.593471
699,-0.901,0.589994
700,-0.9,0.593471
701,-0.899,0.593471
702,-0.898,0.591732
703,-0.897,0.589994
704,-0.896,0.593471
705,-0.895,0.593471
706,-0.894,0.591732
707,-0.893,0.591732
708,-0.892,0.591732
709,-0.891,0.591732
710,-0.89,0.589994
711,-0.889,0.593471
712,-0.888,0.593471
713,-0.887,0.593471
714,-0.886,0.593471
715,-0.885,0.589994
716,-0.884,0.591732
717,-0.883,0.593471
718,-0.882,0.593471
719,-0.881,0.593471
720,-0.88,0.593471
721,-0.879,0.593471
722,-0.878,0.593471
723,-0.877,0.589994
724,-0.876,0.591732
725,-0.875,0.591732
726,-0.874,0.591732
727,-0.873,0.591732
728,-0.872,0.591732
729,-0.871,0.591732
730,-0.87,0.591732
731,-0.869,0.591732
732,-0.868,0.591732
733,-0.867,0.593471
734,-0.866,0.593471
735,-0.865,0.593471
736,-0.864,0.591732
737,-0.863,0.59521
738,-0.862,0.593471
739,-0.861,0.593471
740,-0.86,0.593471
741,-0.859,0.593471
742,-0.858,0.593471
743,-0.857,0.593471
744,-0.856,0.593471
745,-0.855,0.593471
746,-0.854,0.593471
747,-0.853,0.589994
748,-0.852,0.591732
749,-0.851,0.591732
750,-0.85,0.591732
751,-0.849,0.591732
752,-0.848,0.591732
753,-0.847,0.591732
754,-0.846,0.591732
755,-0.845,0.591732
756,-0.844,0.591732
757,-0.843,0.591732
758,-0.842,0.591732
759,-0.841,0.591732
760,-0.84,0.593471
761,-0.839,0.593471
762,-0.838,0.591732
763,-0.837,0.591732
764,-0.836,0.591732
765,-0.835,0.591732
766,-0.834,0.591732
767,-0.833,0.591732
768,-0.832,0.591732
769,-0.831,0.591732
770,-0.83,0.591732
771,-0.829,0.591732
772,-0.828,0.591732
773,-0.827,0.593471
774,-0.826,0.593471
775,-0.825,0.593471
776,-0.824,0.593471
777,-0.823,0.593471
778,-0.822,0.593471
779,-0.821,0.593471
780,-0.82,0.593471
781,-0.819,0.593471
782,-0.818,0.593471
783,-0.817,0.593471
784,-0.816,0.593471
785,-0.815,0.593471
786,-0.814,0.584777
787,-0.813,0.572605
788,-0.812,0.569127
789,-0.811,0.567389
790,-0.81,0.567389
791,-0.809,0.567389
792,-0.808,0.567389
793,-0.807,0.567389
794,-0.806,0.567389
795,-0.805,0.567389
796,-0.804,0.567389
797,-0.803,0.567389
798,-0.802,0.567389
799,-0.801,0.567389
800,-0.8,0.567389
801,-0.799,0.569127
802,-0.798,0.569127
803,-0.797,0.56565
804,-0.796,0.567389
805,-0.795,0.567389
806,-0.794,0.567389
807,-0.793,0.567389
808,-0.792,0.567389
809,-0.791,0.567389
810,-0.79,0.567389
811,-0.789,0.56565
812,-0.788,0.56565
813,-0.787,0.56565
814,-0.786,0.56565
815,-0.785,0.567389
816,-0.784,0.567389
817,-0.783,0.567389
818,-0.782,0.56565
819,-0.781,0.567389
820,-0.78,0.567389
821,-0.779,0.567389
822,-0.778,0.567389
823,-0.777,0.56565
824,-0.776,0.56565
825,-0.775,0.567389
826,-0.774,0.567389
827,-0.773,0.563911
828,-0.772,0.56565
829,-0.771,0.56565
830,-0.77,0.567389
831,-0.769,0.567389
832,-0.768,0.567389
833,-0.767,0.567389
834,-0.766,0.567389
835,-0.765,0.567389
836,-0.764,0.56565
837,-0.763,0.569127
838,-0.762,0.569127
839,-0.761,0.569127
840,-0.76,0.569127
841,-0.759,0.567389
842,-0.758,0.567389
843,-0.757,0.567389
844,-0.756,0.567389
845,-0.755,0.567389
846,-0.754,0.567389
847,-0.753,0.567389
848,-0.752,0.567389
849,-0.751,0.567389
850,-0.75,0.56565
851,-0.749,0.567389
852,-0.748,0.567389
853,-0.747,0.567389
854,-0.746,0.567389
855,-0.745,0.567389
856,-0.744,0.56565
857,-0.743,0.569127
858,-0.742,0.569127
859,-0.741,0.569127
860,-0.74,0.569127
861,-0.739,0.569127
862,-0.738,0.569127
863,-0.737,0.569127
864,-0.736,0.569127
865,-0.735,0.569127
866,-0.734,0.569127
867,-0.733,0.56565
868,-0.732,0.56565
869,-0.731,0.569127
870,-0.73,0.569127
871,-0.729,0.569127
872,-0.728,0.569127
873,-0.727,0.569127
874,-0.726,0.569127
875,-0.725,0.56565
876,-0.724,0.567389
877,-0.723,0.567389
878,-0.722,0.567389
879,-0.721,0.567389
880,-0.72,0.567389
881,-0.719,0.567389
882,-0.718,0.56565
883,-0.717,0.56565
884,-0.716,0.56565
885,-0.715,0.56565
886,-0.714,0.56565
887,-0.713,0.56565
888,-0.712,0.56565
889,-0.711,0.567389
890,-0.71,0.567389
891,-0.709,0.567389
892,-0.708,0.567389
893,-0.707,0.567389
894,-0.706,0.567389
895,-0.705,0.56565
896,-0.704,0.569127
897,-0.703,0.569127
898,-0.702,0.569127
899,-0.701,0.56565
900,-0.7,0.56565
901,-0.699,0.569127
902,-0.698,0.567389
903,-0.697,0.56565
904,-0.696,0.569127
905,-0.695,0.567389
906,-0.694,0.567389
907,-0.693,0.567389
908,-0.692,0.567389
909,-0.691,0.567389
910,-0.69,0.567389
911,-0.689,0.567389
912,-0.688,0.567389
913,-0.687,0.567389
914,-0.686,0.567389
915,-0.685,0.567389
916,-0.684,0.567389
917,-0.683,0.567389
918,-0.682,0.567389
919,-0.681,0.567389
920,-0.68,0.56565
921,-0.679,0.569127
922,-0.678,0.567389
923,-0.677,0.567389
924,-0.676,0.567389
925,-0.675,0.567389
926,-0.674,0.567389
927,-0.673,0.567389
928,-0.672,0.567389
929,-0.671,0.567389
930,-0.67,0.567389
931,-0.669,0.567389
932,-0.668,0.56565
933,-0.667,0.569127
934,-0.666,0.569127
935,-0.665,0.569127
936,-0.664,0.567389
937,-0.663,0.570866
938,-0.662,0.569127
939,-0.661,0.56565
940,-0.66,0.567389
941,-0.659,0.567389
942,-0.658,0.567389
943,-0.657,0.567389
944,-0.656,0.567389
945,-0.655,0.567389
946,-0.654,0.567389
947,-0.653,0.563911
948,-0.652,0.56565
949,-0.651,0.56565
950,-0.65,0.56565
951,-0.649,0.56565
952,-0.648,0.56565
953,-0.647,0.567389
954,-0.646,0.567389
955,-0.645,0.567389
956,-0.644,0.567389
957,-0.643,0.567389
958,-0.642,0.567389
959,-0.641,0.569127
960,-0.64,0.569127
961,-0.639,0.569127
962,-0.638,0.569127
963,-0.637,0.56565
964,-0.636,0.567389
965,-0.635,0.567389
966,-0.634,0.567389
967,-0.633,0.56565
968,-0.632,0.569127
969,-0.631,0.567389
970,-0.63,0.567389
971,-0.629,0.567389
972,-0.628,0.567389
973,-0.627,0.567389
974,-0.626,0.567389
975,-0.625,0.567389
976,-0.624,0.567389
977,-0.623,0.569127
978,-0.622,0.567389
979,-0.621,0.567389
980,-0.62,0.567389
981,-0.619,0.567389
982,-0.618,0.567389
983,-0.617,0.567389
984,-0.616,0.567389
985,-0.615,0.567389
986,-0.614,0.567389
987,-0.613,0.576083
988,-0.612,0.584777
989,-0.611,0.588255
990,-0.61,0.589994
991,-0.609,0.589994
992,-0.608,0.593471
993,-0.607,0.593471
994,-0.606,0.593471
995,-0.605,0.593471
996,-0.604,0.593471
997,-0.603,0.591732
998,-0.602,0.59521
999,-0.601,0.59521
1000,-0.6,0.59521
1001,-0.599,0.59521
1002,-0.598,0.593471
1003,-0.597,0.591732
1004,-0.596,0.591732
1005,-0.595,0.591732
1006,-0.594,0.591732
