mcu/report/frequency_reduction/Data/6.csv

;Scopy version,438f138
;Exported on,mardi avril 29/04/2025
;Device,M2K
;Nr of samples,160000
;Sample rate,100000
;Tool,Oscilloscope
;Additional Information,
Sample,Time(S),CH1(V)
0,-0.08192,0.0577813
1,-0.08191,0.0577813
2,-0.0819,0.0577813
3,-0.08189,0.0577813
4,-0.08188,0.0577813
5,-0.08187,0.0577813
6,-0.08186,0.0577813
7,-0.08185,0.0577813
8,-0.08184,0.0577813
9,-0.08183,0.0577813
10,-0.08182,0.0577813
11,-0.08181,0.0577813
12,-0.0818,0.0577813
13,-0.08179,0.0577813
14,-0.08178,0.0577813
15,-0.08177,0.0577813
16,-0.08176,0.0577813
17,-0.08175,0.0577813
18,-0.08174,0.0577813
19,-0.08173,0.0577813
20,-0.08172,0.0577813
21,-0.08171,0.0577813
22,-0.0817,0.0577813
23,-0.08169,0.0577813
24,-0.08168,0.0577813
25,-0.08167,0.0577813
26,-0.08166,0.0577813
27,-0.08165,0.0609554
28,-0.08164,0.0593684
29,-0.08163,0.0593684
30,-0.08162,0.0593684
31,-0.08161,0.0577813
32,-0.0816,0.0577813
33,-0.08159,0.0577813
34,-0.08158,0.0577813
35,-0.08157,0.0577813
36,-0.08156,0.0577813
37,-0.08155,0.0577813
38,-0.08154,0.0577813
39,-0.08153,0.0577813
40,-0.08152,0.0577813
41,-0.08151,0.0577813
42,-0.0815,0.0577813
43,-0.08149,0.0577813
44,-0.08148,0.0577813
45,-0.08147,0.0577813
46,-0.08146,0.0577813
47,-0.08145,0.0577813
48,-0.08144,0.0577813
49,-0.08143,0.0577813
50,-0.08142,0.0577813
51,-0.08141,0.0577813
52,-0.0814,0.0577813
53,-0.08139,0.0577813
54,-0.08138,0.0577813
55,-0.08137,0.0577813
56,-0.08136,0.0577813
57,-0.08135,0.0577813
58,-0.08134,0.0577813
59,-0.08133,0.0577813
60,-0.08132,0.0577813
61,-0.08131,0.0577813
62,-0.0813,0.0577813
63,-0.08129,0.0577813
64,-0.08128,0.0577813
65,-0.08127,0.0577813
66,-0.08126,0.0577813
67,-0.08125,0.0577813
68,-0.08124,0.0577813
69,-0.08123,0.0577813
70,-0.08122,0.0577813
71,-0.08121,0.0577813
72,-0.0812,0.0577813
73,-0.08119,0.0577813
74,-0.08118,0.0577813
75,-0.08117,0.0577813
76,-0.08116,0.0577813
77,-0.08115,0.0577813
78,-0.08114,0.0577813
79,-0.08113,0.0577813
80,-0.08112,0.0577813
81,-0.08111,0.0577813
82,-0.0811,0.0577813
83,-0.08109,0.0577813
84,-0.08108,0.0577813
85,-0.08107,0.0577813
86,-0.08106,0.0577813
87,-0.08105,0.0577813
88,-0.08104,0.0577813
89,-0.08103,0.0577813
90,-0.08102,0.0577813
91,-0.08101,0.0577813
92,-0.081,0.0577813
93,-0.08099,0.0577813
94,-0.08098,0.0577813
95,-0.08097,0.0577813
96,-0.08096,0.0577813
97,-0.08095,0.0577813
98,-0.08094,0.0577813
99,-0.08093,0.0577813
100,-0.08092,0.0577813
101,-0.08091,0.0577813
102,-0.0809,0.0577813
103,-0.08089,0.0577813
104,-0.08088,0.0577813
105,-0.08087,0.0577813
106,-0.08086,0.0577813
107,-0.08085,0.0577813
108,-0.08084,0.0577813
109,-0.08083,0.0577813
110,-0.08082,0.0577813
111,-0.08081,0.0577813
112,-0.0808,0.0577813
113,-0.08079,0.0577813
114,-0.08078,0.0577813
115,-0.08077,0.0577813
116,-0.08076,0.0577813
117,-0.08075,0.0577813
118,-0.08074,0.0577813
119,-0.08073,0.0577813
120,-0.08072,0.0577813
121,-0.08071,0.0577813
122,-0.0807,0.0577813
123,-0.08069,0.0577813
124,-0.08068,0.0577813
125,-0.08067,0.0577813
126,-0.08066,0.0609554
127,-0.08065,0.0593684
128,-0.08064,0.0593684
129,-0.08063,0.0593684
130,-0.08062,0.0593684
131,-0.08061,0.0609554
132,-0.0806,0.0593684
133,-0.08059,0.0609554
134,-0.08058,0.0577813
135,-0.08057,0.0577813
136,-0.08056,0.0577813
137,-0.08055,0.0577813
138,-0.08054,0.0609554
139,-0.08053,0.0609554
140,-0.08052,0.0577813
141,-0.08051,0.0577813
142,-0.0805,0.0577813
143,-0.08049,0.0577813
144,-0.08048,0.0577813
145,-0.08047,0.0577813
146,-0.08046,0.0577813
147,-0.08045,0.0577813
148,-0.08044,0.0577813
149,-0.08043,0.0577813
150,-0.08042,0.0577813
151,-0.08041,0.0577813
152,-0.0804,0.0577813
153,-0.08039,0.0577813
154,-0.08038,0.0577813
155,-0.08037,0.0577813
156,-0.08036,0.0577813
157,-0.08035,0.0577813
158,-0.08034,0.0577813
159,-0.08033,0.0577813
160,-0.08032,0.0577813
161,-0.08031,0.0577813
162,-0.0803,0.0577813
163,-0.08029,0.0577813
164,-0.08028,0.0577813
165,-0.08027,0.0577813
166,-0.08026,0.0577813
167,-0.08025,0.0577813
168,-0.08024,0.0577813
169,-0.08023,0.0577813
170,-0.08022,0.0577813
171,-0.08021,0.0577813
172,-0.0802,0.0577813
173,-0.08019,0.0577813
174,-0.08018,0.0577813
175,-0.08017,0.0577813
176,-0.08016,0.0577813
177,-0.08015,0.0577813
178,-0.08014,0.0577813
179,-0.08013,0.0577813
180,-0.08012,0.0577813
181,-0.08011,0.0577813
182,-0.0801,0.0577813
183,-0.08009,0.0577813
184,-0.08008,0.0577813
185,-0.08007,0.0577813
186,-0.08006,0.0577813
187,-0.08005,0.0577813
188,-0.08004,0.0577813
189,-0.08003,0.0577813
190,-0.08002,0.0577813
191,-0.08001,0.0577813
192,-0.08,0.0577813
193,-0.07999,0.0577813
194,-0.07998,0.0577813
195,-0.07997,0.0577813
196,-0.07996,0.0577813
197,-0.07995,0.0577813
198,-0.07994,0.0577813
199,-0.07993,0.0577813
200,-0.07992,0.0577813
201,-0.07991,0.0577813
202,-0.0799,0.0577813
203,-0.07989,0.0577813
204,-0.07988,0.0577813
205,-0.07987,0.0577813
206,-0.07986,0.0577813
207,-0.07985,0.0577813
208,-0.07984,0.0577813
209,-0.07983,0.0577813
210,-0.07982,0.0577813
211,-0.07981,0.0577813
212,-0.0798,0.0577813
213,-0.07979,0.0577813
214,-0.07978,0.0577813
215,-0.07977,0.0577813
216,-0.07976,0.0577813
217,-0.07975,0.0577813
218,-0.07974,0.0577813
219,-0.07973,0.0577813
220,-0.07972,0.0577813
221,-0.07971,0.0577813
222,-0.0797,0.0577813
223,-0.07969,0.0577813
224,-0.07968,0.0593684
225,-0.07967,0.0593684
226,-0.07966,0.0593684
227,-0.07965,0.0593684
228,-0.07964,0.0593684
229,-0.07963,0.0593684
230,-0.07962,0.0593684
231,-0.07961,0.0609554
232,-0.0796,0.0577813
233,-0.07959,0.0577813
234,-0.07958,0.0577813
235,-0.07957,0.0577813
236,-0.07956,0.0577813
237,-0.07955,0.0577813
238,-0.07954,0.0577813
239,-0.07953,0.0577813
240,-0.07952,0.0577813
241,-0.07951,0.0577813
242,-0.0795,0.0577813
243,-0.07949,0.0577813
244,-0.07948,0.0577813
245,-0.07947,0.0577813
246,-0.07946,0.0577813
247,-0.07945,0.0577813
248,-0.07944,0.0593684
249,-0.07943,0.0593684
250,-0.07942,0.0577813
251,-0.07941,0.0577813
252,-0.0794,0.0577813
253,-0.07939,0.0577813
254,-0.07938,0.0577813
255,-0.07937,0.0577813
256,-0.07936,0.0577813
257,-0.07935,0.0577813
258,-0.07934,0.0577813
259,-0.07933,0.0577813
260,-0.07932,0.0577813
261,-0.07931,0.0577813
262,-0.0793,0.0577813
263,-0.07929,0.0577813
264,-0.07928,0.0577813
265,-0.07927,0.0577813
266,-0.07926,0.0577813
267,-0.07925,0.0577813
268,-0.07924,0.0577813
269,-0.07923,0.0577813
270,-0.07922,0.0577813
271,-0.07921,0.0577813
272,-0.0792,0.0577813
273,-0.07919,0.0577813
274,-0.07918,0.0577813
275,-0.07917,0.0577813
276,-0.07916,0.0577813
277,-0.07915,0.0577813
278,-0.07914,0.0577813
279,-0.07913,0.0577813
280,-0.07912,0.0577813
281,-0.07911,0.0577813
282,-0.0791,0.0577813
283,-0.07909,0.0577813
284,-0.07908,0.0577813
285,-0.07907,0.0577813
286,-0.07906,0.0577813
287,-0.07905,0.0577813
288,-0.07904,0.0577813
289,-0.07903,0.0577813
290,-0.07902,0.0577813
291,-0.07901,0.0577813
292,-0.079,0.0577813
293,-0.07899,0.0577813
294,-0.07898,0.0577813
295,-0.07897,0.0577813
296,-0.07896,0.0577813
297,-0.07895,0.0577813
298,-0.07894,0.0577813
299,-0.07893,0.0577813
300,-0.07892,0.0577813
301,-0.07891,0.0577813
302,-0.0789,0.0577813
303,-0.07889,0.0577813
304,-0.07888,0.0577813
305,-0.07887,0.0577813
306,-0.07886,0.0577813
307,-0.07885,0.0577813
308,-0.07884,0.0577813
309,-0.07883,0.0577813
310,-0.07882,0.0577813
311,-0.07881,0.0577813
312,-0.0788,0.0577813
313,-0.07879,0.0577813
314,-0.07878,0.0577813
315,-0.07877,0.0577813
316,-0.07876,0.0577813
317,-0.07875,0.0577813
318,-0.07874,0.0577813
319,-0.07873,0.0577813
320,-0.07872,0.0577813
321,-0.07871,0.0577813
322,-0.0787,0.0577813
323,-0.07869,0.0577813
324,-0.07868,0.0577813
325,-0.07867,0.0577813
326,-0.07866,0.0609554
327,-0.07865,0.0593684
328,-0.07864,0.0593684
329,-0.07863,0.0577813
330,-0.07862,0.0609554
331,-0.07861,0.0593684
332,-0.0786,0.0593684
333,-0.07859,0.0593684
334,-0.07858,0.0609554
335,-0.07857,0.0609554
336,-0.07856,0.0577813
337,-0.07855,0.0577813
338,-0.07854,0.0609554
339,-0.07853,0.0593684
340,-0.07852,0.0593684
341,-0.07851,0.0577813
342,-0.0785,0.0577813
343,-0.07849,0.0577813
344,-0.07848,0.0577813
345,-0.07847,0.0577813
346,-0.07846,0.0577813
347,-0.07845,0.0577813
348,-0.07844,0.0577813
349,-0.07843,0.0577813
350,-0.07842,0.0577813
351,-0.07841,0.0577813
352,-0.0784,0.0577813
353,-0.07839,0.0577813
354,-0.07838,0.0577813
355,-0.07837,0.0577813
356,-0.07836,0.0577813
357,-0.07835,0.0577813
358,-0.07834,0.0577813
359,-0.07833,0.0577813
360,-0.07832,0.0577813
361,-0.07831,0.0577813
362,-0.0783,0.0577813
363,-0.07829,0.0577813
364,-0.07828,0.0577813
365,-0.07827,0.0577813
366,-0.07826,0.0577813
367,-0.07825,0.0577813
368,-0.07824,0.0577813
369,-0.07823,0.0577813
370,-0.07822,0.0577813
371,-0.07821,0.0577813
372,-0.0782,0.0577813
373,-0.07819,0.0577813
374,-0.07818,0.0577813
375,-0.07817,0.0577813
376,-0.07816,0.0577813
377,-0.07815,0.0577813
378,-0.07814,0.0577813
379,-0.07813,0.0577813
380,-0.07812,0.0577813
381,-0.07811,0.0577813
382,-0.0781,0.0577813
383,-0.07809,0.0577813
384,-0.07808,0.0577813
385,-0.07807,0.0577813
386,-0.07806,0.0577813
387,-0.07805,0.0577813
388,-0.07804,0.0577813
389,-0.07803,0.0577813
390,-0.07802,0.0577813
391,-0.07801,0.0577813
392,-0.078,0.0577813
393,-0.07799,0.0577813
394,-0.07798,0.0577813
395,-0.07797,0.0577813
396,-0.07796,0.0577813
397,-0.07795,0.0577813
398,-0.07794,0.0577813
399,-0.07793,0.0577813
400,-0.07792,0.0577813
401,-0.07791,0.0577813
402,-0.0779,0.0577813
403,-0.07789,0.0577813
404,-0.07788,0.0577813
405,-0.07787,0.0577813
406,-0.07786,0.0577813
407,-0.07785,0.0577813
408,-0.07784,0.0577813
409,-0.07783,0.0577813
410,-0.07782,0.0577813
411,-0.07781,0.0577813
412,-0.0778,0.0577813
413,-0.07779,0.0577813
414,-0.07778,0.0577813
415,-0.07777,0.0577813
416,-0.07776,0.0577813
417,-0.07775,0.0577813
418,-0.07774,0.0577813
419,-0.07773,0.0577813
420,-0.07772,0.0577813
421,-0.07771,0.0577813
422,-0.0777,0.0577813
423,-0.07769,0.0577813
424,-0.07768,0.0577813
425,-0.07767,0.0577813
426,-0.07766,0.0577813
427,-0.07765,0.0609554
428,-0.07764,0.0609554
429,-0.07763,0.0577813
430,-0.07762,0.0577813
431,-0.07761,0.0577813
432,-0.0776,0.0577813
433,-0.07759,0.0577813
434,-0.07758,0.0577813
435,-0.07757,0.0577813
436,-0.07756,0.0577813
437,-0.07755,0.0577813
438,-0.07754,0.0577813
439,-0.07753,0.0577813
440,-0.07752,0.0577813
441,-0.07751,0.0577813
442,-0.0775,0.0577813
443,-0.07749,0.0577813
444,-0.07748,0.0577813
445,-0.07747,0.0609554
446,-0.07746,0.0609554
447,-0.07745,0.0609554
448,-0.07744,0.0609554
449,-0.07743,0.0609554
450,-0.07742,0.0609554
451,-0.07741,0.0641295
452,-0.0774,0.0625425
453,-0.07739,0.0641295
454,-0.07738,0.0641295
455,-0.07737,0.0641295
456,-0.07736,0.0641295
457,-0.07735,0.0641295
458,-0.07734,0.0657166
459,-0.07733,0.0657166
460,-0.07732,0.0657166
461,-0.07731,0.0657166
462,-0.0773,0.0673036
463,-0.07729,0.0673036
464,-0.07728,0.0673036
465,-0.07727,0.0673036
466,-0.07726,0.0673036
467,-0.07725,0.0688907
468,-0.07724,0.0688907
469,-0.07723,0.0688907
470,-0.07722,0.0688907
471,-0.07721,0.0688907
472,-0.0772,0.0688907
473,-0.07719,0.0688907
474,-0.07718,0.0720648
475,-0.07717,0.0704777
476,-0.07716,0.0704777
477,-0.07715,0.0704777
478,-0.07714,0.0704777
479,-0.07713,0.0736518
480,-0.07712,0.0720648
481,-0.07711,0.0720648
482,-0.0771,0.0720648
483,-0.07709,0.0720648
484,-0.07708,0.0720648
485,-0.07707,0.0720648
486,-0.07706,0.0736518
487,-0.07705,0.0736518
488,-0.07704,0.0736518
489,-0.07703,0.0736518
490,-0.07702,0.0736518
491,-0.07701,0.0736518
492,-0.077,0.0736518
493,-0.07699,0.0736518
494,-0.07698,0.0736518
495,-0.07697,0.0752389
496,-0.07696,0.0752389
497,-0.07695,0.0752389
498,-0.07694,0.0752389
499,-0.07693,0.0752389
500,-0.07692,0.0752389
501,-0.07691,0.0752389
502,-0.0769,0.0752389
503,-0.07689,0.0752389
504,-0.07688,0.0752389
505,-0.07687,0.08
506,-0.07686,0.08
507,-0.07685,0.08
508,-0.07684,0.08
509,-0.07683,0.08
510,-0.07682,0.08
511,-0.07681,0.08
512,-0.0768,0.08
513,-0.07679,0.08
514,-0.07678,0.08
515,-0.07677,0.0768259
516,-0.07676,0.0768259
517,-0.07675,0.0768259
518,-0.07674,0.0752389
519,-0.07673,0.0768259
520,-0.07672,0.0736518
521,-0.07671,0.0736518
522,-0.0767,0.0736518
523,-0.07669,0.0736518
524,-0.07668,0.0736518
525,-0.07667,0.0752389
526,-0.07666,0.0720648
527,-0.07665,0.0736518
528,-0.07664,0.0704777
529,-0.07663,0.0704777
530,-0.07662,0.0704777
531,-0.07661,0.0704777
532,-0.0766,0.0704777
533,-0.07659,0.0704777
534,-0.07658,0.0704777
535,-0.07657,0.0704777
536,-0.07656,0.0704777
537,-0.07655,0.0704777
538,-0.07654,0.0720648
539,-0.07653,0.0688907
540,-0.07652,0.0688907
541,-0.07651,0.0688907
542,-0.0765,0.0688907
543,-0.07649,0.0688907
544,-0.07648,0.0688907
545,-0.07647,0.0688907
546,-0.07646,0.0704777
547,-0.07645,0.0688907
548,-0.07644,0.0688907
549,-0.07643,0.0673036
550,-0.07642,0.0673036
551,-0.07641,0.0673036
552,-0.0764,0.0673036
553,-0.07639,0.0673036
554,-0.07638,0.0673036
555,-0.07637,0.0688907
556,-0.07636,0.0657166
557,-0.07635,0.0657166
558,-0.07634,0.0657166
559,-0.07633,0.0657166
560,-0.07632,0.0657166
561,-0.07631,0.0657166
562,-0.0763,0.0657166
563,-0.07629,0.0657166
564,-0.07628,0.0657166
565,-0.07627,0.0657166
566,-0.07626,0.0657166
567,-0.07625,0.0657166
568,-0.07624,0.0657166
569,-0.07623,0.0641295
570,-0.07622,0.0641295
571,-0.07621,0.0641295
572,-0.0762,0.0641295
573,-0.07619,0.0641295
574,-0.07618,0.0641295
575,-0.07617,0.0641295
576,-0.07616,0.0641295
577,-0.07615,0.0641295
578,-0.07614,0.0641295
579,-0.07613,0.0641295
580,-0.07612,0.0641295
581,-0.07611,0.0641295
582,-0.0761,0.0657166
583,-0.07609,0.0625425
584,-0.07608,0.0625425
585,-0.07607,0.0625425
586,-0.07606,0.0625425
587,-0.07605,0.0625425
588,-0.07604,0.0625425
589,-0.07603,0.0625425
590,-0.07602,0.0625425
591,-0.07601,0.0625425
592,-0.076,0.0625425
593,-0.07599,0.0625425
594,-0.07598,0.0625425
595,-0.07597,0.0625425
596,-0.07596,0.0625425
597,-0.07595,0.0625425
598,-0.07594,0.0625425
599,-0.07593,0.0625425
600,-0.07592,0.0625425
601,-0.07591,0.0625425
602,-0.0759,0.0625425
603,-0.07589,0.0625425
604,-0.07588,0.0609554
605,-0.07587,0.0609554
606,-0.07586,0.0609554
607,-0.07585,0.0609554
608,-0.07584,0.0609554
609,-0.07583,0.0609554
610,-0.07582,0.0609554
611,-0.07581,0.0609554
612,-0.0758,0.0609554
613,-0.07579,0.0609554
614,-0.07578,0.0609554
615,-0.07577,0.0609554
616,-0.07576,0.0609554
617,-0.07575,0.0609554
618,-0.07574,0.0609554
619,-0.07573,0.0609554
620,-0.07572,0.0609554
621,-0.07571,0.0609554
622,-0.0757,0.0609554
623,-0.07569,0.0609554
624,-0.07568,0.0609554
625,-0.07567,0.0609554
626,-0.07566,0.0609554
627,-0.07565,0.0609554
628,-0.07564,0.0609554
629,-0.07563,0.0609554
630,-0.07562,0.0609554
631,-0.07561,0.0609554
632,-0.0756,0.0609554
633,-0.07559,0.0609554
634,-0.07558,0.0609554
635,-0.07557,0.0609554
636,-0.07556,0.0609554
637,-0.07555,0.0609554
638,-0.07554,0.0609554
639,-0.07553,0.0609554
640,-0.07552,0.0625425
641,-0.07551,0.0593684
642,-0.0755,0.0609554
643,-0.07549,0.0625425
644,-0.07548,0.0593684
645,-0.07547,0.0593684
646,-0.07546,0.0593684
647,-0.07545,0.0593684
648,-0.07544,0.0593684
649,-0.07543,0.0593684
650,-0.07542,0.0593684
651,-0.07541,0.0593684
652,-0.0754,0.0593684
653,-0.07539,0.0593684
654,-0.07538,0.0593684
655,-0.07537,0.0593684
656,-0.07536,0.0593684
657,-0.07535,0.0593684
658,-0.07534,0.0593684
659,-0.07533,0.0593684
660,-0.07532,0.0593684
661,-0.07531,0.0593684
662,-0.0753,0.0593684
663,-0.07529,0.0593684
664,-0.07528,0.0593684
665,-0.07527,0.0593684
666,-0.07526,0.0593684
667,-0.07525,0.0593684
668,-0.07524,0.0593684
669,-0.07523,0.0593684
670,-0.07522,0.0593684
671,-0.07521,0.0593684
672,-0.0752,0.0593684
673,-0.07519,0.0593684
674,-0.07518,0.0593684
675,-0.07517,0.0593684
676,-0.07516,0.0593684
677,-0.07515,0.0593684
678,-0.07514,0.0593684
679,-0.07513,0.0593684
680,-0.07512,0.0593684
681,-0.07511,0.0593684
682,-0.0751,0.0593684
683,-0.07509,0.0593684
684,-0.07508,0.0593684
685,-0.07507,0.0593684
686,-0.07506,0.0593684
687,-0.07505,0.0593684
688,-0.07504,0.0593684
689,-0.07503,0.0593684
690,-0.07502,0.0593684
691,-0.07501,0.0593684
692,-0.075,0.0593684
693,-0.07499,0.0593684
694,-0.07498,0.0593684
695,-0.07497,0.0593684
696,-0.07496,0.0593684
697,-0.07495,0.0593684
698,-0.07494,0.0593684
699,-0.07493,0.0593684
700,-0.07492,0.0609554
701,-0.07491,0.0593684
702,-0.0749,0.0593684
703,-0.07489,0.0593684
704,-0.07488,0.0593684
705,-0.07487,0.0593684
706,-0.07486,0.0593684
707,-0.07485,0.0593684
708,-0.07484,0.0609554
709,-0.07483,0.0577813
710,-0.07482,0.0577813
711,-0.07481,0.0577813
712,-0.0748,0.0593684
713,-0.07479,0.0593684
714,-0.07478,0.0593684
715,-0.07477,0.0593684
716,-0.07476,0.0609554
717,-0.07475,0.0577813
718,-0.07474,0.0609554
719,-0.07473,0.0577813
720,-0.07472,0.0609554
721,-0.07471,0.0609554
722,-0.0747,0.0577813
723,-0.07469,0.0609554
724,-0.07468,0.0593684
725,-0.07467,0.0593684
726,-0.07466,0.0593684
727,-0.07465,0.0593684
728,-0.07464,0.0593684
729,-0.07463,0.0593684
730,-0.07462,0.0593684
731,-0.07461,0.0593684
732,-0.0746,0.0593684
733,-0.07459,0.0593684
734,-0.07458,0.0593684
735,-0.07457,0.0593684
736,-0.07456,0.0593684
737,-0.07455,0.0593684
738,-0.07454,0.0593684
739,-0.07453,0.0593684
740,-0.07452,0.0593684
741,-0.07451,0.0593684
742,-0.0745,0.0593684
743,-0.07449,0.0593684
744,-0.07448,0.0593684
745,-0.07447,0.0609554
746,-0.07446,0.0609554
747,-0.07445,0.0593684
748,-0.07444,0.0609554
749,-0.07443,0.0577813
750,-0.07442,0.0593684
751,-0.07441,0.0593684
752,-0.0744,0.0593684
753,-0.07439,0.0609554
754,-0.07438,0.0577813
755,-0.07437,0.0577813
756,-0.07436,0.0593684
757,-0.07435,0.0593684
758,-0.07434,0.0577813
759,-0.07433,0.0577813
760,-0.07432,0.0577813
761,-0.07431,0.0577813
762,-0.0743,0.0577813
763,-0.07429,0.0577813
764,-0.07428,0.0577813
765,-0.07427,0.0577813
766,-0.07426,0.0577813
767,-0.07425,0.0577813
768,-0.07424,0.0577813
769,-0.07423,0.0577813
770,-0.07422,0.0577813
771,-0.07421,0.0577813
772,-0.0742,0.0577813
773,-0.07419,0.0577813
774,-0.07418,0.0577813
775,-0.07417,0.0577813
776,-0.07416,0.0577813
777,-0.07415,0.0577813
778,-0.07414,0.0577813
779,-0.07413,0.0577813
780,-0.07412,0.0577813
781,-0.07411,0.0577813
782,-0.0741,0.0577813
783,-0.07409,0.0577813
784,-0.07408,0.0577813
785,-0.07407,0.0577813
786,-0.07406,0.0577813
787,-0.07405,0.0577813
788,-0.07404,0.0577813
789,-0.07403,0.0577813
790,-0.07402,0.0577813
791,-0.07401,0.0577813
792,-0.074,0.0577813
793,-0.07399,0.0577813
794,-0.07398,0.0577813
795,-0.07397,0.0577813
796,-0.07396,0.0577813
797,-0.07395,0.0577813
798,-0.07394,0.0577813
799,-0.07393,0.0577813
800,-0.07392,0.0577813
801,-0.07391,0.0577813
802,-0.0739,0.0577813
803,-0.07389,0.0577813
804,-0.07388,0.0577813
805,-0.07387,0.0577813
806,-0.07386,0.0577813
807,-0.07385,0.0577813
808,-0.07384,0.0577813
809,-0.07383,0.0577813
810,-0.07382,0.0577813
811,-0.07381,0.0577813
812,-0.0738,0.0577813
813,-0.07379,0.0577813
814,-0.07378,0.0577813
815,-0.07377,0.0577813
816,-0.07376,0.0577813
817,-0.07375,0.0577813
818,-0.07374,0.0577813
819,-0.07373,0.0577813
820,-0.07372,0.0577813
821,-0.07371,0.0577813
822,-0.0737,0.0577813
823,-0.07369,0.0577813
824,-0.07368,0.0577813
825,-0.07367,0.0577813
826,-0.07366,0.0577813
827,-0.07365,0.0577813
828,-0.07364,0.0577813
829,-0.07363,0.0593684
830,-0.07362,0.0593684
831,-0.07361,0.0577813
832,-0.0736,0.0577813
833,-0.07359,0.0577813
834,-0.07358,0.0577813
835,-0.07357,0.0577813
836,-0.07356,0.0577813
837,-0.07355,0.0577813
838,-0.07354,0.0577813
839,-0.07353,0.0577813
840,-0.07352,0.0577813
841,-0.07351,0.0577813
842,-0.0735,0.0577813
843,-0.07349,0.0577813
844,-0.07348,0.0577813
845,-0.07347,0.0577813
846,-0.07346,0.0577813
847,-0.07345,0.0577813
848,-0.07344,0.0577813
849,-0.07343,0.0577813
850,-0.07342,0.0577813
851,-0.07341,0.0577813
852,-0.0734,0.0577813
853,-0.07339,0.0577813
854,-0.07338,0.0577813
855,-0.07337,0.0577813
856,-0.07336,0.0577813
857,-0.07335,0.0577813
858,-0.07334,0.0577813
859,-0.07333,0.0577813
860,-0.07332,0.0577813
861,-0.07331,0.0577813
862,-0.0733,0.0577813
863,-0.07329,0.0577813
864,-0.07328,0.0577813
865,-0.07327,0.0577813
866,-0.07326,0.0577813
867,-0.07325,0.0577813
868,-0.07324,0.0577813
869,-0.07323,0.0577813
870,-0.07322,0.0577813
871,-0.07321,0.0577813
