mcu/report/frequency_reduction/Data/8HSI.csv

;Scopy version,438f138
;Exported on,mardi avril 29/04/2025
;Device,M2K
;Nr of samples,160000
;Sample rate,100000
;Tool,Oscilloscope
;Additional Information,
Sample,Time(S),CH1(V)
0,-0.08192,0.0677876
1,-0.08191,0.0677876
2,-0.0819,0.0677876
3,-0.08189,0.0677876
4,-0.08188,0.0677876
5,-0.08187,0.0677876
6,-0.08186,0.0677876
7,-0.08185,0.0677876
8,-0.08184,0.0677876
9,-0.08183,0.0677876
10,-0.08182,0.0677876
11,-0.08181,0.0677876
12,-0.0818,0.0677876
13,-0.08179,0.0677876
14,-0.08178,0.0677876
15,-0.08177,0.0677876
16,-0.08176,0.0677876
17,-0.08175,0.0677876
18,-0.08174,0.0677876
19,-0.08173,0.0677876
20,-0.08172,0.0677876
21,-0.08171,0.0677876
22,-0.0817,0.0677876
23,-0.08169,0.0677876
24,-0.08168,0.0677876
25,-0.08167,0.0677876
26,-0.08166,0.0677876
27,-0.08165,0.0677876
28,-0.08164,0.0677876
29,-0.08163,0.0677876
30,-0.08162,0.0677876
31,-0.08161,0.0677876
32,-0.0816,0.0677876
33,-0.08159,0.0677876
34,-0.08158,0.0677876
35,-0.08157,0.0677876
36,-0.08156,0.0677876
37,-0.08155,0.0677876
38,-0.08154,0.0677876
39,-0.08153,0.0677876
40,-0.08152,0.0677876
41,-0.08151,0.0677876
42,-0.0815,0.0677876
43,-0.08149,0.0677876
44,-0.08148,0.0677876
45,-0.08147,0.0677876
46,-0.08146,0.0677876
47,-0.08145,0.0677876
48,-0.08144,0.0677876
49,-0.08143,0.0677876
50,-0.08142,0.0677876
51,-0.08141,0.0677876
52,-0.0814,0.0677876
53,-0.08139,0.0677876
54,-0.08138,0.0677876
55,-0.08137,0.0677876
56,-0.08136,0.0677876
57,-0.08135,0.0677876
58,-0.08134,0.0677876
59,-0.08133,0.0677876
60,-0.08132,0.0677876
61,-0.08131,0.0677876
62,-0.0813,0.0677876
63,-0.08129,0.0677876
64,-0.08128,0.0677876
65,-0.08127,0.0677876
66,-0.08126,0.0677876
67,-0.08125,0.0677876
68,-0.08124,0.0677876
69,-0.08123,0.0677876
70,-0.08122,0.0677876
71,-0.08121,0.0677876
72,-0.0812,0.0677876
73,-0.08119,0.0677876
74,-0.08118,0.0677876
75,-0.08117,0.0677876
76,-0.08116,0.0677876
77,-0.08115,0.0677876
78,-0.08114,0.0677876
79,-0.08113,0.0677876
80,-0.08112,0.0677876
81,-0.08111,0.0677876
82,-0.0811,0.0677876
83,-0.08109,0.0677876
84,-0.08108,0.0677876
85,-0.08107,0.0677876
86,-0.08106,0.0677876
87,-0.08105,0.0677876
88,-0.08104,0.0677876
89,-0.08103,0.0677876
90,-0.08102,0.0677876
91,-0.08101,0.0677876
92,-0.081,0.0677876
93,-0.08099,0.0677876
94,-0.08098,0.0677876
95,-0.08097,0.0677876
96,-0.08096,0.0677876
97,-0.08095,0.0677876
98,-0.08094,0.0677876
99,-0.08093,0.0677876
100,-0.08092,0.0677876
101,-0.08091,0.0677876
102,-0.0809,0.0677876
103,-0.08089,0.0677876
104,-0.08088,0.0677876
105,-0.08087,0.0677876
106,-0.08086,0.0677876
107,-0.08085,0.0677876
108,-0.08084,0.0677876
109,-0.08083,0.0677876
110,-0.08082,0.0677876
111,-0.08081,0.0677876
112,-0.0808,0.0677876
113,-0.08079,0.0677876
114,-0.08078,0.0677876
115,-0.08077,0.0677876
116,-0.08076,0.0677876
117,-0.08075,0.0677876
118,-0.08074,0.0677876
119,-0.08073,0.0662005
120,-0.08072,0.0693746
121,-0.08071,0.0693746
122,-0.0807,0.0693746
123,-0.08069,0.0725487
124,-0.08068,0.0725487
125,-0.08067,0.0725487
126,-0.08066,0.0741358
127,-0.08065,0.0741358
128,-0.08064,0.0741358
129,-0.08063,0.0741358
130,-0.08062,0.0773098
131,-0.08061,0.0773098
132,-0.0806,0.0773098
133,-0.08059,0.0773098
134,-0.08058,0.0773098
135,-0.08057,0.0788969
136,-0.08056,0.0788969
137,-0.08055,0.0788969
138,-0.08054,0.0804839
139,-0.08053,0.0788969
140,-0.08052,0.082071
141,-0.08051,0.082071
142,-0.0805,0.082071
143,-0.08049,0.0804839
144,-0.08048,0.083658
145,-0.08047,0.083658
146,-0.08046,0.083658
147,-0.08045,0.082071
148,-0.08044,0.0852451
149,-0.08043,0.0852451
150,-0.08042,0.0852451
151,-0.08041,0.0852451
152,-0.0804,0.0868321
153,-0.08039,0.0868321
154,-0.08038,0.0868321
155,-0.08037,0.0868321
156,-0.08036,0.0868321
157,-0.08035,0.0884192
158,-0.08034,0.0884192
159,-0.08033,0.0884192
160,-0.08032,0.0884192
161,-0.08031,0.0868321
162,-0.0803,0.0900062
163,-0.08029,0.0900062
164,-0.08028,0.0900062
165,-0.08027,0.0900062
166,-0.08026,0.0900062
167,-0.08025,0.0900062
168,-0.08024,0.0900062
169,-0.08023,0.0900062
170,-0.08022,0.0900062
171,-0.08021,0.0900062
172,-0.0802,0.0900062
173,-0.08019,0.0884192
174,-0.08018,0.0884192
175,-0.08017,0.0884192
176,-0.08016,0.0884192
177,-0.08015,0.0868321
178,-0.08014,0.0868321
179,-0.08013,0.0868321
180,-0.08012,0.0868321
181,-0.08011,0.0868321
182,-0.0801,0.0852451
183,-0.08009,0.0852451
184,-0.08008,0.0852451
185,-0.08007,0.0852451
186,-0.08006,0.0852451
187,-0.08005,0.0852451
188,-0.08004,0.083658
189,-0.08003,0.083658
190,-0.08002,0.083658
191,-0.08001,0.083658
192,-0.08,0.083658
193,-0.07999,0.082071
194,-0.07998,0.083658
195,-0.07997,0.0804839
196,-0.07996,0.082071
197,-0.07995,0.082071
198,-0.07994,0.082071
199,-0.07993,0.082071
200,-0.07992,0.082071
201,-0.07991,0.0804839
202,-0.0799,0.0804839
203,-0.07989,0.0804839
204,-0.07988,0.0804839
205,-0.07987,0.0804839
206,-0.07986,0.0804839
207,-0.07985,0.0804839
208,-0.07984,0.0804839
209,-0.07983,0.0804839
210,-0.07982,0.0773098
211,-0.07981,0.0788969
212,-0.0798,0.0788969
213,-0.07979,0.0788969
214,-0.07978,0.0788969
215,-0.07977,0.0788969
216,-0.07976,0.0788969
217,-0.07975,0.0788969
218,-0.07974,0.0773098
219,-0.07973,0.0773098
220,-0.07972,0.0773098
221,-0.07971,0.0773098
222,-0.0797,0.0773098
223,-0.07969,0.0773098
224,-0.07968,0.0773098
225,-0.07967,0.0773098
226,-0.07966,0.0773098
227,-0.07965,0.0757228
228,-0.07964,0.0757228
229,-0.07963,0.0757228
230,-0.07962,0.0757228
231,-0.07961,0.0757228
232,-0.0796,0.0757228
233,-0.07959,0.0757228
234,-0.07958,0.0757228
235,-0.07957,0.0757228
236,-0.07956,0.0757228
237,-0.07955,0.0757228
238,-0.07954,0.0757228
239,-0.07953,0.0757228
240,-0.07952,0.0757228
241,-0.07951,0.0757228
242,-0.0795,0.0741358
243,-0.07949,0.0741358
244,-0.07948,0.0757228
245,-0.07947,0.0725487
246,-0.07946,0.0741358
247,-0.07945,0.0741358
248,-0.07944,0.0741358
249,-0.07943,0.0741358
250,-0.07942,0.0741358
251,-0.07941,0.0741358
252,-0.0794,0.0741358
253,-0.07939,0.0741358
254,-0.07938,0.0741358
255,-0.07937,0.0741358
256,-0.07936,0.0741358
257,-0.07935,0.0741358
258,-0.07934,0.0741358
259,-0.07933,0.0741358
260,-0.07932,0.0741358
261,-0.07931,0.0741358
262,-0.0793,0.0741358
263,-0.07929,0.0725487
264,-0.07928,0.0693746
265,-0.07927,0.0725487
266,-0.07926,0.0725487
267,-0.07925,0.0725487
268,-0.07924,0.0725487
269,-0.07923,0.0725487
270,-0.07922,0.0725487
271,-0.07921,0.0725487
272,-0.0792,0.0725487
273,-0.07919,0.0725487
274,-0.07918,0.0725487
275,-0.07917,0.0725487
276,-0.07916,0.0725487
277,-0.07915,0.0725487
278,-0.07914,0.0725487
279,-0.07913,0.0725487
280,-0.07912,0.0725487
281,-0.07911,0.0725487
282,-0.0791,0.0725487
283,-0.07909,0.0725487
284,-0.07908,0.0725487
285,-0.07907,0.0725487
286,-0.07906,0.0725487
287,-0.07905,0.0725487
288,-0.07904,0.0725487
289,-0.07903,0.0693746
290,-0.07902,0.0693746
291,-0.07901,0.0693746
292,-0.079,0.0693746
293,-0.07899,0.0693746
294,-0.07898,0.0725487
295,-0.07897,0.0725487
296,-0.07896,0.0725487
297,-0.07895,0.0725487
298,-0.07894,0.0677876
299,-0.07893,0.0693746
300,-0.07892,0.0693746
301,-0.07891,0.0693746
302,-0.0789,0.0693746
303,-0.07889,0.0693746
304,-0.07888,0.0693746
305,-0.07887,0.0693746
306,-0.07886,0.0693746
307,-0.07885,0.0693746
308,-0.07884,0.0693746
309,-0.07883,0.0693746
310,-0.07882,0.0693746
311,-0.07881,0.0693746
312,-0.0788,0.0693746
313,-0.07879,0.0693746
314,-0.07878,0.0693746
315,-0.07877,0.0693746
316,-0.07876,0.0693746
317,-0.07875,0.0693746
318,-0.07874,0.0693746
319,-0.07873,0.0693746
320,-0.07872,0.0693746
321,-0.07871,0.0693746
322,-0.0787,0.0693746
323,-0.07869,0.0693746
324,-0.07868,0.0693746
325,-0.07867,0.0693746
326,-0.07866,0.0693746
327,-0.07865,0.0693746
328,-0.07864,0.0693746
329,-0.07863,0.0693746
330,-0.07862,0.0693746
331,-0.07861,0.0693746
332,-0.0786,0.0693746
333,-0.07859,0.0693746
334,-0.07858,0.0693746
335,-0.07857,0.0693746
336,-0.07856,0.0693746
337,-0.07855,0.0693746
338,-0.07854,0.0693746
339,-0.07853,0.0693746
340,-0.07852,0.0693746
341,-0.07851,0.0693746
342,-0.0785,0.0693746
343,-0.07849,0.0693746
344,-0.07848,0.0677876
345,-0.07847,0.0677876
346,-0.07846,0.0677876
347,-0.07845,0.0677876
348,-0.07844,0.0677876
349,-0.07843,0.0677876
350,-0.07842,0.0677876
351,-0.07841,0.0677876
352,-0.0784,0.0677876
353,-0.07839,0.0677876
354,-0.07838,0.0677876
355,-0.07837,0.0677876
356,-0.07836,0.0677876
357,-0.07835,0.0677876
358,-0.07834,0.0677876
359,-0.07833,0.0677876
360,-0.07832,0.0677876
361,-0.07831,0.0677876
362,-0.0783,0.0677876
363,-0.07829,0.0677876
364,-0.07828,0.0677876
365,-0.07827,0.0677876
366,-0.07826,0.0677876
367,-0.07825,0.0677876
368,-0.07824,0.0677876
369,-0.07823,0.0677876
370,-0.07822,0.0677876
371,-0.07821,0.0677876
372,-0.0782,0.0677876
373,-0.07819,0.0677876
374,-0.07818,0.0677876
375,-0.07817,0.0677876
376,-0.07816,0.0677876
377,-0.07815,0.0677876
378,-0.07814,0.0677876
379,-0.07813,0.0677876
380,-0.07812,0.0677876
381,-0.07811,0.0677876
382,-0.0781,0.0677876
383,-0.07809,0.0677876
384,-0.07808,0.0677876
385,-0.07807,0.0677876
386,-0.07806,0.0677876
387,-0.07805,0.0677876
388,-0.07804,0.0677876
389,-0.07803,0.0677876
390,-0.07802,0.0677876
391,-0.07801,0.0677876
392,-0.078,0.0662005
393,-0.07799,0.0693746
394,-0.07798,0.0693746
395,-0.07797,0.0662005
396,-0.07796,0.0693746
397,-0.07795,0.0677876
398,-0.07794,0.0677876
399,-0.07793,0.0677876
400,-0.07792,0.0677876
401,-0.07791,0.0693746
402,-0.0779,0.0662005
403,-0.07789,0.0677876
404,-0.07788,0.0677876
405,-0.07787,0.0677876
406,-0.07786,0.0677876
407,-0.07785,0.0677876
408,-0.07784,0.0677876
409,-0.07783,0.0677876
410,-0.07782,0.0677876
411,-0.07781,0.0677876
412,-0.0778,0.0677876
413,-0.07779,0.0677876
414,-0.07778,0.0677876
415,-0.07777,0.0677876
416,-0.07776,0.0677876
417,-0.07775,0.0677876
418,-0.07774,0.0677876
419,-0.07773,0.0677876
420,-0.07772,0.0677876
421,-0.07771,0.0677876
422,-0.0777,0.0677876
423,-0.07769,0.0677876
424,-0.07768,0.0677876
425,-0.07767,0.0677876
426,-0.07766,0.0677876
427,-0.07765,0.0677876
428,-0.07764,0.0677876
429,-0.07763,0.0677876
430,-0.07762,0.0677876
431,-0.07761,0.0677876
432,-0.0776,0.0677876
433,-0.07759,0.0677876
434,-0.07758,0.0677876
435,-0.07757,0.0677876
436,-0.07756,0.0677876
437,-0.07755,0.0677876
438,-0.07754,0.0677876
439,-0.07753,0.0677876
440,-0.07752,0.0677876
441,-0.07751,0.0677876
442,-0.0775,0.0677876
443,-0.07749,0.0677876
444,-0.07748,0.0677876
445,-0.07747,0.0677876
446,-0.07746,0.0677876
447,-0.07745,0.0677876
448,-0.07744,0.0677876
449,-0.07743,0.0677876
450,-0.07742,0.0677876
451,-0.07741,0.0677876
452,-0.0774,0.0677876
453,-0.07739,0.0677876
454,-0.07738,0.0677876
455,-0.07737,0.0677876
456,-0.07736,0.0677876
457,-0.07735,0.0677876
458,-0.07734,0.0677876
459,-0.07733,0.0677876
460,-0.07732,0.0677876
461,-0.07731,0.0677876
462,-0.0773,0.0677876
463,-0.07729,0.0677876
464,-0.07728,0.0677876
465,-0.07727,0.0677876
466,-0.07726,0.0677876
467,-0.07725,0.0677876
468,-0.07724,0.0677876
469,-0.07723,0.0677876
470,-0.07722,0.0677876
471,-0.07721,0.0677876
472,-0.0772,0.0677876
473,-0.07719,0.0677876
474,-0.07718,0.0677876
475,-0.07717,0.0677876
476,-0.07716,0.0677876
477,-0.07715,0.0677876
478,-0.07714,0.0677876
479,-0.07713,0.0677876
480,-0.07712,0.0677876
481,-0.07711,0.0677876
482,-0.0771,0.0677876
483,-0.07709,0.0677876
484,-0.07708,0.0677876
485,-0.07707,0.0677876
486,-0.07706,0.0677876
487,-0.07705,0.0677876
488,-0.07704,0.0677876
489,-0.07703,0.0677876
490,-0.07702,0.0677876
491,-0.07701,0.0677876
492,-0.077,0.0677876
493,-0.07699,0.0677876
494,-0.07698,0.0677876
495,-0.07697,0.0677876
496,-0.07696,0.0677876
497,-0.07695,0.0677876
498,-0.07694,0.0677876
499,-0.07693,0.0677876
500,-0.07692,0.0677876
501,-0.07691,0.0677876
502,-0.0769,0.0677876
503,-0.07689,0.0677876
504,-0.07688,0.0677876
505,-0.07687,0.0677876
506,-0.07686,0.0677876
507,-0.07685,0.0677876
508,-0.07684,0.0677876
509,-0.07683,0.0677876
510,-0.07682,0.0677876
511,-0.07681,0.0677876
512,-0.0768,0.0677876
513,-0.07679,0.0677876
514,-0.07678,0.0677876
515,-0.07677,0.0677876
516,-0.07676,0.0677876
517,-0.07675,0.0677876
518,-0.07674,0.0677876
519,-0.07673,0.0677876
520,-0.07672,0.0677876
521,-0.07671,0.0677876
522,-0.0767,0.0677876
523,-0.07669,0.0677876
524,-0.07668,0.0677876
525,-0.07667,0.0677876
526,-0.07666,0.0677876
527,-0.07665,0.0677876
528,-0.07664,0.0677876
529,-0.07663,0.0677876
530,-0.07662,0.0677876
531,-0.07661,0.0677876
532,-0.0766,0.0677876
533,-0.07659,0.0677876
534,-0.07658,0.0677876
535,-0.07657,0.0677876
536,-0.07656,0.0677876
537,-0.07655,0.0677876
538,-0.07654,0.0677876
539,-0.07653,0.0677876
540,-0.07652,0.0677876
541,-0.07651,0.0677876
542,-0.0765,0.0677876
543,-0.07649,0.0677876
544,-0.07648,0.0677876
545,-0.07647,0.0677876
546,-0.07646,0.0677876
547,-0.07645,0.0677876
548,-0.07644,0.0677876
549,-0.07643,0.0677876
550,-0.07642,0.0677876
551,-0.07641,0.0677876
552,-0.0764,0.0677876
553,-0.07639,0.0677876
554,-0.07638,0.0677876
555,-0.07637,0.0677876
556,-0.07636,0.0677876
557,-0.07635,0.0677876
558,-0.07634,0.0677876
559,-0.07633,0.0677876
560,-0.07632,0.0677876
561,-0.07631,0.0677876
562,-0.0763,0.0677876
563,-0.07629,0.0677876
564,-0.07628,0.0677876
565,-0.07627,0.0677876
566,-0.07626,0.0677876
567,-0.07625,0.0677876
568,-0.07624,0.0677876
569,-0.07623,0.0677876
570,-0.07622,0.0677876
571,-0.07621,0.0677876
572,-0.0762,0.0677876
573,-0.07619,0.0677876
574,-0.07618,0.0677876
575,-0.07617,0.0677876
576,-0.07616,0.0677876
577,-0.07615,0.0677876
578,-0.07614,0.0677876
579,-0.07613,0.0677876
580,-0.07612,0.0677876
581,-0.07611,0.0677876
582,-0.0761,0.0677876
583,-0.07609,0.0677876
584,-0.07608,0.0677876
585,-0.07607,0.0677876
586,-0.07606,0.0677876
587,-0.07605,0.0677876
588,-0.07604,0.0677876
589,-0.07603,0.0677876
590,-0.07602,0.0677876
591,-0.07601,0.0677876
592,-0.076,0.0677876
593,-0.07599,0.0677876
594,-0.07598,0.0677876
595,-0.07597,0.0677876
596,-0.07596,0.0677876
597,-0.07595,0.0677876
598,-0.07594,0.0677876
599,-0.07593,0.0677876
600,-0.07592,0.0677876
601,-0.07591,0.0677876
602,-0.0759,0.0677876
603,-0.07589,0.0677876
604,-0.07588,0.0677876
605,-0.07587,0.0677876
606,-0.07586,0.0677876
607,-0.07585,0.0677876
608,-0.07584,0.0677876
609,-0.07583,0.0677876
610,-0.07582,0.0677876
611,-0.07581,0.0677876
612,-0.0758,0.0677876
613,-0.07579,0.0677876
614,-0.07578,0.0677876
615,-0.07577,0.0677876
616,-0.07576,0.0677876
617,-0.07575,0.0677876
618,-0.07574,0.0677876
619,-0.07573,0.0677876
620,-0.07572,0.0677876
621,-0.07571,0.0677876
622,-0.0757,0.0677876
623,-0.07569,0.0677876
624,-0.07568,0.0677876
625,-0.07567,0.0677876
626,-0.07566,0.0677876
627,-0.07565,0.0677876
628,-0.07564,0.0677876
629,-0.07563,0.0677876
630,-0.07562,0.0677876
631,-0.07561,0.0677876
632,-0.0756,0.0677876
633,-0.07559,0.0677876
634,-0.07558,0.0677876
635,-0.07557,0.0677876
636,-0.07556,0.0677876
637,-0.07555,0.0677876
638,-0.07554,0.0677876
639,-0.07553,0.0677876
640,-0.07552,0.0677876
641,-0.07551,0.0677876
642,-0.0755,0.0677876
643,-0.07549,0.0677876
644,-0.07548,0.0677876
645,-0.07547,0.0677876
646,-0.07546,0.0677876
647,-0.07545,0.0677876
648,-0.07544,0.0677876
649,-0.07543,0.0677876
650,-0.07542,0.0677876
651,-0.07541,0.0677876
652,-0.0754,0.0677876
653,-0.07539,0.0677876
654,-0.07538,0.0677876
655,-0.07537,0.0677876
656,-0.07536,0.0677876
657,-0.07535,0.0677876
658,-0.07534,0.0677876
659,-0.07533,0.0677876
660,-0.07532,0.0677876
661,-0.07531,0.0677876
662,-0.0753,0.0677876
663,-0.07529,0.0677876
664,-0.07528,0.0677876
665,-0.07527,0.0677876
666,-0.07526,0.0677876
667,-0.07525,0.0677876
668,-0.07524,0.0677876
669,-0.07523,0.0677876
670,-0.07522,0.0677876
671,-0.07521,0.0677876
672,-0.0752,0.0677876
673,-0.07519,0.0677876
674,-0.07518,0.0677876
675,-0.07517,0.0677876
676,-0.07516,0.0677876
677,-0.07515,0.0677876
678,-0.07514,0.0677876
679,-0.07513,0.0677876
680,-0.07512,0.0677876
681,-0.07511,0.0677876
682,-0.0751,0.0677876
683,-0.07509,0.0677876
684,-0.07508,0.0677876
685,-0.07507,0.0677876
686,-0.07506,0.0677876
687,-0.07505,0.0677876
688,-0.07504,0.0677876
689,-0.07503,0.0677876
690,-0.07502,0.0677876
691,-0.07501,0.0677876
692,-0.075,0.0677876
693,-0.07499,0.0677876
694,-0.07498,0.0677876
695,-0.07497,0.0677876
696,-0.07496,0.0677876
697,-0.07495,0.0677876
698,-0.07494,0.0677876
699,-0.07493,0.0677876
700,-0.07492,0.0677876
701,-0.07491,0.0677876
702,-0.0749,0.0677876
703,-0.07489,0.0677876
704,-0.07488,0.0677876
705,-0.07487,0.0677876
706,-0.07486,0.0677876
707,-0.07485,0.0677876
708,-0.07484,0.0677876
709,-0.07483,0.0677876
710,-0.07482,0.0677876
711,-0.07481,0.0677876
712,-0.0748,0.0677876
713,-0.07479,0.0677876
714,-0.07478,0.0677876
715,-0.07477,0.0677876
716,-0.07476,0.0677876
717,-0.07475,0.0677876
718,-0.07474,0.0677876
719,-0.07473,0.0677876
720,-0.07472,0.0677876
721,-0.07471,0.0677876
722,-0.0747,0.0677876
723,-0.07469,0.0677876
724,-0.07468,0.0677876
725,-0.07467,0.0677876
726,-0.07466,0.0677876
727,-0.07465,0.0677876
728,-0.07464,0.0677876
729,-0.07463,0.0677876
730,-0.07462,0.0677876
731,-0.07461,0.0677876
732,-0.0746,0.0677876
733,-0.07459,0.0677876
734,-0.07458,0.0677876
735,-0.07457,0.0677876
736,-0.07456,0.0677876
737,-0.07455,0.0677876
738,-0.07454,0.0677876
739,-0.07453,0.0677876
740,-0.07452,0.0677876
741,-0.07451,0.0677876
742,-0.0745,0.0677876
743,-0.07449,0.0677876
744,-0.07448,0.0677876
745,-0.07447,0.0677876
746,-0.07446,0.0677876
747,-0.07445,0.0677876
748,-0.07444,0.0677876
749,-0.07443,0.0677876
750,-0.07442,0.0677876
751,-0.07441,0.0677876
752,-0.0744,0.0677876
753,-0.07439,0.0677876
754,-0.07438,0.0677876
755,-0.07437,0.0677876
756,-0.07436,0.0677876
757,-0.07435,0.0677876
758,-0.07434,0.0677876
759,-0.07433,0.0677876
760,-0.07432,0.0677876
761,-0.07431,0.0677876
762,-0.0743,0.0677876
763,-0.07429,0.0677876
764,-0.07428,0.0677876
765,-0.07427,0.0677876
766,-0.07426,0.0677876
767,-0.07425,0.0677876
768,-0.07424,0.0677876
769,-0.07423,0.0677876
770,-0.07422,0.0677876
771,-0.07421,0.0677876
772,-0.0742,0.0677876
773,-0.07419,0.0677876
774,-0.07418,0.0677876
775,-0.07417,0.0677876
776,-0.07416,0.0677876
777,-0.07415,0.0677876
778,-0.07414,0.0677876
779,-0.07413,0.0677876
780,-0.07412,0.0677876
781,-0.07411,0.0677876
782,-0.0741,0.0677876
783,-0.07409,0.0677876
784,-0.07408,0.0677876
785,-0.07407,0.0677876
786,-0.07406,0.0677876
787,-0.07405,0.0677876
788,-0.07404,0.0677876
789,-0.07403,0.0677876
790,-0.07402,0.0677876
791,-0.07401,0.0677876
792,-0.074,0.0677876
793,-0.07399,0.0677876
794,-0.07398,0.0677876
795,-0.07397,0.0677876
796,-0.07396,0.0677876
797,-0.07395,0.0677876
798,-0.07394,0.0677876
799,-0.07393,0.0677876
800,-0.07392,0.0677876
801,-0.07391,0.0677876
802,-0.0739,0.0677876
803,-0.07389,0.0677876
804,-0.07388,0.0677876
805,-0.07387,0.0677876
806,-0.07386,0.0677876
807,-0.07385,0.0677876
808,-0.07384,0.0677876
809,-0.07383,0.0677876
810,-0.07382,0.0677876
811,-0.07381,0.0677876
812,-0.0738,0.0677876
813,-0.07379,0.0677876
814,-0.07378,0.0677876
815,-0.07377,0.0677876
816,-0.07376,0.0677876
817,-0.07375,0.0677876
818,-0.07374,0.0677876
819,-0.07373,0.0677876
820,-0.07372,0.0677876
821,-0.07371,0.0677876
822,-0.0737,0.0677876
823,-0.07369,0.0677876
824,-0.07368,0.0677876
825,-0.07367,0.0677876
826,-0.07366,0.0677876
827,-0.07365,0.0677876
828,-0.07364,0.0677876
829,-0.07363,0.0677876
830,-0.07362,0.0677876
831,-0.07361,0.0677876
832,-0.0736,0.0677876
833,-0.07359,0.0677876
834,-0.07358,0.0677876
835,-0.07357,0.0677876
836,-0.07356,0.0677876
837,-0.07355,0.0677876
838,-0.07354,0.0677876
839,-0.07353,0.0677876
840,-0.07352,0.0677876
841,-0.07351,0.0677876
842,-0.0735,0.0677876
843,-0.07349,0.0677876
844,-0.07348,0.0677876
845,-0.07347,0.0677876
846,-0.07346,0.0677876
847,-0.07345,0.0677876
848,-0.07344,0.0677876
849,-0.07343,0.0677876
850,-0.07342,0.0677876
851,-0.07341,0.0677876
852,-0.0734,0.0677876
853,-0.07339,0.0677876
854,-0.07338,0.0677876
855,-0.07337,0.0677876
856,-0.07336,0.0677876
857,-0.07335,0.0677876
858,-0.07334,0.0677876
859,-0.07333,0.0677876
860,-0.07332,0.0677876
861,-0.07331,0.0677876
862,-0.0733,0.0677876
863,-0.07329,0.0677876
864,-0.07328,0.0677876
865,-0.07327,0.0677876
866,-0.07326,0.0677876
867,-0.07325,0.0677876
868,-0.07324,0.0677876
869,-0.07323,0.0677876
870,-0.07322,0.0677876
