mcu/power_measurement/mcu/mcu_normal.csv

;Scopy version,438f138
;Exported on,samedi décembre 14/12/2024
;Device,M2K
;Nr of samples,3200
;Sample rate,1000
;Tool,Oscilloscope
;Additional Information,
Sample,Time(S),Ref
0,-1.6,0.584318
1,-1.599,0.584318
2,-1.598,0.579102
3,-1.597,0.579102
4,-1.596,0.579102
5,-1.595,0.582579
6,-1.594,0.582579
7,-1.593,0.582579
8,-1.592,0.582579
9,-1.591,0.582579
10,-1.59,0.579102
11,-1.589,0.582579
12,-1.588,0.582579
13,-1.587,0.582579
14,-1.586,0.582579
15,-1.585,0.584318
16,-1.584,0.584318
17,-1.583,0.587796
18,-1.582,0.582579
19,-1.581,0.582579
20,-1.58,0.582579
21,-1.579,0.582579
22,-1.578,0.582579
23,-1.577,0.582579
24,-1.576,0.582579
25,-1.575,0.584318
26,-1.574,0.582579
27,-1.573,0.579102
28,-1.572,0.582579
29,-1.571,0.582579
30,-1.57,0.582579
31,-1.569,0.582579
32,-1.568,0.584318
33,-1.567,0.584318
34,-1.566,0.582579
35,-1.565,0.579102
36,-1.564,0.579102
37,-1.563,0.582579
38,-1.562,0.582579
39,-1.561,0.582579
40,-1.56,0.582579
41,-1.559,0.584318
42,-1.558,0.582579
43,-1.557,0.577363
44,-1.556,0.582579
45,-1.555,0.582579
46,-1.554,0.582579
47,-1.553,0.582579
48,-1.552,0.582579
49,-1.551,0.584318
50,-1.55,0.579102
51,-1.549,0.579102
52,-1.548,0.579102
53,-1.547,0.582579
54,-1.546,0.582579
55,-1.545,0.582579
56,-1.544,0.582579
57,-1.543,0.584318
58,-1.542,0.582579
59,-1.541,0.582579
60,-1.54,0.582579
61,-1.539,0.582579
62,-1.538,0.582579
63,-1.537,0.582579
64,-1.536,0.582579
65,-1.535,0.584318
66,-1.534,0.584318
67,-1.533,0.579102
68,-1.532,0.579102
69,-1.531,0.579102
70,-1.53,0.582579
71,-1.529,0.582579
72,-1.528,0.582579
73,-1.527,0.584318
74,-1.526,0.582579
75,-1.525,0.582579
76,-1.524,0.582579
77,-1.523,0.584318
78,-1.522,0.584318
79,-1.521,0.584318
80,-1.52,0.584318
81,-1.519,0.586057
82,-1.518,0.582579
83,-1.517,0.582579
84,-1.516,0.582579
85,-1.515,0.582579
86,-1.514,0.582579
87,-1.513,0.582579
88,-1.512,0.582579
89,-1.511,0.582579
90,-1.51,0.582579
91,-1.509,0.579102
92,-1.508,0.575624
93,-1.507,0.575624
94,-1.506,0.575624
95,-1.505,0.575624
96,-1.504,0.575624
97,-1.503,0.575624
98,-1.502,0.577363
99,-1.501,0.573885
100,-1.5,0.572146
101,-1.499,0.573885
102,-1.498,0.573885
103,-1.497,0.573885
104,-1.496,0.573885
105,-1.495,0.573885
106,-1.494,0.573885
107,-1.493,0.572146
108,-1.492,0.572146
109,-1.491,0.572146
110,-1.49,0.573885
111,-1.489,0.573885
112,-1.488,0.573885
113,-1.487,0.575624
114,-1.486,0.575624
115,-1.485,0.573885
116,-1.484,0.573885
117,-1.483,0.573885
118,-1.482,0.573885
119,-1.481,0.573885
120,-1.48,0.573885
121,-1.479,0.575624
122,-1.478,0.575624
123,-1.477,0.573885
124,-1.476,0.573885
125,-1.475,0.573885
126,-1.474,0.573885
127,-1.473,0.573885
128,-1.472,0.573885
129,-1.471,0.573885
130,-1.47,0.575624
131,-1.469,0.573885
132,-1.468,0.573885
133,-1.467,0.573885
134,-1.466,0.573885
135,-1.465,0.575624
136,-1.464,0.575624
137,-1.463,0.573885
138,-1.462,0.577363
139,-1.461,0.577363
140,-1.46,0.573885
141,-1.459,0.575624
142,-1.458,0.575624
143,-1.457,0.575624
144,-1.456,0.575624
145,-1.455,0.575624
146,-1.454,0.575624
147,-1.453,0.573885
148,-1.452,0.573885
149,-1.451,0.573885
150,-1.45,0.573885
151,-1.449,0.575624
152,-1.448,0.575624
153,-1.447,0.575624
154,-1.446,0.579102
155,-1.445,0.575624
156,-1.444,0.575624
157,-1.443,0.575624
158,-1.442,0.575624
159,-1.441,0.575624
160,-1.44,0.575624
161,-1.439,0.577363
162,-1.438,0.577363
163,-1.437,0.573885
164,-1.436,0.572146
165,-1.435,0.572146
166,-1.434,0.573885
167,-1.433,0.573885
168,-1.432,0.573885
169,-1.431,0.573885
170,-1.43,0.577363
171,-1.429,0.573885
172,-1.428,0.573885
173,-1.427,0.573885
174,-1.426,0.573885
175,-1.425,0.575624
176,-1.424,0.575624
177,-1.423,0.575624
178,-1.422,0.575624
179,-1.421,0.573885
180,-1.42,0.573885
181,-1.419,0.573885
182,-1.418,0.573885
183,-1.417,0.573885
184,-1.416,0.573885
185,-1.415,0.573885
186,-1.414,0.575624
187,-1.413,0.573885
188,-1.412,0.573885
189,-1.411,0.573885
190,-1.41,0.573885
191,-1.409,0.573885
192,-1.408,0.575624
193,-1.407,0.575624
194,-1.406,0.577363
195,-1.405,0.575624
196,-1.404,0.573885
197,-1.403,0.573885
198,-1.402,0.575624
199,-1.401,0.575624
200,-1.4,0.575624
201,-1.399,0.575624
202,-1.398,0.575624
203,-1.397,0.575624
204,-1.396,0.573885
205,-1.395,0.573885
206,-1.394,0.575624
207,-1.393,0.575624
208,-1.392,0.575624
209,-1.391,0.575624
210,-1.39,0.575624
211,-1.389,0.575624
212,-1.388,0.573885
213,-1.387,0.573885
214,-1.386,0.575624
215,-1.385,0.575624
216,-1.384,0.575624
217,-1.383,0.575624
218,-1.382,0.577363
219,-1.381,0.577363
220,-1.38,0.575624
221,-1.379,0.575624
222,-1.378,0.575624
223,-1.377,0.575624
224,-1.376,0.575624
225,-1.375,0.575624
226,-1.374,0.579102
227,-1.373,0.573885
228,-1.372,0.572146
229,-1.371,0.572146
230,-1.37,0.572146
231,-1.369,0.573885
232,-1.368,0.573885
233,-1.367,0.573885
234,-1.366,0.575624
235,-1.365,0.573885
236,-1.364,0.573885
237,-1.363,0.573885
238,-1.362,0.573885
239,-1.361,0.575624
240,-1.36,0.575624
241,-1.359,0.575624
242,-1.358,0.575624
243,-1.357,0.573885
244,-1.356,0.573885
245,-1.355,0.573885
246,-1.354,0.573885
247,-1.353,0.573885
248,-1.352,0.573885
249,-1.351,0.573885
250,-1.35,0.575624
251,-1.349,0.575624
252,-1.348,0.573885
253,-1.347,0.573885
254,-1.346,0.575624
255,-1.345,0.575624
256,-1.344,0.575624
257,-1.343,0.575624
258,-1.342,0.575624
259,-1.341,0.575624
260,-1.34,0.575624
261,-1.339,0.573885
262,-1.338,0.575624
263,-1.337,0.575624
264,-1.336,0.573885
265,-1.335,0.573885
266,-1.334,0.575624
267,-1.333,0.575624
268,-1.332,0.573885
269,-1.331,0.573885
270,-1.33,0.573885
271,-1.329,0.575624
272,-1.328,0.575624
273,-1.327,0.575624
274,-1.326,0.577363
275,-1.325,0.575624
276,-1.324,0.575624
277,-1.323,0.575624
278,-1.322,0.575624
279,-1.321,0.575624
280,-1.32,0.575624
281,-1.319,0.575624
282,-1.318,0.577363
283,-1.317,0.575624
284,-1.316,0.577363
285,-1.315,0.573885
286,-1.314,0.575624
287,-1.313,0.575624
288,-1.312,0.575624
289,-1.311,0.575624
290,-1.31,0.575624
291,-1.309,0.577363
292,-1.308,0.573885
293,-1.307,0.573885
294,-1.306,0.579102
295,-1.305,0.579102
296,-1.304,0.582579
297,-1.303,0.582579
298,-1.302,0.582579
299,-1.301,0.584318
300,-1.3,0.582579
301,-1.299,0.582579
302,-1.298,0.582579
303,-1.297,0.582579
304,-1.296,0.582579
305,-1.295,0.582579
306,-1.294,0.582579
307,-1.293,0.582579
308,-1.292,0.579102
309,-1.291,0.579102
310,-1.29,0.579102
311,-1.289,0.582579
312,-1.288,0.582579
313,-1.287,0.582579
314,-1.286,0.582579
315,-1.285,0.584318
316,-1.284,0.582579
317,-1.283,0.584318
318,-1.282,0.582579
319,-1.281,0.584318
320,-1.28,0.584318
321,-1.279,0.584318
322,-1.278,0.584318
323,-1.277,0.584318
324,-1.276,0.582579
325,-1.275,0.582579
326,-1.274,0.582579
327,-1.273,0.582579
328,-1.272,0.582579
329,-1.271,0.582579
330,-1.27,0.582579
331,-1.269,0.586057
332,-1.268,0.582579
333,-1.267,0.584318
334,-1.266,0.582579
335,-1.265,0.584318
336,-1.264,0.584318
337,-1.263,0.584318
338,-1.262,0.584318
339,-1.261,0.586057
340,-1.26,0.584318
341,-1.259,0.584318
342,-1.258,0.584318
343,-1.257,0.584318
344,-1.256,0.584318
345,-1.255,0.584318
346,-1.254,0.584318
347,-1.253,0.584318
348,-1.252,0.584318
349,-1.251,0.584318
350,-1.25,0.584318
351,-1.249,0.584318
352,-1.248,0.584318
353,-1.247,0.586057
354,-1.246,0.586057
355,-1.245,0.586057
356,-1.244,0.582579
357,-1.243,0.582579
358,-1.242,0.579102
359,-1.241,0.584318
360,-1.24,0.577363
361,-1.239,0.582579
362,-1.238,0.582579
363,-1.237,0.582579
364,-1.236,0.579102
365,-1.235,0.579102
366,-1.234,0.579102
367,-1.233,0.582579
368,-1.232,0.579102
369,-1.231,0.579102
370,-1.23,0.582579
371,-1.229,0.582579
372,-1.228,0.582579
373,-1.227,0.579102
374,-1.226,0.579102
375,-1.225,0.582579
376,-1.224,0.582579
377,-1.223,0.582579
378,-1.222,0.582579
379,-1.221,0.584318
380,-1.22,0.582579
381,-1.219,0.582579
382,-1.218,0.582579
383,-1.217,0.582579
384,-1.216,0.582579
385,-1.215,0.582579
386,-1.214,0.582579
387,-1.213,0.586057
388,-1.212,0.582579
389,-1.211,0.579102
390,-1.21,0.579102
391,-1.209,0.579102
392,-1.208,0.582579
393,-1.207,0.582579
394,-1.206,0.582579
395,-1.205,0.584318
396,-1.204,0.582579
397,-1.203,0.582579
398,-1.202,0.582579
399,-1.201,0.584318
400,-1.2,0.584318
401,-1.199,0.584318
402,-1.198,0.584318
403,-1.197,0.584318
404,-1.196,0.582579
405,-1.195,0.582579
406,-1.194,0.582579
407,-1.193,0.582579
408,-1.192,0.582579
409,-1.191,0.582579
410,-1.19,0.584318
411,-1.189,0.584318
412,-1.188,0.584318
413,-1.187,0.582579
414,-1.186,0.584318
415,-1.185,0.584318
416,-1.184,0.584318
417,-1.183,0.584318
418,-1.182,0.586057
419,-1.181,0.586057
420,-1.18,0.586057
421,-1.179,0.582579
422,-1.178,0.579102
423,-1.177,0.579102
424,-1.176,0.579102
425,-1.175,0.579102
426,-1.174,0.579102
427,-1.173,0.579102
428,-1.172,0.579102
429,-1.171,0.579102
430,-1.17,0.579102
431,-1.169,0.579102
432,-1.168,0.582579
433,-1.167,0.582579
434,-1.166,0.582579
435,-1.165,0.584318
436,-1.164,0.582579
437,-1.163,0.582579
438,-1.162,0.582579
439,-1.161,0.582579
440,-1.16,0.582579
441,-1.159,0.582579
442,-1.158,0.582579
443,-1.157,0.582579
444,-1.156,0.582579
445,-1.155,0.582579
446,-1.154,0.582579
447,-1.153,0.582579
448,-1.152,0.582579
449,-1.151,0.582579
450,-1.15,0.584318
451,-1.149,0.584318
452,-1.148,0.584318
453,-1.147,0.582579
454,-1.146,0.582579
455,-1.145,0.582579
456,-1.144,0.582579
457,-1.143,0.582579
458,-1.142,0.584318
459,-1.141,0.584318
460,-1.14,0.584318
461,-1.139,0.582579
462,-1.138,0.582579
463,-1.137,0.582579
464,-1.136,0.584318
465,-1.135,0.582579
466,-1.134,0.584318
467,-1.133,0.584318
468,-1.132,0.584318
469,-1.131,0.582579
470,-1.13,0.582579
471,-1.129,0.582579
472,-1.128,0.584318
473,-1.127,0.582579
474,-1.126,0.584318
475,-1.125,0.584318
476,-1.124,0.586057
477,-1.123,0.584318
478,-1.122,0.584318
479,-1.121,0.584318
480,-1.12,0.587796
481,-1.119,0.582579
482,-1.118,0.586057
483,-1.117,0.586057
484,-1.116,0.586057
485,-1.115,0.579102
486,-1.114,0.579102
487,-1.113,0.579102
488,-1.112,0.579102
489,-1.111,0.579102
490,-1.11,0.579102
491,-1.109,0.579102
492,-1.108,0.582579
493,-1.107,0.579102
494,-1.106,0.582579
495,-1.105,0.582579
496,-1.104,0.577363
497,-1.103,0.573885
498,-1.102,0.573885
499,-1.101,0.575624
500,-1.1,0.575624
501,-1.099,0.573885
502,-1.098,0.573885
503,-1.097,0.573885
504,-1.096,0.573885
505,-1.095,0.573885
506,-1.094,0.573885
507,-1.093,0.573885
508,-1.092,0.573885
509,-1.091,0.572146
510,-1.09,0.573885
511,-1.089,0.573885
512,-1.088,0.573885
513,-1.087,0.573885
514,-1.086,0.575624
515,-1.085,0.575624
516,-1.084,0.575624
517,-1.083,0.573885
518,-1.082,0.573885
519,-1.081,0.573885
520,-1.08,0.575624
521,-1.079,0.572146
522,-1.078,0.575624
523,-1.077,0.575624
524,-1.076,0.575624
525,-1.075,0.573885
526,-1.074,0.573885
527,-1.073,0.573885
528,-1.072,0.573885
529,-1.071,0.573885
530,-1.07,0.573885
531,-1.069,0.575624
532,-1.068,0.575624
533,-1.067,0.573885
534,-1.066,0.573885
535,-1.065,0.573885
536,-1.064,0.575624
537,-1.063,0.575624
538,-1.062,0.575624
539,-1.061,0.575624
540,-1.06,0.577363
541,-1.059,0.575624
542,-1.058,0.575624
543,-1.057,0.575624
544,-1.056,0.575624
545,-1.055,0.575624
546,-1.054,0.575624
547,-1.053,0.575624
548,-1.052,0.575624
549,-1.051,0.575624
550,-1.05,0.570407
551,-1.049,0.573885
552,-1.048,0.573885
553,-1.047,0.573885
554,-1.046,0.573885
555,-1.045,0.575624
556,-1.044,0.575624
557,-1.043,0.573885
558,-1.042,0.573885
559,-1.041,0.575624
560,-1.04,0.575624
561,-1.039,0.573885
562,-1.038,0.573885
563,-1.037,0.573885
564,-1.036,0.575624
565,-1.035,0.573885
566,-1.034,0.572146
567,-1.033,0.573885
568,-1.032,0.573885
569,-1.031,0.573885
570,-1.03,0.573885
571,-1.029,0.573885
572,-1.028,0.575624
573,-1.027,0.575624
574,-1.026,0.572146
575,-1.025,0.575624
576,-1.024,0.575624
577,-1.023,0.575624
578,-1.022,0.575624
579,-1.021,0.575624
580,-1.02,0.579102
581,-1.019,0.575624
582,-1.018,0.573885
583,-1.017,0.573885
584,-1.016,0.577363
585,-1.015,0.573885
586,-1.014,0.573885
587,-1.013,0.575624
588,-1.012,0.575624
589,-1.011,0.575624
590,-1.01,0.572146
591,-1.009,0.575624
592,-1.008,0.575624
593,-1.007,0.575624
594,-1.006,0.575624
595,-1.005,0.575624
596,-1.004,0.577363
597,-1.003,0.575624
598,-1.002,0.575624
599,-1.001,0.575624
600,-1,0.575624
601,-0.999,0.575624
602,-0.998,0.575624
603,-0.997,0.575624
604,-0.996,0.577363
605,-0.995,0.575624
606,-0.994,0.575624
607,-0.993,0.575624
608,-0.992,0.575624
609,-0.991,0.575624
610,-0.99,0.575624
611,-0.989,0.575624
612,-0.988,0.577363
613,-0.987,0.577363
614,-0.986,0.573885
615,-0.985,0.573885
616,-0.984,0.573885
617,-0.983,0.575624
618,-0.982,0.575624
619,-0.981,0.575624
620,-0.98,0.575624
621,-0.979,0.575624
622,-0.978,0.573885
623,-0.977,0.573885
624,-0.976,0.573885
625,-0.975,0.573885
626,-0.974,0.573885
627,-0.973,0.573885
628,-0.972,0.573885
629,-0.971,0.573885
630,-0.97,0.573885
631,-0.969,0.573885
632,-0.968,0.573885
633,-0.967,0.573885
634,-0.966,0.573885
635,-0.965,0.575624
636,-0.964,0.575624
637,-0.963,0.575624
638,-0.962,0.575624
639,-0.961,0.575624
640,-0.96,0.575624
641,-0.959,0.575624
642,-0.958,0.575624
643,-0.957,0.575624
644,-0.956,0.575624
645,-0.955,0.575624
646,-0.954,0.573885
647,-0.953,0.573885
648,-0.952,0.573885
649,-0.951,0.573885
650,-0.95,0.573885
651,-0.949,0.575624
652,-0.948,0.573885
653,-0.947,0.577363
654,-0.946,0.575624
655,-0.945,0.575624
656,-0.944,0.575624
657,-0.943,0.575624
658,-0.942,0.575624
659,-0.941,0.575624
660,-0.94,0.577363
661,-0.939,0.577363
662,-0.938,0.575624
663,-0.937,0.575624
664,-0.936,0.575624
665,-0.935,0.575624
666,-0.934,0.575624
667,-0.933,0.575624
668,-0.932,0.575624
669,-0.931,0.575624
670,-0.93,0.575624
671,-0.929,0.575624
672,-0.928,0.575624
673,-0.927,0.577363
674,-0.926,0.577363
675,-0.925,0.577363
676,-0.924,0.575624
677,-0.923,0.579102
678,-0.922,0.575624
679,-0.921,0.573885
680,-0.92,0.575624
681,-0.919,0.575624
682,-0.918,0.575624
683,-0.917,0.575624
684,-0.916,0.575624
685,-0.915,0.575624
686,-0.914,0.573885
687,-0.913,0.573885
688,-0.912,0.573885
689,-0.911,0.573885
690,-0.91,0.573885
691,-0.909,0.575624
692,-0.908,0.575624
693,-0.907,0.575624
694,-0.906,0.573885
695,-0.905,0.575624
696,-0.904,0.575624
697,-0.903,0.575624
698,-0.902,0.579102
699,-0.901,0.584318
700,-0.9,0.584318
701,-0.899,0.584318
702,-0.898,0.582579
703,-0.897,0.582579
704,-0.896,0.584318
705,-0.895,0.584318
706,-0.894,0.584318
707,-0.893,0.584318
708,-0.892,0.584318
709,-0.891,0.584318
710,-0.89,0.582579
711,-0.889,0.582579
712,-0.888,0.582579
713,-0.887,0.584318
714,-0.886,0.584318
715,-0.885,0.584318
716,-0.884,0.584318
717,-0.883,0.587796
718,-0.882,0.584318
719,-0.881,0.584318
720,-0.88,0.584318
721,-0.879,0.587796
722,-0.878,0.584318
723,-0.877,0.584318
724,-0.876,0.584318
725,-0.875,0.586057
726,-0.874,0.582579
727,-0.873,0.582579
728,-0.872,0.582579
729,-0.871,0.584318
730,-0.87,0.584318
731,-0.869,0.584318
732,-0.868,0.584318
733,-0.867,0.586057
734,-0.866,0.584318
735,-0.865,0.584318
736,-0.864,0.584318
737,-0.863,0.586057
738,-0.862,0.586057
739,-0.861,0.586057
740,-0.86,0.586057
741,-0.859,0.589535
742,-0.858,0.584318
743,-0.857,0.582579
744,-0.856,0.582579
745,-0.855,0.584318
746,-0.854,0.582579
747,-0.853,0.582579
748,-0.852,0.582579
749,-0.851,0.584318
750,-0.85,0.582579
751,-0.849,0.582579
752,-0.848,0.582579
753,-0.847,0.584318
754,-0.846,0.584318
755,-0.845,0.584318
756,-0.844,0.584318
757,-0.843,0.586057
758,-0.842,0.584318
759,-0.841,0.584318
760,-0.84,0.584318
761,-0.839,0.584318
762,-0.838,0.584318
763,-0.837,0.582579
764,-0.836,0.582579
765,-0.835,0.584318
766,-0.834,0.582579
767,-0.833,0.582579
768,-0.832,0.582579
769,-0.831,0.584318
770,-0.83,0.584318
771,-0.829,0.584318
772,-0.828,0.584318
773,-0.827,0.586057
774,-0.826,0.584318
775,-0.825,0.584318
776,-0.824,0.584318
777,-0.823,0.584318
778,-0.822,0.584318
779,-0.821,0.584318
780,-0.82,0.584318
781,-0.819,0.586057
782,-0.818,0.584318
783,-0.817,0.584318
784,-0.816,0.584318
785,-0.815,0.584318
786,-0.814,0.584318
787,-0.813,0.584318
788,-0.812,0.584318
789,-0.811,0.586057
790,-0.81,0.584318
791,-0.809,0.584318
792,-0.808,0.584318
793,-0.807,0.584318
794,-0.806,0.586057
795,-0.805,0.582579
796,-0.804,0.586057
797,-0.803,0.586057
798,-0.802,0.586057
799,-0.801,0.582579
800,-0.8,0.586057
801,-0.799,0.586057
802,-0.798,0.586057
803,-0.797,0.586057
804,-0.796,0.586057
805,-0.795,0.586057
806,-0.794,0.586057
807,-0.793,0.582579
808,-0.792,0.582579
809,-0.791,0.582579
810,-0.79,0.584318
811,-0.789,0.582579
812,-0.788,0.582579
813,-0.787,0.584318
814,-0.786,0.584318
815,-0.785,0.584318
816,-0.784,0.584318
817,-0.783,0.584318
818,-0.782,0.586057
819,-0.781,0.584318
820,-0.78,0.584318
821,-0.779,0.586057
822,-0.778,0.584318
823,-0.777,0.584318
824,-0.776,0.582579
825,-0.775,0.584318
826,-0.774,0.584318
827,-0.773,0.582579
828,-0.772,0.582579
829,-0.771,0.584318
830,-0.77,0.584318
831,-0.769,0.584318
832,-0.768,0.584318
833,-0.767,0.584318
834,-0.766,0.587796
835,-0.765,0.582579
836,-0.764,0.586057
837,-0.763,0.586057
838,-0.762,0.586057
839,-0.761,0.584318
840,-0.76,0.584318
841,-0.759,0.584318
842,-0.758,0.586057
843,-0.757,0.584318
844,-0.756,0.584318
845,-0.755,0.584318
846,-0.754,0.586057
847,-0.753,0.584318
848,-0.752,0.584318
849,-0.751,0.584318
850,-0.75,0.587796
851,-0.749,0.582579
852,-0.748,0.586057
853,-0.747,0.586057
854,-0.746,0.586057
855,-0.745,0.584318
856,-0.744,0.584318
857,-0.743,0.584318
858,-0.742,0.586057
859,-0.741,0.584318
860,-0.74,0.586057
861,-0.739,0.586057
862,-0.738,0.586057
863,-0.737,0.584318
864,-0.736,0.584318
865,-0.735,0.584318
866,-0.734,0.586057
867,-0.733,0.584318
868,-0.732,0.586057
869,-0.731,0.586057
870,-0.73,0.587796
871,-0.729,0.579102
872,-0.728,0.579102
873,-0.727,0.579102
874,-0.726,0.582579
875,-0.725,0.579102
876,-0.724,0.582579
877,-0.723,0.582579
878,-0.722,0.584318
879,-0.721,0.582579
880,-0.72,0.582579
881,-0.719,0.582579
882,-0.718,0.582579
883,-0.717,0.582579
884,-0.716,0.582579
885,-0.715,0.582579
886,-0.714,0.582579
887,-0.713,0.579102
888,-0.712,0.579102
889,-0.711,0.579102
890,-0.71,0.582579
891,-0.709,0.582579
892,-0.708,0.582579
893,-0.707,0.582579
894,-0.706,0.584318
895,-0.705,0.582579
896,-0.704,0.582579
897,-0.703,0.582579
898,-0.702,0.584318
899,-0.701,0.584318
900,-0.7,0.577363
901,-0.699,0.575624
902,-0.698,0.575624
903,-0.697,0.573885
904,-0.696,0.572146
905,-0.695,0.572146
906,-0.694,0.573885
907,-0.693,0.572146
908,-0.692,0.572146
909,-0.691,0.573885
910,-0.69,0.573885
911,-0.689,0.573885
912,-0.688,0.572146
913,-0.687,0.573885
914,-0.686,0.573885
915,-0.685,0.573885
916,-0.684,0.573885
917,-0.683,0.573885
918,-0.682,0.575624
919,-0.681,0.573885
920,-0.68,0.573885
921,-0.679,0.573885
922,-0.678,0.573885
923,-0.677,0.573885
924,-0.676,0.573885
925,-0.675,0.573885
926,-0.674,0.573885
927,-0.673,0.573885
928,-0.672,0.573885
929,-0.671,0.573885
930,-0.67,0.572146
931,-0.669,0.575624
932,-0.668,0.573885
933,-0.667,0.575624
934,-0.666,0.575624
935,-0.665,0.575624
936,-0.664,0.572146
937,-0.663,0.572146
938,-0.662,0.573885
939,-0.661,0.573885
940,-0.66,0.573885
941,-0.659,0.573885
942,-0.658,0.573885
943,-0.657,0.573885
944,-0.656,0.572146
945,-0.655,0.572146
946,-0.654,0.573885
947,-0.653,0.573885
948,-0.652,0.573885
949,-0.651,0.573885
950,-0.65,0.573885
951,-0.649,0.573885
952,-0.648,0.572146
953,-0.647,0.572146
954,-0.646,0.573885
955,-0.645,0.573885
956,-0.644,0.573885
957,-0.643,0.573885
958,-0.642,0.575624
959,-0.641,0.573885
960,-0.64,0.573885
961,-0.639,0.573885
962,-0.638,0.572146
963,-0.637,0.575624
964,-0.636,0.573885
965,-0.635,0.573885
966,-0.634,0.573885
967,-0.633,0.573885
968,-0.632,0.572146
969,-0.631,0.572146
970,-0.63,0.573885
971,-0.629,0.573885
972,-0.628,0.573885
973,-0.627,0.573885
974,-0.626,0.575624
975,-0.625,0.575624
976,-0.624,0.573885
977,-0.623,0.573885
978,-0.622,0.575624
979,-0.621,0.575624
980,-0.62,0.575624
981,-0.619,0.575624
982,-0.618,0.575624
983,-0.617,0.575624
984,-0.616,0.573885
985,-0.615,0.573885
986,-0.614,0.573885
987,-0.613,0.573885
988,-0.612,0.573885
989,-0.611,0.573885
990,-0.61,0.573885
991,-0.609,0.575624
992,-0.608,0.573885
993,-0.607,0.573885
994,-0.606,0.575624
995,-0.605,0.575624
996,-0.604,0.575624
997,-0.603,0.575624
998,-0.602,0.575624
999,-0.601,0.577363
1000,-0.6,0.572146
1001,-0.599,0.572146
