mcu/report/power_measurement/mcu/mcu_4/mcu_4_zoom_1_melvec.csv

;Scopy version,438f138
;Exported on,samedi décembre 14/12/2024
;Device,M2K
;Nr of samples,3200
;Sample rate,100000
;Tool,Oscilloscope
;Additional Information,
Sample,Time(S),CH1(V)
0,-0.016,0.293668
1,-0.01599,0.293668
2,-0.01598,0.293668
3,-0.01597,0.293668
4,-0.01596,0.293668
5,-0.01595,0.293668
6,-0.01594,0.293668
7,-0.01593,0.293668
8,-0.01592,0.293668
9,-0.01591,0.295255
10,-0.0159,0.293668
11,-0.01589,0.293668
12,-0.01588,0.293668
13,-0.01587,0.293668
14,-0.01586,0.293668
15,-0.01585,0.293668
16,-0.01584,0.293668
17,-0.01583,0.293668
18,-0.01582,0.293668
19,-0.01581,0.293668
20,-0.0158,0.293668
21,-0.01579,0.293668
22,-0.01578,0.293668
23,-0.01577,0.293668
24,-0.01576,0.293668
25,-0.01575,0.293668
26,-0.01574,0.293668
27,-0.01573,0.293668
28,-0.01572,0.293668
29,-0.01571,0.293668
30,-0.0157,0.293668
31,-0.01569,0.293668
32,-0.01568,0.293668
33,-0.01567,0.293668
34,-0.01566,0.293668
35,-0.01565,0.293668
36,-0.01564,0.293668
37,-0.01563,0.293668
38,-0.01562,0.293668
39,-0.01561,0.293668
40,-0.0156,0.293668
41,-0.01559,0.293668
42,-0.01558,0.293668
43,-0.01557,0.293668
44,-0.01556,0.293668
45,-0.01555,0.293668
46,-0.01554,0.293668
47,-0.01553,0.293668
48,-0.01552,0.293668
49,-0.01551,0.293668
50,-0.0155,0.293668
51,-0.01549,0.293668
52,-0.01548,0.293668
53,-0.01547,0.293668
54,-0.01546,0.293668
55,-0.01545,0.293668
56,-0.01544,0.293668
57,-0.01543,0.293668
58,-0.01542,0.293668
59,-0.01541,0.293668
60,-0.0154,0.293668
61,-0.01539,0.293668
62,-0.01538,0.293668
63,-0.01537,0.293668
64,-0.01536,0.293668
65,-0.01535,0.293668
66,-0.01534,0.293668
67,-0.01533,0.293668
68,-0.01532,0.293668
69,-0.01531,0.293668
70,-0.0153,0.293668
71,-0.01529,0.293668
72,-0.01528,0.293668
73,-0.01527,0.293668
74,-0.01526,0.293668
75,-0.01525,0.293668
76,-0.01524,0.293668
77,-0.01523,0.293668
78,-0.01522,0.295255
79,-0.01521,0.295255
80,-0.0152,0.295255
81,-0.01519,0.295255
82,-0.01518,0.293668
83,-0.01517,0.296842
84,-0.01516,0.295255
85,-0.01515,0.295255
86,-0.01514,0.295255
87,-0.01513,0.295255
88,-0.01512,0.295255
89,-0.01511,0.295255
90,-0.0151,0.295255
91,-0.01509,0.295255
92,-0.01508,0.295255
93,-0.01507,0.296842
94,-0.01506,0.293668
95,-0.01505,0.293668
96,-0.01504,0.293668
97,-0.01503,0.293668
98,-0.01502,0.293668
99,-0.01501,0.293668
100,-0.015,0.293668
101,-0.01499,0.293668
102,-0.01498,0.293668
103,-0.01497,0.293668
104,-0.01496,0.293668
105,-0.01495,0.293668
106,-0.01494,0.293668
107,-0.01493,0.293668
108,-0.01492,0.293668
109,-0.01491,0.293668
110,-0.0149,0.293668
111,-0.01489,0.293668
112,-0.01488,0.296842
113,-0.01487,0.293668
114,-0.01486,0.293668
115,-0.01485,0.293668
116,-0.01484,0.293668
117,-0.01483,0.293668
118,-0.01482,0.293668
119,-0.01481,0.293668
120,-0.0148,0.293668
121,-0.01479,0.293668
122,-0.01478,0.293668
123,-0.01477,0.293668
124,-0.01476,0.293668
125,-0.01475,0.293668
126,-0.01474,0.293668
127,-0.01473,0.293668
128,-0.01472,0.293668
129,-0.01471,0.293668
130,-0.0147,0.293668
131,-0.01469,0.293668
132,-0.01468,0.293668
133,-0.01467,0.293668
134,-0.01466,0.293668
135,-0.01465,0.293668
136,-0.01464,0.293668
137,-0.01463,0.293668
138,-0.01462,0.293668
139,-0.01461,0.293668
140,-0.0146,0.293668
141,-0.01459,0.293668
142,-0.01458,0.293668
143,-0.01457,0.293668
144,-0.01456,0.293668
145,-0.01455,0.293668
146,-0.01454,0.293668
147,-0.01453,0.293668
148,-0.01452,0.293668
149,-0.01451,0.293668
150,-0.0145,0.293668
151,-0.01449,0.293668
152,-0.01448,0.293668
153,-0.01447,0.293668
154,-0.01446,0.293668
155,-0.01445,0.293668
156,-0.01444,0.293668
157,-0.01443,0.293668
158,-0.01442,0.293668
159,-0.01441,0.293668
160,-0.0144,0.293668
161,-0.01439,0.293668
162,-0.01438,0.293668
163,-0.01437,0.293668
164,-0.01436,0.293668
165,-0.01435,0.293668
166,-0.01434,0.293668
167,-0.01433,0.293668
168,-0.01432,0.293668
169,-0.01431,0.293668
170,-0.0143,0.293668
171,-0.01429,0.293668
172,-0.01428,0.293668
173,-0.01427,0.293668
174,-0.01426,0.293668
175,-0.01425,0.293668
176,-0.01424,0.293668
177,-0.01423,0.293668
178,-0.01422,0.293668
179,-0.01421,0.296842
180,-0.0142,0.295255
181,-0.01419,0.295255
182,-0.01418,0.295255
183,-0.01417,0.293668
184,-0.01416,0.293668
185,-0.01415,0.293668
186,-0.01414,0.293668
187,-0.01413,0.293668
188,-0.01412,0.293668
189,-0.01411,0.293668
190,-0.0141,0.293668
191,-0.01409,0.293668
192,-0.01408,0.293668
193,-0.01407,0.293668
194,-0.01406,0.293668
195,-0.01405,0.293668
196,-0.01404,0.293668
197,-0.01403,0.293668
198,-0.01402,0.293668
199,-0.01401,0.293668
200,-0.014,0.293668
201,-0.01399,0.293668
202,-0.01398,0.293668
203,-0.01397,0.293668
204,-0.01396,0.293668
205,-0.01395,0.293668
206,-0.01394,0.293668
207,-0.01393,0.293668
208,-0.01392,0.293668
209,-0.01391,0.293668
210,-0.0139,0.293668
211,-0.01389,0.293668
212,-0.01388,0.293668
213,-0.01387,0.293668
214,-0.01386,0.293668
215,-0.01385,0.293668
216,-0.01384,0.293668
217,-0.01383,0.293668
218,-0.01382,0.293668
219,-0.01381,0.293668
220,-0.0138,0.293668
221,-0.01379,0.293668
222,-0.01378,0.293668
223,-0.01377,0.293668
224,-0.01376,0.293668
225,-0.01375,0.293668
226,-0.01374,0.293668
227,-0.01373,0.293668
228,-0.01372,0.293668
229,-0.01371,0.293668
230,-0.0137,0.293668
231,-0.01369,0.293668
232,-0.01368,0.293668
233,-0.01367,0.293668
234,-0.01366,0.293668
235,-0.01365,0.293668
236,-0.01364,0.293668
237,-0.01363,0.293668
238,-0.01362,0.293668
239,-0.01361,0.293668
240,-0.0136,0.293668
241,-0.01359,0.293668
242,-0.01358,0.293668
243,-0.01357,0.293668
244,-0.01356,0.293668
245,-0.01355,0.293668
246,-0.01354,0.293668
247,-0.01353,0.293668
248,-0.01352,0.293668
249,-0.01351,0.293668
250,-0.0135,0.293668
251,-0.01349,0.293668
252,-0.01348,0.293668
253,-0.01347,0.293668
254,-0.01346,0.293668
255,-0.01345,0.293668
256,-0.01344,0.293668
257,-0.01343,0.293668
258,-0.01342,0.293668
259,-0.01341,0.293668
260,-0.0134,0.293668
261,-0.01339,0.293668
262,-0.01338,0.293668
263,-0.01337,0.293668
264,-0.01336,0.293668
265,-0.01335,0.293668
266,-0.01334,0.293668
267,-0.01333,0.293668
268,-0.01332,0.293668
269,-0.01331,0.293668
270,-0.0133,0.293668
271,-0.01329,0.293668
272,-0.01328,0.293668
273,-0.01327,0.293668
274,-0.01326,0.293668
275,-0.01325,0.293668
276,-0.01324,0.293668
277,-0.01323,0.293668
278,-0.01322,0.293668
279,-0.01321,0.293668
280,-0.0132,0.293668
281,-0.01319,0.293668
282,-0.01318,0.293668
283,-0.01317,0.293668
284,-0.01316,0.293668
285,-0.01315,0.293668
286,-0.01314,0.293668
287,-0.01313,0.293668
288,-0.01312,0.293668
289,-0.01311,0.293668
290,-0.0131,0.293668
291,-0.01309,0.293668
292,-0.01308,0.293668
293,-0.01307,0.293668
294,-0.01306,0.293668
295,-0.01305,0.293668
296,-0.01304,0.293668
297,-0.01303,0.293668
298,-0.01302,0.293668
299,-0.01301,0.293668
300,-0.013,0.293668
301,-0.01299,0.293668
302,-0.01298,0.293668
303,-0.01297,0.293668
304,-0.01296,0.293668
305,-0.01295,0.293668
306,-0.01294,0.293668
307,-0.01293,0.293668
308,-0.01292,0.293668
309,-0.01291,0.293668
310,-0.0129,0.293668
311,-0.01289,0.293668
312,-0.01288,0.293668
313,-0.01287,0.293668
314,-0.01286,0.293668
315,-0.01285,0.293668
316,-0.01284,0.293668
317,-0.01283,0.293668
318,-0.01282,0.293668
319,-0.01281,0.293668
320,-0.0128,0.293668
321,-0.01279,0.293668
322,-0.01278,0.293668
323,-0.01277,0.293668
324,-0.01276,0.293668
325,-0.01275,0.293668
326,-0.01274,0.293668
327,-0.01273,0.293668
328,-0.01272,0.293668
329,-0.01271,0.293668
330,-0.0127,0.293668
331,-0.01269,0.293668
332,-0.01268,0.293668
333,-0.01267,0.293668
334,-0.01266,0.293668
335,-0.01265,0.293668
336,-0.01264,0.293668
337,-0.01263,0.293668
338,-0.01262,0.293668
339,-0.01261,0.293668
340,-0.0126,0.293668
341,-0.01259,0.293668
342,-0.01258,0.293668
343,-0.01257,0.293668
344,-0.01256,0.293668
345,-0.01255,0.293668
346,-0.01254,0.293668
347,-0.01253,0.293668
348,-0.01252,0.293668
349,-0.01251,0.293668
350,-0.0125,0.293668
351,-0.01249,0.293668
352,-0.01248,0.293668
353,-0.01247,0.293668
354,-0.01246,0.293668
355,-0.01245,0.293668
356,-0.01244,0.293668
357,-0.01243,0.293668
358,-0.01242,0.293668
359,-0.01241,0.293668
360,-0.0124,0.293668
361,-0.01239,0.293668
362,-0.01238,0.293668
363,-0.01237,0.293668
364,-0.01236,0.293668
365,-0.01235,0.293668
366,-0.01234,0.293668
367,-0.01233,0.293668
368,-0.01232,0.293668
369,-0.01231,0.293668
370,-0.0123,0.293668
371,-0.01229,0.293668
372,-0.01228,0.293668
373,-0.01227,0.293668
374,-0.01226,0.293668
375,-0.01225,0.293668
376,-0.01224,0.293668
377,-0.01223,0.293668
378,-0.01222,0.293668
379,-0.01221,0.293668
380,-0.0122,0.293668
381,-0.01219,0.295255
382,-0.01218,0.295255
383,-0.01217,0.293668
384,-0.01216,0.293668
385,-0.01215,0.293668
386,-0.01214,0.293668
387,-0.01213,0.293668
388,-0.01212,0.293668
389,-0.01211,0.293668
390,-0.0121,0.293668
391,-0.01209,0.293668
392,-0.01208,0.293668
393,-0.01207,0.293668
394,-0.01206,0.293668
395,-0.01205,0.293668
396,-0.01204,0.293668
397,-0.01203,0.293668
398,-0.01202,0.293668
399,-0.01201,0.293668
400,-0.012,0.293668
401,-0.01199,0.293668
402,-0.01198,0.293668
403,-0.01197,0.293668
404,-0.01196,0.293668
405,-0.01195,0.293668
406,-0.01194,0.293668
407,-0.01193,0.293668
408,-0.01192,0.293668
409,-0.01191,0.293668
410,-0.0119,0.293668
411,-0.01189,0.293668
412,-0.01188,0.293668
413,-0.01187,0.293668
414,-0.01186,0.293668
415,-0.01185,0.293668
416,-0.01184,0.293668
417,-0.01183,0.293668
418,-0.01182,0.293668
419,-0.01181,0.293668
420,-0.0118,0.293668
421,-0.01179,0.293668
422,-0.01178,0.293668
423,-0.01177,0.293668
424,-0.01176,0.293668
425,-0.01175,0.293668
426,-0.01174,0.293668
427,-0.01173,0.293668
428,-0.01172,0.293668
429,-0.01171,0.293668
430,-0.0117,0.293668
431,-0.01169,0.293668
432,-0.01168,0.293668
433,-0.01167,0.293668
434,-0.01166,0.293668
435,-0.01165,0.293668
436,-0.01164,0.293668
437,-0.01163,0.293668
438,-0.01162,0.293668
439,-0.01161,0.293668
440,-0.0116,0.293668
441,-0.01159,0.293668
442,-0.01158,0.293668
443,-0.01157,0.293668
444,-0.01156,0.293668
445,-0.01155,0.293668
446,-0.01154,0.293668
447,-0.01153,0.293668
448,-0.01152,0.293668
449,-0.01151,0.293668
450,-0.0115,0.293668
451,-0.01149,0.293668
452,-0.01148,0.293668
453,-0.01147,0.293668
454,-0.01146,0.293668
455,-0.01145,0.293668
456,-0.01144,0.293668
457,-0.01143,0.293668
458,-0.01142,0.293668
459,-0.01141,0.293668
460,-0.0114,0.293668
461,-0.01139,0.293668
462,-0.01138,0.293668
463,-0.01137,0.293668
464,-0.01136,0.293668
465,-0.01135,0.293668
466,-0.01134,0.293668
467,-0.01133,0.293668
468,-0.01132,0.293668
469,-0.01131,0.293668
470,-0.0113,0.293668
471,-0.01129,0.293668
472,-0.01128,0.293668
473,-0.01127,0.293668
474,-0.01126,0.293668
475,-0.01125,0.293668
476,-0.01124,0.293668
477,-0.01123,0.293668
478,-0.01122,0.293668
479,-0.01121,0.295255
480,-0.0112,0.295255
481,-0.01119,0.293668
482,-0.01118,0.293668
483,-0.01117,0.293668
484,-0.01116,0.293668
485,-0.01115,0.293668
486,-0.01114,0.293668
487,-0.01113,0.293668
488,-0.01112,0.293668
489,-0.01111,0.293668
490,-0.0111,0.293668
491,-0.01109,0.293668
492,-0.01108,0.293668
493,-0.01107,0.293668
494,-0.01106,0.293668
495,-0.01105,0.293668
496,-0.01104,0.293668
497,-0.01103,0.293668
498,-0.01102,0.293668
499,-0.01101,0.293668
500,-0.011,0.293668
501,-0.01099,0.293668
502,-0.01098,0.293668
503,-0.01097,0.293668
504,-0.01096,0.293668
505,-0.01095,0.293668
506,-0.01094,0.293668
507,-0.01093,0.293668
508,-0.01092,0.293668
509,-0.01091,0.293668
510,-0.0109,0.293668
511,-0.01089,0.293668
512,-0.01088,0.293668
513,-0.01087,0.293668
514,-0.01086,0.293668
515,-0.01085,0.293668
516,-0.01084,0.293668
517,-0.01083,0.293668
518,-0.01082,0.293668
519,-0.01081,0.293668
520,-0.0108,0.293668
521,-0.01079,0.293668
522,-0.01078,0.293668
523,-0.01077,0.293668
524,-0.01076,0.293668
525,-0.01075,0.293668
526,-0.01074,0.293668
527,-0.01073,0.293668
528,-0.01072,0.293668
529,-0.01071,0.293668
530,-0.0107,0.293668
531,-0.01069,0.293668
532,-0.01068,0.293668
533,-0.01067,0.293668
534,-0.01066,0.293668
535,-0.01065,0.293668
536,-0.01064,0.293668
537,-0.01063,0.293668
538,-0.01062,0.293668
539,-0.01061,0.293668
540,-0.0106,0.293668
541,-0.01059,0.293668
542,-0.01058,0.293668
543,-0.01057,0.293668
544,-0.01056,0.293668
545,-0.01055,0.293668
546,-0.01054,0.293668
547,-0.01053,0.293668
548,-0.01052,0.293668
549,-0.01051,0.293668
550,-0.0105,0.293668
551,-0.01049,0.293668
552,-0.01048,0.293668
553,-0.01047,0.293668
554,-0.01046,0.293668
555,-0.01045,0.293668
556,-0.01044,0.293668
557,-0.01043,0.293668
558,-0.01042,0.293668
559,-0.01041,0.293668
560,-0.0104,0.293668
561,-0.01039,0.293668
562,-0.01038,0.293668
563,-0.01037,0.293668
564,-0.01036,0.293668
565,-0.01035,0.293668
566,-0.01034,0.293668
567,-0.01033,0.293668
568,-0.01032,0.293668
569,-0.01031,0.293668
570,-0.0103,0.293668
571,-0.01029,0.293668
572,-0.01028,0.293668
573,-0.01027,0.300016
574,-0.01026,0.306364
575,-0.01025,0.311125
576,-0.01024,0.315887
577,-0.01023,0.319061
578,-0.01022,0.323822
579,-0.01021,0.326996
580,-0.0102,0.331757
581,-0.01019,0.338105
582,-0.01018,0.341279
583,-0.01017,0.344453
584,-0.01016,0.347627
585,-0.01015,0.353976
586,-0.01014,0.35715
587,-0.01013,0.360324
588,-0.01012,0.363498
589,-0.01011,0.365085
590,-0.0101,0.369846
591,-0.01009,0.37302
592,-0.01008,0.374607
593,-0.01007,0.379368
594,-0.01006,0.382542
595,-0.01005,0.385717
596,-0.01004,0.388891
597,-0.01003,0.390478
598,-0.01002,0.393652
599,-0.01001,0.395239
600,-0.01,0.4
601,-0.00999,0.401587
602,-0.00998,0.404761
603,-0.00997,0.407935
604,-0.00996,0.409522
605,-0.00995,0.412696
606,-0.00994,0.414283
607,-0.00993,0.417458
608,-0.00992,0.420632
609,-0.00991,0.423806
610,-0.0099,0.42698
611,-0.00989,0.428567
612,-0.00988,0.431741
613,-0.00987,0.433328
614,-0.00986,0.436502
615,-0.00985,0.438089
616,-0.00984,0.441263
617,-0.00983,0.44285
618,-0.00982,0.444437
619,-0.00981,0.447611
620,-0.0098,0.450785
621,-0.00979,0.45396
622,-0.00978,0.455547
623,-0.00977,0.458721
624,-0.00976,0.460308
625,-0.00975,0.463482
626,-0.00974,0.466656
627,-0.00973,0.468243
628,-0.00972,0.473004
629,-0.00971,0.474591
630,-0.0097,0.477765
631,-0.00969,0.480939
632,-0.00968,0.482526
633,-0.00967,0.4857
634,-0.00966,0.488875
635,-0.00965,0.488875
636,-0.00964,0.490462
637,-0.00963,0.495223
638,-0.00962,0.495223
639,-0.00961,0.498397
640,-0.0096,0.501571
641,-0.00959,0.501571
642,-0.00958,0.504745
643,-0.00957,0.507919
644,-0.00956,0.507919
645,-0.00955,0.509506
646,-0.00954,0.511093
647,-0.00953,0.51268
648,-0.00952,0.511093
649,-0.00951,0.514267
650,-0.0095,0.514267
651,-0.00949,0.515854
652,-0.00948,0.515854
653,-0.00947,0.515854
654,-0.00946,0.519028
655,-0.00945,0.522203
656,-0.00944,0.525377
657,-0.00943,0.528551
658,-0.00942,0.530138
659,-0.00941,0.534899
660,-0.0094,0.534899
661,-0.00939,0.538073
662,-0.00938,0.542834
663,-0.00937,0.542834
664,-0.00936,0.546008
665,-0.00935,0.547595
666,-0.00934,0.550769
667,-0.00933,0.552356
668,-0.00932,0.555531
669,-0.00931,0.555531
670,-0.0093,0.557118
671,-0.00929,0.560292
672,-0.00928,0.560292
673,-0.00927,0.560292
674,-0.00926,0.563466
675,-0.00925,0.563466
676,-0.00924,0.56664
677,-0.00923,0.568227
678,-0.00922,0.568227
679,-0.00921,0.569814
680,-0.0092,0.569814
681,-0.00919,0.571401
682,-0.00918,0.571401
683,-0.00917,0.572988
684,-0.00916,0.574575
685,-0.00915,0.574575
686,-0.00914,0.576162
687,-0.00913,0.576162
688,-0.00912,0.576162
689,-0.00911,0.577749
690,-0.0091,0.577749
691,-0.00909,0.577749
692,-0.00908,0.579336
693,-0.00907,0.579336
694,-0.00906,0.580923
695,-0.00905,0.580923
696,-0.00904,0.58251
697,-0.00903,0.58251
698,-0.00902,0.58251
699,-0.00901,0.584097
700,-0.009,0.584097
701,-0.00899,0.584097
702,-0.00898,0.584097
703,-0.00897,0.585684
704,-0.00896,0.585684
705,-0.00895,0.585684
706,-0.00894,0.585684
707,-0.00893,0.585684
708,-0.00892,0.585684
709,-0.00891,0.585684
710,-0.0089,0.585684
711,-0.00889,0.584097
712,-0.00888,0.584097
713,-0.00887,0.584097
714,-0.00886,0.584097
715,-0.00885,0.584097
716,-0.00884,0.584097
717,-0.00883,0.584097
718,-0.00882,0.584097
719,-0.00881,0.584097
720,-0.0088,0.584097
721,-0.00879,0.584097
722,-0.00878,0.584097
723,-0.00877,0.584097
724,-0.00876,0.58251
725,-0.00875,0.58251
726,-0.00874,0.58251
727,-0.00873,0.58251
728,-0.00872,0.58251
729,-0.00871,0.58251
730,-0.0087,0.58251
731,-0.00869,0.58251
732,-0.00868,0.58251
733,-0.00867,0.58251
734,-0.00866,0.580923
735,-0.00865,0.580923
736,-0.00864,0.580923
737,-0.00863,0.580923
738,-0.00862,0.580923
739,-0.00861,0.580923
740,-0.0086,0.580923
741,-0.00859,0.580923
742,-0.00858,0.580923
743,-0.00857,0.580923
744,-0.00856,0.580923
745,-0.00855,0.580923
746,-0.00854,0.580923
747,-0.00853,0.580923
748,-0.00852,0.58251
749,-0.00851,0.580923
750,-0.0085,0.580923
751,-0.00849,0.580923
752,-0.00848,0.580923
753,-0.00847,0.580923
754,-0.00846,0.580923
755,-0.00845,0.580923
756,-0.00844,0.580923
757,-0.00843,0.580923
758,-0.00842,0.580923
759,-0.00841,0.579336
760,-0.0084,0.579336
761,-0.00839,0.579336
762,-0.00838,0.579336
763,-0.00837,0.579336
764,-0.00836,0.579336
765,-0.00835,0.579336
766,-0.00834,0.579336
767,-0.00833,0.579336
768,-0.00832,0.579336
769,-0.00831,0.577749
770,-0.0083,0.577749
771,-0.00829,0.577749
772,-0.00828,0.577749
773,-0.00827,0.577749
774,-0.00826,0.577749
775,-0.00825,0.576162
776,-0.00824,0.576162
777,-0.00823,0.574575
778,-0.00822,0.574575
779,-0.00821,0.574575
780,-0.0082,0.572988
781,-0.00819,0.572988
782,-0.00818,0.571401
783,-0.00817,0.571401
784,-0.00816,0.571401
785,-0.00815,0.569814
786,-0.00814,0.569814
787,-0.00813,0.569814
788,-0.00812,0.568227
789,-0.00811,0.568227
790,-0.0081,0.568227
791,-0.00809,0.56664
792,-0.00808,0.56664
793,-0.00807,0.56664
794,-0.00806,0.563466
795,-0.00805,0.563466
796,-0.00804,0.563466
797,-0.00803,0.563466
798,-0.00802,0.561879
799,-0.00801,0.561879
800,-0.008,0.561879
801,-0.00799,0.561879
802,-0.00798,0.561879
803,-0.00797,0.560292
804,-0.00796,0.560292
805,-0.00795,0.560292
806,-0.00794,0.560292
807,-0.00793,0.561879
808,-0.00792,0.561879
809,-0.00791,0.561879
810,-0.0079,0.561879
811,-0.00789,0.561879
812,-0.00788,0.560292
813,-0.00787,0.560292
814,-0.00786,0.560292
815,-0.00785,0.560292
816,-0.00784,0.560292
817,-0.00783,0.561879
818,-0.00782,0.561879
819,-0.00781,0.561879
820,-0.0078,0.561879
821,-0.00779,0.561879
822,-0.00778,0.560292
823,-0.00777,0.560292
824,-0.00776,0.560292
825,-0.00775,0.560292
826,-0.00774,0.560292
827,-0.00773,0.560292
828,-0.00772,0.561879
829,-0.00771,0.561879
830,-0.0077,0.560292
831,-0.00769,0.560292
832,-0.00768,0.560292
833,-0.00767,0.560292
834,-0.00766,0.560292
835,-0.00765,0.560292
836,-0.00764,0.560292
837,-0.00763,0.560292
838,-0.00762,0.561879
839,-0.00761,0.561879
840,-0.0076,0.560292
841,-0.00759,0.560292
842,-0.00758,0.560292
843,-0.00757,0.560292
844,-0.00756,0.560292
845,-0.00755,0.560292
846,-0.00754,0.560292
847,-0.00753,0.560292
848,-0.00752,0.561879
849,-0.00751,0.561879
850,-0.0075,0.560292
851,-0.00749,0.560292
852,-0.00748,0.560292
853,-0.00747,0.560292
854,-0.00746,0.560292
855,-0.00745,0.560292
856,-0.00744,0.560292
857,-0.00743,0.560292
858,-0.00742,0.561879
859,-0.00741,0.561879
860,-0.0074,0.560292
861,-0.00739,0.560292
862,-0.00738,0.560292
863,-0.00737,0.560292
864,-0.00736,0.560292
865,-0.00735,0.558705
866,-0.00734,0.558705
867,-0.00733,0.560292
868,-0.00732,0.561879
869,-0.00731,0.561879
870,-0.0073,0.560292
871,-0.00729,0.560292
872,-0.00728,0.560292
873,-0.00727,0.560292
874,-0.00726,0.558705
875,-0.00725,0.561879
876,-0.00724,0.558705
877,-0.00723,0.560292
878,-0.00722,0.561879
879,-0.00721,0.561879
880,-0.0072,0.561879
881,-0.00719,0.561879
882,-0.00718,0.561879
883,-0.00717,0.560292
884,-0.00716,0.560292
885,-0.00715,0.560292
886,-0.00714,0.560292
887,-0.00713,0.560292
888,-0.00712,0.561879
889,-0.00711,0.561879
890,-0.0071,0.561879
891,-0.00709,0.561879
892,-0.00708,0.560292
893,-0.00707,0.560292
894,-0.00706,0.560292
895,-0.00705,0.560292
896,-0.00704,0.560292
897,-0.00703,0.560292
898,-0.00702,0.560292
899,-0.00701,0.561879
900,-0.007,0.561879
901,-0.00699,0.561879
902,-0.00698,0.560292
903,-0.00697,0.560292
904,-0.00696,0.560292
905,-0.00695,0.560292
906,-0.00694,0.560292
907,-0.00693,0.560292
908,-0.00692,0.560292
909,-0.00691,0.561879
910,-0.0069,0.561879
