mcu/power_measurement/mcu/adc_sampling_rate/mcu_sampling_rate_48MHz.csv

;Scopy version,438f138
;Exported on,samedi décembre 14/12/2024
;Device,M2K
;Nr of samples,3200
;Sample rate,1000
;Tool,Oscilloscope
;Additional Information,
Sample,Time(S),CH1(V)
0,-1.6,0.573885
1,-1.599,0.573885
2,-1.598,0.575624
3,-1.597,0.575624
4,-1.596,0.575624
5,-1.595,0.575624
6,-1.594,0.577363
7,-1.593,0.577363
8,-1.592,0.579102
9,-1.591,0.582579
10,-1.59,0.582579
11,-1.589,0.584318
12,-1.588,0.582579
13,-1.587,0.584318
14,-1.586,0.584318
15,-1.585,0.582579
16,-1.584,0.582579
17,-1.583,0.582579
18,-1.582,0.582579
19,-1.581,0.582579
20,-1.58,0.582579
21,-1.579,0.582579
22,-1.578,0.582579
23,-1.577,0.582579
24,-1.576,0.582579
25,-1.575,0.582579
26,-1.574,0.582579
27,-1.573,0.586057
28,-1.572,0.582579
29,-1.571,0.584318
30,-1.57,0.586057
31,-1.569,0.582579
32,-1.568,0.579102
33,-1.567,0.579102
34,-1.566,0.579102
35,-1.565,0.582579
36,-1.564,0.577363
37,-1.563,0.582579
38,-1.562,0.582579
39,-1.561,0.582579
40,-1.56,0.579102
41,-1.559,0.579102
42,-1.558,0.579102
43,-1.557,0.584318
44,-1.556,0.579102
45,-1.555,0.582579
46,-1.554,0.582579
47,-1.553,0.584318
48,-1.552,0.577363
49,-1.551,0.582579
50,-1.55,0.582579
51,-1.549,0.582579
52,-1.548,0.582579
53,-1.547,0.582579
54,-1.546,0.584318
55,-1.545,0.582579
56,-1.544,0.582579
57,-1.543,0.582579
58,-1.542,0.582579
59,-1.541,0.582579
60,-1.54,0.582579
61,-1.539,0.582579
62,-1.538,0.584318
63,-1.537,0.582579
64,-1.536,0.582579
65,-1.535,0.582579
66,-1.534,0.582579
67,-1.533,0.582579
68,-1.532,0.582579
69,-1.531,0.584318
70,-1.53,0.584318
71,-1.529,0.584318
72,-1.528,0.582579
73,-1.527,0.582579
74,-1.526,0.582579
75,-1.525,0.582579
76,-1.524,0.582579
77,-1.523,0.582579
78,-1.522,0.582579
79,-1.521,0.582579
80,-1.52,0.579102
81,-1.519,0.582579
82,-1.518,0.582579
83,-1.517,0.582579
84,-1.516,0.582579
85,-1.515,0.582579
86,-1.514,0.582579
87,-1.513,0.586057
88,-1.512,0.582579
89,-1.511,0.584318
90,-1.51,0.584318
91,-1.509,0.584318
92,-1.508,0.584318
93,-1.507,0.584318
94,-1.506,0.584318
95,-1.505,0.586057
96,-1.504,0.579102
97,-1.503,0.579102
98,-1.502,0.579102
99,-1.501,0.584318
100,-1.5,0.579102
101,-1.499,0.579102
102,-1.498,0.582579
103,-1.497,0.582579
104,-1.496,0.579102
105,-1.495,0.579102
106,-1.494,0.579102
107,-1.493,0.582579
108,-1.492,0.582579
109,-1.491,0.582579
110,-1.49,0.584318
111,-1.489,0.584318
112,-1.488,0.582579
113,-1.487,0.582579
114,-1.486,0.582579
115,-1.485,0.582579
116,-1.484,0.582579
117,-1.483,0.582579
118,-1.482,0.582579
119,-1.481,0.586057
120,-1.48,0.579102
121,-1.479,0.582579
122,-1.478,0.582579
123,-1.477,0.582579
124,-1.476,0.582579
125,-1.475,0.582579
126,-1.474,0.584318
127,-1.473,0.584318
128,-1.472,0.582579
129,-1.471,0.582579
130,-1.47,0.582579
131,-1.469,0.584318
132,-1.468,0.584318
133,-1.467,0.584318
134,-1.466,0.584318
135,-1.465,0.584318
136,-1.464,0.582579
137,-1.463,0.579102
138,-1.462,0.582579
139,-1.461,0.582579
140,-1.46,0.582579
141,-1.459,0.582579
142,-1.458,0.582579
143,-1.457,0.584318
144,-1.456,0.582579
145,-1.455,0.582579
146,-1.454,0.582579
147,-1.453,0.582579
148,-1.452,0.582579
149,-1.451,0.584318
150,-1.45,0.584318
151,-1.449,0.586057
152,-1.448,0.582579
153,-1.447,0.582579
154,-1.446,0.584318
155,-1.445,0.584318
156,-1.444,0.584318
157,-1.443,0.584318
158,-1.442,0.584318
159,-1.441,0.584318
160,-1.44,0.582579
161,-1.439,0.579102
162,-1.438,0.579102
163,-1.437,0.579102
164,-1.436,0.582579
165,-1.435,0.582579
166,-1.434,0.582579
167,-1.433,0.586057
168,-1.432,0.582579
169,-1.431,0.582579
170,-1.43,0.582579
171,-1.429,0.584318
172,-1.428,0.582579
173,-1.427,0.582579
174,-1.426,0.584318
175,-1.425,0.584318
176,-1.424,0.582579
177,-1.423,0.582579
178,-1.422,0.582579
179,-1.421,0.582579
180,-1.42,0.582579
181,-1.419,0.582579
182,-1.418,0.582579
183,-1.417,0.584318
184,-1.416,0.582579
185,-1.415,0.582579
186,-1.414,0.582579
187,-1.413,0.582579
188,-1.412,0.584318
189,-1.411,0.584318
190,-1.41,0.584318
191,-1.409,0.587796
192,-1.408,0.582579
193,-1.407,0.582579
194,-1.406,0.582579
195,-1.405,0.582579
196,-1.404,0.582579
197,-1.403,0.582579
198,-1.402,0.582579
199,-1.401,0.584318
200,-1.4,0.582579
201,-1.399,0.582579
202,-1.398,0.582579
203,-1.397,0.582579
204,-1.396,0.584318
205,-1.395,0.584318
206,-1.394,0.584318
207,-1.393,0.586057
208,-1.392,0.584318
209,-1.391,0.577363
210,-1.39,0.575624
211,-1.389,0.575624
212,-1.388,0.575624
213,-1.387,0.575624
214,-1.386,0.575624
215,-1.385,0.575624
216,-1.384,0.575624
217,-1.383,0.575624
218,-1.382,0.575624
219,-1.381,0.575624
220,-1.38,0.575624
221,-1.379,0.575624
222,-1.378,0.575624
223,-1.377,0.577363
224,-1.376,0.577363
225,-1.375,0.573885
226,-1.374,0.572146
227,-1.373,0.573885
228,-1.372,0.573885
229,-1.371,0.573885
230,-1.37,0.573885
231,-1.369,0.575624
232,-1.368,0.575624
233,-1.367,0.573885
234,-1.366,0.573885
235,-1.365,0.573885
236,-1.364,0.575624
237,-1.363,0.575624
238,-1.362,0.575624
239,-1.361,0.575624
240,-1.36,0.575624
241,-1.359,0.573885
242,-1.358,0.573885
243,-1.357,0.573885
244,-1.356,0.573885
245,-1.355,0.573885
246,-1.354,0.573885
247,-1.353,0.575624
248,-1.352,0.575624
249,-1.351,0.575624
250,-1.35,0.575624
251,-1.349,0.575624
252,-1.348,0.575624
253,-1.347,0.575624
254,-1.346,0.575624
255,-1.345,0.575624
256,-1.344,0.575624
257,-1.343,0.575624
258,-1.342,0.573885
259,-1.341,0.573885
260,-1.34,0.577363
261,-1.339,0.573885
262,-1.338,0.575624
263,-1.337,0.575624
264,-1.336,0.575624
265,-1.335,0.575624
266,-1.334,0.575624
267,-1.333,0.575624
268,-1.332,0.577363
269,-1.331,0.577363
270,-1.33,0.577363
271,-1.329,0.577363
272,-1.328,0.577363
273,-1.327,0.575624
274,-1.326,0.575624
275,-1.325,0.575624
276,-1.324,0.575624
277,-1.323,0.575624
278,-1.322,0.575624
279,-1.321,0.573885
280,-1.32,0.577363
281,-1.319,0.575624
282,-1.318,0.575624
283,-1.317,0.575624
284,-1.316,0.575624
285,-1.315,0.577363
286,-1.314,0.577363
287,-1.313,0.575624
288,-1.312,0.579102
289,-1.311,0.573885
290,-1.31,0.573885
291,-1.309,0.573885
292,-1.308,0.577363
293,-1.307,0.573885
294,-1.306,0.573885
295,-1.305,0.575624
296,-1.304,0.575624
297,-1.303,0.573885
298,-1.302,0.573885
299,-1.301,0.573885
300,-1.3,0.575624
301,-1.299,0.575624
302,-1.298,0.575624
303,-1.297,0.575624
304,-1.296,0.575624
305,-1.295,0.573885
306,-1.294,0.573885
307,-1.293,0.573885
308,-1.292,0.575624
309,-1.291,0.575624
310,-1.29,0.575624
311,-1.289,0.575624
312,-1.288,0.577363
313,-1.287,0.575624
314,-1.286,0.575624
315,-1.285,0.575624
316,-1.284,0.575624
317,-1.283,0.575624
318,-1.282,0.575624
319,-1.281,0.577363
320,-1.28,0.577363
321,-1.279,0.573885
322,-1.278,0.573885
323,-1.277,0.573885
324,-1.276,0.575624
325,-1.275,0.575624
326,-1.274,0.575624
327,-1.273,0.575624
328,-1.272,0.577363
329,-1.271,0.575624
330,-1.27,0.575624
331,-1.269,0.575624
332,-1.268,0.577363
333,-1.267,0.577363
334,-1.266,0.577363
335,-1.265,0.577363
336,-1.264,0.577363
337,-1.263,0.575624
338,-1.262,0.575624
339,-1.261,0.575624
340,-1.26,0.575624
341,-1.259,0.575624
342,-1.258,0.575624
343,-1.257,0.575624
344,-1.256,0.577363
345,-1.255,0.575624
346,-1.254,0.575624
347,-1.253,0.575624
348,-1.252,0.577363
349,-1.251,0.577363
350,-1.25,0.577363
351,-1.249,0.577363
352,-1.248,0.582579
353,-1.247,0.575624
354,-1.246,0.573885
355,-1.245,0.573885
356,-1.244,0.573885
357,-1.243,0.573885
358,-1.242,0.573885
359,-1.241,0.573885
360,-1.24,0.575624
361,-1.239,0.573885
362,-1.238,0.573885
363,-1.237,0.573885
364,-1.236,0.575624
365,-1.235,0.575624
366,-1.234,0.575624
367,-1.233,0.575624
368,-1.232,0.579102
369,-1.231,0.575624
370,-1.23,0.573885
371,-1.229,0.573885
372,-1.228,0.575624
373,-1.227,0.575624
374,-1.226,0.575624
375,-1.225,0.575624
376,-1.224,0.575624
377,-1.223,0.575624
378,-1.222,0.573885
379,-1.221,0.573885
380,-1.22,0.575624
381,-1.219,0.575624
382,-1.218,0.575624
383,-1.217,0.575624
384,-1.216,0.577363
385,-1.215,0.577363
386,-1.214,0.573885
387,-1.213,0.573885
388,-1.212,0.575624
389,-1.211,0.575624
390,-1.21,0.575624
391,-1.209,0.575624
392,-1.208,0.577363
393,-1.207,0.575624
394,-1.206,0.575624
395,-1.205,0.575624
396,-1.204,0.575624
397,-1.203,0.575624
398,-1.202,0.575624
399,-1.201,0.577363
400,-1.2,0.577363
401,-1.199,0.575624
402,-1.198,0.575624
403,-1.197,0.575624
404,-1.196,0.575624
405,-1.195,0.575624
406,-1.194,0.575624
407,-1.193,0.577363
408,-1.192,0.577363
409,-1.191,0.577363
410,-1.19,0.577363
411,-1.189,0.577363
412,-1.188,0.586057
413,-1.187,0.584318
414,-1.186,0.584318
415,-1.185,0.586057
416,-1.184,0.586057
417,-1.183,0.586057
418,-1.182,0.582579
419,-1.181,0.582579
420,-1.18,0.582579
421,-1.179,0.582579
422,-1.178,0.582579
423,-1.177,0.584318
424,-1.176,0.584318
425,-1.175,0.584318
426,-1.174,0.579102
427,-1.173,0.584318
428,-1.172,0.584318
429,-1.171,0.584318
430,-1.17,0.584318
431,-1.169,0.584318
432,-1.168,0.584318
433,-1.167,0.584318
434,-1.166,0.584318
435,-1.165,0.584318
436,-1.164,0.584318
437,-1.163,0.584318
438,-1.162,0.584318
439,-1.161,0.584318
440,-1.16,0.584318
441,-1.159,0.584318
442,-1.158,0.584318
443,-1.157,0.584318
444,-1.156,0.584318
445,-1.155,0.584318
446,-1.154,0.584318
447,-1.153,0.586057
448,-1.152,0.586057
449,-1.151,0.586057
450,-1.15,0.584318
451,-1.149,0.584318
452,-1.148,0.584318
453,-1.147,0.584318
454,-1.146,0.584318
455,-1.145,0.586057
456,-1.144,0.586057
457,-1.143,0.584318
458,-1.142,0.584318
459,-1.141,0.584318
460,-1.14,0.584318
461,-1.139,0.584318
462,-1.138,0.584318
463,-1.137,0.586057
464,-1.136,0.586057
465,-1.135,0.586057
466,-1.134,0.584318
467,-1.133,0.584318
468,-1.132,0.584318
469,-1.131,0.586057
470,-1.13,0.586057
471,-1.129,0.586057
472,-1.128,0.586057
473,-1.127,0.587796
474,-1.126,0.586057
475,-1.125,0.586057
476,-1.124,0.582579
477,-1.123,0.586057
478,-1.122,0.586057
479,-1.121,0.586057
480,-1.12,0.586057
481,-1.119,0.587796
482,-1.118,0.579102
483,-1.117,0.582579
484,-1.116,0.582579
485,-1.115,0.582579
486,-1.114,0.582579
487,-1.113,0.584318
488,-1.112,0.584318
489,-1.111,0.584318
490,-1.11,0.582579
491,-1.109,0.584318
492,-1.108,0.584318
493,-1.107,0.584318
494,-1.106,0.584318
495,-1.105,0.584318
496,-1.104,0.584318
497,-1.103,0.584318
498,-1.102,0.582579
499,-1.101,0.582579
500,-1.1,0.582579
501,-1.099,0.582579
502,-1.098,0.582579
503,-1.097,0.584318
504,-1.096,0.584318
505,-1.095,0.584318
506,-1.094,0.584318
507,-1.093,0.584318
508,-1.092,0.584318
509,-1.091,0.584318
510,-1.09,0.584318
511,-1.089,0.586057
512,-1.088,0.584318
513,-1.087,0.586057
514,-1.086,0.582579
515,-1.085,0.584318
516,-1.084,0.579102
517,-1.083,0.584318
518,-1.082,0.582579
519,-1.081,0.584318
520,-1.08,0.584318
521,-1.079,0.584318
522,-1.078,0.582579
523,-1.077,0.584318
524,-1.076,0.584318
525,-1.075,0.584318
526,-1.074,0.584318
527,-1.073,0.584318
528,-1.072,0.586057
529,-1.071,0.586057
530,-1.07,0.584318
531,-1.069,0.584318
532,-1.068,0.584318
533,-1.067,0.584318
534,-1.066,0.584318
535,-1.065,0.584318
536,-1.064,0.586057
537,-1.063,0.586057
538,-1.062,0.584318
539,-1.061,0.584318
540,-1.06,0.584318
541,-1.059,0.584318
542,-1.058,0.584318
543,-1.057,0.584318
544,-1.056,0.586057
545,-1.055,0.586057
546,-1.054,0.582579
547,-1.053,0.582579
548,-1.052,0.582579
549,-1.051,0.582579
550,-1.05,0.584318
551,-1.049,0.584318
552,-1.048,0.584318
553,-1.047,0.584318
554,-1.046,0.584318
555,-1.045,0.582579
556,-1.044,0.582579
557,-1.043,0.584318
558,-1.042,0.584318
559,-1.041,0.584318
560,-1.04,0.584318
561,-1.039,0.584318
562,-1.038,0.582579
563,-1.037,0.582579
564,-1.036,0.582579
565,-1.035,0.582579
566,-1.034,0.584318
567,-1.033,0.584318
568,-1.032,0.584318
569,-1.031,0.586057
570,-1.03,0.584318
571,-1.029,0.584318
572,-1.028,0.584318
573,-1.027,0.584318
574,-1.026,0.584318
575,-1.025,0.584318
576,-1.024,0.584318
577,-1.023,0.587796
578,-1.022,0.584318
579,-1.021,0.579102
580,-1.02,0.582579
581,-1.019,0.584318
582,-1.018,0.584318
583,-1.017,0.584318
584,-1.016,0.584318
585,-1.015,0.584318
586,-1.014,0.584318
587,-1.013,0.584318
588,-1.012,0.584318
589,-1.011,0.584318
590,-1.01,0.584318
591,-1.009,0.586057
592,-1.008,0.586057
593,-1.007,0.586057
594,-1.006,0.584318
595,-1.005,0.584318
596,-1.004,0.584318
597,-1.003,0.584318
598,-1.002,0.584318
599,-1.001,0.584318
600,-1,0.584318
601,-0.999,0.586057
602,-0.998,0.584318
603,-0.997,0.584318
604,-0.996,0.584318
605,-0.995,0.584318
606,-0.994,0.586057
607,-0.993,0.586057
608,-0.992,0.586057
609,-0.991,0.587796
610,-0.99,0.584318
611,-0.989,0.582579
612,-0.988,0.582579
613,-0.987,0.577363
614,-0.986,0.573885
615,-0.985,0.573885
616,-0.984,0.573885
617,-0.983,0.573885
618,-0.982,0.573885
619,-0.981,0.573885
620,-0.98,0.573885
621,-0.979,0.573885
622,-0.978,0.573885
623,-0.977,0.573885
624,-0.976,0.573885
625,-0.975,0.575624
626,-0.974,0.573885
627,-0.973,0.573885
628,-0.972,0.573885
629,-0.971,0.573885
630,-0.97,0.573885
631,-0.969,0.573885
632,-0.968,0.575624
633,-0.967,0.575624
634,-0.966,0.575624
635,-0.965,0.573885
636,-0.964,0.573885
637,-0.963,0.575624
638,-0.962,0.575624
639,-0.961,0.575624
640,-0.96,0.575624
641,-0.959,0.575624
642,-0.958,0.575624
643,-0.957,0.573885
644,-0.956,0.573885
645,-0.955,0.573885
646,-0.954,0.573885
647,-0.953,0.573885
648,-0.952,0.575624
649,-0.951,0.575624
650,-0.95,0.575624
651,-0.949,0.575624
652,-0.948,0.575624
653,-0.947,0.575624
654,-0.946,0.575624
655,-0.945,0.575624
656,-0.944,0.575624
657,-0.943,0.577363
658,-0.942,0.573885
659,-0.941,0.575624
660,-0.94,0.575624
661,-0.939,0.575624
662,-0.938,0.575624
663,-0.937,0.575624
664,-0.936,0.575624
665,-0.935,0.575624
666,-0.934,0.575624
667,-0.933,0.575624
668,-0.932,0.575624
669,-0.931,0.577363
670,-0.93,0.577363
671,-0.929,0.577363
672,-0.928,0.577363
673,-0.927,0.579102
674,-0.926,0.577363
675,-0.925,0.573885
676,-0.924,0.573885
677,-0.923,0.573885
678,-0.922,0.573885
679,-0.921,0.573885
680,-0.92,0.573885
681,-0.919,0.573885
682,-0.918,0.573885
683,-0.917,0.573885
684,-0.916,0.573885
685,-0.915,0.573885
686,-0.914,0.575624
687,-0.913,0.575624
688,-0.912,0.575624
689,-0.911,0.575624
690,-0.91,0.577363
691,-0.909,0.575624
692,-0.908,0.575624
693,-0.907,0.575624
694,-0.906,0.575624
695,-0.905,0.575624
696,-0.904,0.575624
697,-0.903,0.575624
698,-0.902,0.575624
699,-0.901,0.575624
700,-0.9,0.575624
701,-0.899,0.575624
702,-0.898,0.575624
703,-0.897,0.575624
704,-0.896,0.575624
705,-0.895,0.577363
706,-0.894,0.577363
707,-0.893,0.575624
708,-0.892,0.575624
709,-0.891,0.575624
710,-0.89,0.575624
711,-0.889,0.575624
712,-0.888,0.575624
713,-0.887,0.577363
714,-0.886,0.577363
715,-0.885,0.575624
716,-0.884,0.575624
717,-0.883,0.575624
718,-0.882,0.575624
719,-0.881,0.575624
720,-0.88,0.575624
721,-0.879,0.577363
722,-0.878,0.577363
723,-0.877,0.575624
724,-0.876,0.575624
725,-0.875,0.575624
726,-0.874,0.575624
727,-0.873,0.575624
728,-0.872,0.577363
729,-0.871,0.575624
730,-0.87,0.579102
731,-0.869,0.577363
732,-0.868,0.577363
733,-0.867,0.577363
734,-0.866,0.577363
735,-0.865,0.577363
736,-0.864,0.577363
737,-0.863,0.575624
738,-0.862,0.579102
739,-0.861,0.575624
740,-0.86,0.573885
741,-0.859,0.573885
742,-0.858,0.573885
743,-0.857,0.573885
744,-0.856,0.573885
745,-0.855,0.575624
746,-0.854,0.575624
747,-0.853,0.575624
748,-0.852,0.575624
749,-0.851,0.575624
750,-0.85,0.575624
751,-0.849,0.575624
752,-0.848,0.575624
753,-0.847,0.575624
754,-0.846,0.577363
755,-0.845,0.575624
756,-0.844,0.575624
757,-0.843,0.575624
758,-0.842,0.575624
759,-0.841,0.575624
760,-0.84,0.575624
761,-0.839,0.575624
762,-0.838,0.575624
763,-0.837,0.575624
764,-0.836,0.575624
765,-0.835,0.575624
766,-0.834,0.575624
767,-0.833,0.575624
768,-0.832,0.577363
769,-0.831,0.577363
770,-0.83,0.577363
771,-0.829,0.575624
772,-0.828,0.575624
773,-0.827,0.575624
774,-0.826,0.575624
775,-0.825,0.575624
776,-0.824,0.575624
777,-0.823,0.575624
778,-0.822,0.577363
779,-0.821,0.573885
780,-0.82,0.575624
781,-0.819,0.575624
782,-0.818,0.575624
783,-0.817,0.575624
784,-0.816,0.575624
785,-0.815,0.577363
786,-0.814,0.577363
787,-0.813,0.577363
788,-0.812,0.577363
789,-0.811,0.577363
790,-0.81,0.577363
791,-0.809,0.577363
792,-0.808,0.577363
793,-0.807,0.577363
794,-0.806,0.577363
795,-0.805,0.577363
796,-0.804,0.577363
797,-0.803,0.577363
798,-0.802,0.577363
799,-0.801,0.577363
800,-0.8,0.577363
801,-0.799,0.577363
802,-0.798,0.582579
803,-0.797,0.575624
804,-0.796,0.575624
805,-0.795,0.575624
806,-0.794,0.575624
807,-0.793,0.575624
808,-0.792,0.575624
809,-0.791,0.575624
810,-0.79,0.577363
811,-0.789,0.575624
812,-0.788,0.575624
813,-0.787,0.575624
814,-0.786,0.577363
815,-0.785,0.577363
816,-0.784,0.582579
817,-0.783,0.584318
818,-0.782,0.584318
819,-0.781,0.582579
820,-0.78,0.582579
821,-0.779,0.582579
822,-0.778,0.582579
823,-0.777,0.582579
824,-0.776,0.582579
825,-0.775,0.584318
826,-0.774,0.584318
827,-0.773,0.584318
828,-0.772,0.584318
829,-0.771,0.584318
830,-0.77,0.584318
831,-0.769,0.584318
832,-0.768,0.584318
833,-0.767,0.584318
834,-0.766,0.586057
835,-0.765,0.586057
836,-0.764,0.582579
837,-0.763,0.582579
838,-0.762,0.584318
839,-0.761,0.584318
840,-0.76,0.582579
841,-0.759,0.584318
842,-0.758,0.584318
843,-0.757,0.586057
844,-0.756,0.584318
845,-0.755,0.584318
846,-0.754,0.584318
847,-0.753,0.584318
848,-0.752,0.584318
849,-0.751,0.586057
850,-0.75,0.586057
851,-0.749,0.586057
852,-0.748,0.584318
853,-0.747,0.584318
854,-0.746,0.584318
855,-0.745,0.584318
856,-0.744,0.584318
857,-0.743,0.584318
858,-0.742,0.586057
859,-0.741,0.586057
860,-0.74,0.584318
861,-0.739,0.584318
862,-0.738,0.584318
863,-0.737,0.586057
864,-0.736,0.582579
865,-0.735,0.586057
866,-0.734,0.586057
867,-0.733,0.587796
868,-0.732,0.582579
869,-0.731,0.584318
870,-0.73,0.584318
871,-0.729,0.584318
872,-0.728,0.584318
873,-0.727,0.584318
874,-0.726,0.584318
875,-0.725,0.586057
876,-0.724,0.582579
877,-0.723,0.582579
878,-0.722,0.584318
879,-0.721,0.584318
880,-0.72,0.582579
881,-0.719,0.582579
882,-0.718,0.584318
883,-0.717,0.584318
884,-0.716,0.582579
885,-0.715,0.582579
886,-0.714,0.584318
887,-0.713,0.584318
888,-0.712,0.584318
889,-0.711,0.584318
890,-0.71,0.586057
891,-0.709,0.586057
892,-0.708,0.584318
893,-0.707,0.584318
894,-0.706,0.584318
895,-0.705,0.586057
896,-0.704,0.584318
897,-0.703,0.584318
898,-0.702,0.584318
899,-0.701,0.586057
900,-0.7,0.584318
901,-0.699,0.584318
902,-0.698,0.584318
903,-0.697,0.584318
904,-0.696,0.584318
905,-0.695,0.584318
906,-0.694,0.586057
907,-0.693,0.586057
908,-0.692,0.584318
909,-0.691,0.584318
910,-0.69,0.586057
911,-0.689,0.586057
912,-0.688,0.584318
913,-0.687,0.586057
914,-0.686,0.586057
915,-0.685,0.586057
916,-0.684,0.584318
917,-0.683,0.584318
918,-0.682,0.584318
919,-0.681,0.587796
920,-0.68,0.584318
921,-0.679,0.584318
922,-0.678,0.586057
923,-0.677,0.586057
924,-0.676,0.586057
925,-0.675,0.586057
926,-0.674,0.586057
927,-0.673,0.586057
928,-0.672,0.586057
929,-0.671,0.586057
930,-0.67,0.587796
931,-0.669,0.587796
932,-0.668,0.584318
933,-0.667,0.584318
934,-0.666,0.584318
935,-0.665,0.584318
936,-0.664,0.582579
937,-0.663,0.584318
938,-0.662,0.584318
939,-0.661,0.584318
940,-0.66,0.584318
941,-0.659,0.584318
942,-0.658,0.584318
943,-0.657,0.584318
944,-0.656,0.584318
945,-0.655,0.584318
946,-0.654,0.584318
947,-0.653,0.587796
948,-0.652,0.584318
949,-0.651,0.584318
950,-0.65,0.584318
951,-0.649,0.586057
952,-0.648,0.584318
953,-0.647,0.584318
954,-0.646,0.584318
955,-0.645,0.587796
956,-0.644,0.584318
957,-0.643,0.584318
958,-0.642,0.584318
959,-0.641,0.584318
960,-0.64,0.584318
961,-0.639,0.584318
962,-0.638,0.584318
963,-0.637,0.587796
964,-0.636,0.584318
965,-0.635,0.584318
966,-0.634,0.584318
967,-0.633,0.584318
968,-0.632,0.584318
969,-0.631,0.586057
970,-0.63,0.586057
971,-0.629,0.586057
972,-0.628,0.584318
973,-0.627,0.584318
974,-0.626,0.586057
975,-0.625,0.586057
976,-0.624,0.584318
977,-0.623,0.584318
978,-0.622,0.584318
979,-0.621,0.586057
980,-0.62,0.584318
981,-0.619,0.584318
982,-0.618,0.584318
983,-0.617,0.584318
984,-0.616,0.584318
985,-0.615,0.586057
986,-0.614,0.586057
987,-0.613,0.587796
988,-0.612,0.586057
989,-0.611,0.586057
990,-0.61,0.586057
991,-0.609,0.586057
992,-0.608,0.586057
993,-0.607,0.586057
994,-0.606,0.586057
995,-0.605,0.589535
996,-0.604,0.584318
997,-0.603,0.579102
998,-0.602,0.579102
999,-0.601,0.579102
1000,-0.6,0.579102
1001,-0.599,0.579102
