mcu/report/power_measurement/afe/afe_3v3_mic_clap.csv

;Scopy version,438f138
;Exported on,samedi décembre 14/12/2024
;Device,M2K
;Nr of samples,1600
;Sample rate,1000
;Tool,Oscilloscope
;Additional Information,
Sample,Time(S),CH1(V)
0,0,0.466962
1,0.001,0.466962
2,0.002,0.466962
3,0.003,0.466962
4,0.004,0.466962
5,0.005,0.466962
6,0.006,0.466962
7,0.007,0.466962
8,0.008,0.466962
9,0.009,0.466962
10,0.01,0.466962
11,0.011,0.466962
12,0.012,0.466962
13,0.013,0.466962
14,0.014,0.466962
15,0.015,0.466962
16,0.016,0.466962
17,0.017,0.466962
18,0.018,0.466962
19,0.019,0.466962
20,0.02,0.466962
21,0.021,0.466962
22,0.022,0.466962
23,0.023,0.466962
24,0.024,0.466962
25,0.025,0.466962
26,0.026,0.466962
27,0.027,0.466962
28,0.028,0.466962
29,0.029,0.466962
30,0.03,0.466962
31,0.031,0.466962
32,0.032,0.466962
33,0.033,0.466962
34,0.034,0.466962
35,0.035,0.466962
36,0.036,0.466962
37,0.037,0.466962
38,0.038,0.466962
39,0.039,0.466962
40,0.04,0.466962
41,0.041,0.466962
42,0.042,0.466962
43,0.043,0.466962
44,0.044,0.466962
45,0.045,0.466962
46,0.046,0.466962
47,0.047,0.466962
48,0.048,0.466962
49,0.049,0.466962
50,0.05,0.466962
51,0.051,0.466962
52,0.052,0.466962
53,0.053,0.466962
54,0.054,0.466962
55,0.055,0.466962
56,0.056,0.466962
57,0.057,0.466962
58,0.058,0.466962
59,0.059,0.466962
60,0.06,0.466962
61,0.061,0.466962
62,0.062,0.466962
63,0.063,0.466962
64,0.064,0.466962
65,0.065,0.466962
66,0.066,0.466962
67,0.067,0.466962
68,0.068,0.466962
69,0.069,0.466962
70,0.07,0.466962
71,0.071,0.466962
72,0.072,0.466962
73,0.073,0.466962
74,0.074,0.466962
75,0.075,0.466962
76,0.076,0.466962
77,0.077,0.466962
78,0.078,0.466962
79,0.079,0.466962
80,0.08,0.466962
81,0.081,0.466962
82,0.082,0.466962
83,0.083,0.466962
84,0.084,0.466962
85,0.085,0.466962
86,0.086,0.466962
87,0.087,0.466962
88,0.088,0.466962
89,0.089,0.466962
90,0.09,0.466962
91,0.091,0.466962
92,0.092,0.466962
93,0.093,0.466962
94,0.094,0.466962
95,0.095,0.466962
96,0.096,0.466962
97,0.097,0.466962
98,0.098,0.466962
99,0.099,0.466962
100,0.1,0.466962
101,0.101,0.466962
102,0.102,0.466962
103,0.103,0.466962
104,0.104,0.466962
105,0.105,0.466962
106,0.106,0.466962
107,0.107,0.466962
108,0.108,0.466962
109,0.109,0.466962
110,0.11,0.466962
111,0.111,0.466962
112,0.112,0.466962
113,0.113,0.466962
114,0.114,0.466962
115,0.115,0.466962
116,0.116,0.466962
117,0.117,0.466962
118,0.118,0.466962
119,0.119,0.466962
120,0.12,0.466962
121,0.121,0.466962
122,0.122,0.466962
123,0.123,0.466962
124,0.124,0.466962
125,0.125,0.466962
126,0.126,0.466962
127,0.127,0.466962
128,0.128,0.466962
129,0.129,0.466962
130,0.13,0.466962
131,0.131,0.466962
132,0.132,0.466962
133,0.133,0.466962
134,0.134,0.466962
135,0.135,0.466962
136,0.136,0.466962
137,0.137,0.466962
138,0.138,0.466962
139,0.139,0.466962
140,0.14,0.466962
141,0.141,0.466962
142,0.142,0.466962
143,0.143,0.466962
144,0.144,0.466962
145,0.145,0.466962
146,0.146,0.466962
147,0.147,0.466962
148,0.148,0.466962
149,0.149,0.466962
150,0.15,0.466962
151,0.151,0.466962
152,0.152,0.466962
153,0.153,0.466962
154,0.154,0.466962
155,0.155,0.466962
156,0.156,0.466962
157,0.157,0.466962
158,0.158,0.466962
159,0.159,0.466962
160,0.16,0.466962
161,0.161,0.466962
162,0.162,0.466962
163,0.163,0.466962
164,0.164,0.466962
165,0.165,0.466962
166,0.166,0.466962
167,0.167,0.466962
168,0.168,0.466962
169,0.169,0.466962
170,0.17,0.466962
171,0.171,0.466962
172,0.172,0.466962
173,0.173,0.466962
174,0.174,0.466962
175,0.175,0.466962
176,0.176,0.466962
177,0.177,0.466962
178,0.178,0.466962
179,0.179,0.466962
180,0.18,0.466962
181,0.181,0.466962
182,0.182,0.466962
183,0.183,0.466962
184,0.184,0.466962
185,0.185,0.466962
186,0.186,0.466962
187,0.187,0.466962
188,0.188,0.466962
189,0.189,0.466962
190,0.19,0.466962
191,0.191,0.466962
192,0.192,0.466962
193,0.193,0.466962
194,0.194,0.466962
195,0.195,0.466962
196,0.196,0.466962
197,0.197,0.466962
198,0.198,0.466962
199,0.199,0.466962
200,0.2,0.466962
201,0.201,0.466962
202,0.202,0.466962
203,0.203,0.466962
204,0.204,0.466962
205,0.205,0.466962
206,0.206,0.466962
207,0.207,0.466962
208,0.208,0.466962
209,0.209,0.466962
210,0.21,0.466962
211,0.211,0.466962
212,0.212,0.466962
213,0.213,0.466962
214,0.214,0.466962
215,0.215,0.466962
216,0.216,0.466962
217,0.217,0.466962
218,0.218,0.466962
219,0.219,0.466962
220,0.22,0.466962
221,0.221,0.466962
222,0.222,0.466962
223,0.223,0.466962
224,0.224,0.466962
225,0.225,0.466962
226,0.226,0.466962
227,0.227,0.466962
228,0.228,0.466962
229,0.229,0.466962
230,0.23,0.466962
231,0.231,0.466962
232,0.232,0.466962
233,0.233,0.466962
234,0.234,0.466962
235,0.235,0.466962
236,0.236,0.466962
237,0.237,0.466962
238,0.238,0.466962
239,0.239,0.466962
240,0.24,0.466962
241,0.241,0.466962
242,0.242,0.466962
243,0.243,0.466962
244,0.244,0.466962
245,0.245,0.466962
246,0.246,0.466962
247,0.247,0.466962
248,0.248,0.466962
249,0.249,0.466962
250,0.25,0.466962
251,0.251,0.466962
252,0.252,0.466962
253,0.253,0.466962
254,0.254,0.466962
255,0.255,0.466962
256,0.256,0.466962
257,0.257,0.466962
258,0.258,0.466962
259,0.259,0.466962
260,0.26,0.466962
261,0.261,0.466962
262,0.262,0.466962
263,0.263,0.466962
264,0.264,0.466962
265,0.265,0.466962
266,0.266,0.466962
267,0.267,0.466962
268,0.268,0.466962
269,0.269,0.466962
270,0.27,0.466962
271,0.271,0.466962
272,0.272,0.466962
273,0.273,0.466962
274,0.274,0.466962
275,0.275,0.468701
276,0.276,0.475656
277,0.277,0.477395
278,0.278,0.479134
279,0.279,0.480873
280,0.28,0.480873
281,0.281,0.482612
282,0.282,0.482612
283,0.283,0.486089
284,0.284,0.48435
285,0.285,0.486089
286,0.286,0.486089
287,0.287,0.487828
288,0.288,0.491306
289,0.289,0.489567
290,0.29,0.493045
291,0.291,0.491306
292,0.292,0.494783
293,0.293,0.494783
294,0.294,0.494783
295,0.295,0.496522
296,0.296,0.496522
297,0.297,0.501739
298,0.298,0.5
299,0.299,0.503478
300,0.3,0.503478
301,0.301,0.503478
302,0.302,0.503478
303,0.303,0.506955
304,0.304,0.506955
305,0.305,0.506955
306,0.306,0.506955
307,0.307,0.506955
308,0.308,0.510433
309,0.309,0.510433
310,0.31,0.510433
311,0.311,0.510433
312,0.312,0.510433
313,0.313,0.512172
314,0.314,0.512172
315,0.315,0.512172
316,0.316,0.513911
317,0.317,0.513911
318,0.318,0.512172
319,0.319,0.51565
320,0.32,0.51565
321,0.321,0.51565
322,0.322,0.51565
323,0.323,0.51565
324,0.324,0.51565
325,0.325,0.513911
326,0.326,0.517389
327,0.327,0.51565
328,0.328,0.519127
329,0.329,0.519127
330,0.33,0.519127
331,0.331,0.519127
332,0.332,0.519127
333,0.333,0.520866
334,0.334,0.520866
335,0.335,0.520866
336,0.336,0.519127
337,0.337,0.522605
338,0.338,0.522605
339,0.339,0.520866
340,0.34,0.520866
341,0.341,0.519127
342,0.342,0.522605
343,0.343,0.522605
344,0.344,0.522605
345,0.345,0.522605
346,0.346,0.522605
347,0.347,0.522605
348,0.348,0.522605
349,0.349,0.522605
350,0.35,0.522605
351,0.351,0.522605
352,0.352,0.522605
353,0.353,0.522605
354,0.354,0.522605
355,0.355,0.519127
356,0.356,0.520866
357,0.357,0.520866
358,0.358,0.522605
359,0.359,0.519127
360,0.36,0.520866
361,0.361,0.520866
362,0.362,0.520866
363,0.363,0.520866
364,0.364,0.519127
365,0.365,0.519127
366,0.366,0.519127
367,0.367,0.519127
368,0.368,0.519127
369,0.369,0.519127
370,0.37,0.519127
371,0.371,0.519127
372,0.372,0.519127
373,0.373,0.51565
374,0.374,0.517389
375,0.375,0.517389
376,0.376,0.517389
377,0.377,0.517389
378,0.378,0.513911
379,0.379,0.513911
380,0.38,0.513911
381,0.381,0.513911
382,0.382,0.513911
383,0.383,0.513911
384,0.384,0.512172
385,0.385,0.512172
386,0.386,0.512172
387,0.387,0.512172
388,0.388,0.512172
389,0.389,0.508694
390,0.39,0.510433
391,0.391,0.510433
392,0.392,0.506955
393,0.393,0.508694
394,0.394,0.508694
395,0.395,0.508694
396,0.396,0.505217
397,0.397,0.506955
398,0.398,0.506955
399,0.399,0.506955
400,0.4,0.506955
401,0.401,0.506955
402,0.402,0.506955
403,0.403,0.503478
404,0.404,0.505217
405,0.405,0.505217
406,0.406,0.503478
407,0.407,0.503478
408,0.408,0.503478
409,0.409,0.503478
410,0.41,0.501739
411,0.411,0.501739
412,0.412,0.501739
413,0.413,0.501739
414,0.414,0.501739
415,0.415,0.5
416,0.416,0.5
417,0.417,0.5
418,0.418,0.5
419,0.419,0.496522
420,0.42,0.496522
421,0.421,0.496522
422,0.422,0.494783
423,0.423,0.494783
424,0.424,0.496522
425,0.425,0.493045
426,0.426,0.493045
427,0.427,0.493045
428,0.428,0.493045
429,0.429,0.493045
430,0.43,0.491306
431,0.431,0.491306
432,0.432,0.491306
433,0.433,0.491306
434,0.434,0.491306
435,0.435,0.491306
436,0.436,0.489567
437,0.437,0.489567
438,0.438,0.489567
439,0.439,0.491306
440,0.44,0.487828
441,0.441,0.487828
442,0.442,0.487828
443,0.443,0.487828
444,0.444,0.489567
445,0.445,0.486089
446,0.446,0.486089
447,0.447,0.486089
448,0.448,0.486089
449,0.449,0.486089
450,0.45,0.486089
451,0.451,0.486089
452,0.452,0.48435
453,0.453,0.48435
454,0.454,0.48435
455,0.455,0.48435
456,0.456,0.48435
457,0.457,0.48435
458,0.458,0.482612
459,0.459,0.482612
460,0.46,0.482612
461,0.461,0.482612
462,0.462,0.482612
463,0.463,0.482612
464,0.464,0.480873
465,0.465,0.480873
466,0.466,0.480873
467,0.467,0.480873
468,0.468,0.480873
469,0.469,0.480873
470,0.47,0.480873
471,0.471,0.479134
472,0.472,0.479134
473,0.473,0.479134
474,0.474,0.479134
475,0.475,0.479134
476,0.476,0.479134
477,0.477,0.480873
478,0.478,0.477395
479,0.479,0.477395
480,0.48,0.477395
481,0.481,0.477395
482,0.482,0.477395
483,0.483,0.477395
484,0.484,0.477395
485,0.485,0.477395
486,0.486,0.477395
487,0.487,0.479134
488,0.488,0.475656
489,0.489,0.475656
490,0.49,0.475656
491,0.491,0.475656
492,0.492,0.475656
493,0.493,0.475656
494,0.494,0.475656
495,0.495,0.475656
496,0.496,0.475656
497,0.497,0.475656
498,0.498,0.475656
499,0.499,0.477395
500,0.5,0.472178
501,0.501,0.472178
502,0.502,0.472178
503,0.503,0.472178
504,0.504,0.472178
505,0.505,0.472178
506,0.506,0.472178
507,0.507,0.472178
508,0.508,0.472178
509,0.509,0.472178
510,0.51,0.472178
511,0.511,0.472178
512,0.512,0.472178
513,0.513,0.472178
514,0.514,0.47044
515,0.515,0.47044
516,0.516,0.47044
517,0.517,0.47044
518,0.518,0.47044
519,0.519,0.47044
520,0.52,0.47044
521,0.521,0.47044
522,0.522,0.47044
523,0.523,0.47044
524,0.524,0.47044
525,0.525,0.47044
526,0.526,0.47044
527,0.527,0.47044
528,0.528,0.47044
529,0.529,0.47044
530,0.53,0.47044
531,0.531,0.47044
532,0.532,0.47044
533,0.533,0.47044
534,0.534,0.47044
535,0.535,0.47044
536,0.536,0.47044
537,0.537,0.47044
538,0.538,0.468701
539,0.539,0.468701
540,0.54,0.468701
541,0.541,0.468701
542,0.542,0.472178
543,0.543,0.47044
544,0.544,0.475656
545,0.545,0.477395
546,0.546,0.480873
547,0.547,0.480873
548,0.548,0.480873
549,0.549,0.48435
550,0.55,0.48435
551,0.551,0.48435
552,0.552,0.48435
553,0.553,0.487828
554,0.554,0.486089
555,0.555,0.487828
556,0.556,0.487828
557,0.557,0.487828
558,0.558,0.487828
559,0.559,0.491306
560,0.56,0.489567
561,0.561,0.491306
562,0.562,0.491306
563,0.563,0.491306
564,0.564,0.491306
565,0.565,0.494783
566,0.566,0.493045
567,0.567,0.493045
568,0.568,0.493045
569,0.569,0.496522
570,0.57,0.494783
571,0.571,0.5
572,0.572,0.5
573,0.573,0.5
574,0.574,0.501739
575,0.575,0.501739
576,0.576,0.501739
577,0.577,0.505217
578,0.578,0.505217
579,0.579,0.505217
580,0.58,0.505217
581,0.581,0.505217
582,0.582,0.505217
583,0.583,0.503478
584,0.584,0.506955
585,0.585,0.506955
586,0.586,0.506955
587,0.587,0.506955
588,0.588,0.506955
589,0.589,0.506955
590,0.59,0.506955
591,0.591,0.508694
592,0.592,0.508694
593,0.593,0.508694
594,0.594,0.508694
595,0.595,0.508694
596,0.596,0.508694
597,0.597,0.508694
598,0.598,0.510433
599,0.599,0.510433
600,0.6,0.512172
601,0.601,0.508694
602,0.602,0.512172
603,0.603,0.512172
604,0.604,0.512172
605,0.605,0.512172
606,0.606,0.512172
607,0.607,0.510433
608,0.608,0.510433
609,0.609,0.510433
610,0.61,0.510433
611,0.611,0.510433
612,0.612,0.510433
613,0.613,0.510433
614,0.614,0.510433
615,0.615,0.506955
616,0.616,0.508694
617,0.617,0.508694
618,0.618,0.508694
619,0.619,0.508694
620,0.62,0.508694
621,0.621,0.508694
622,0.622,0.508694
623,0.623,0.508694
624,0.624,0.508694
625,0.625,0.508694
626,0.626,0.505217
627,0.627,0.506955
628,0.628,0.506955
629,0.629,0.506955
630,0.63,0.506955
631,0.631,0.506955
632,0.632,0.505217
633,0.633,0.505217
634,0.634,0.505217
635,0.635,0.505217
636,0.636,0.505217
637,0.637,0.505217
638,0.638,0.501739
639,0.639,0.503478
640,0.64,0.501739
641,0.641,0.501739
642,0.642,0.501739
643,0.643,0.501739
644,0.644,0.501739
645,0.645,0.5
646,0.646,0.5
647,0.647,0.5
648,0.648,0.5
649,0.649,0.5
650,0.65,0.5
651,0.651,0.494783
652,0.652,0.494783
653,0.653,0.494783
654,0.654,0.494783
655,0.655,0.494783
656,0.656,0.494783
657,0.657,0.493045
658,0.658,0.493045
659,0.659,0.493045
660,0.66,0.493045
661,0.661,0.493045
662,0.662,0.491306
663,0.663,0.491306
664,0.664,0.491306
665,0.665,0.493045
666,0.666,0.489567
667,0.667,0.489567
668,0.668,0.489567
669,0.669,0.491306
670,0.67,0.487828
671,0.671,0.487828
672,0.672,0.487828
673,0.673,0.487828
674,0.674,0.487828
675,0.675,0.487828
676,0.676,0.487828
677,0.677,0.486089
678,0.678,0.486089
679,0.679,0.486089
680,0.68,0.487828
681,0.681,0.48435
682,0.682,0.48435
683,0.683,0.48435
684,0.684,0.48435
685,0.685,0.48435
686,0.686,0.486089
687,0.687,0.482612
688,0.688,0.482612
689,0.689,0.482612
690,0.69,0.482612
691,0.691,0.482612
692,0.692,0.482612
693,0.693,0.482612
694,0.694,0.482612
695,0.695,0.48435
696,0.696,0.480873
697,0.697,0.480873
698,0.698,0.480873
699,0.699,0.480873
700,0.7,0.480873
701,0.701,0.480873
702,0.702,0.480873
703,0.703,0.480873
704,0.704,0.480873
705,0.705,0.480873
706,0.706,0.479134
707,0.707,0.479134
708,0.708,0.479134
709,0.709,0.479134
710,0.71,0.479134
711,0.711,0.479134
712,0.712,0.479134
713,0.713,0.479134
714,0.714,0.480873
715,0.715,0.477395
716,0.716,0.477395
717,0.717,0.477395
718,0.718,0.477395
719,0.719,0.477395
720,0.72,0.477395
721,0.721,0.477395
722,0.722,0.477395
723,0.723,0.477395
724,0.724,0.479134
725,0.725,0.475656
726,0.726,0.475656
727,0.727,0.475656
728,0.728,0.475656
729,0.729,0.475656
730,0.73,0.475656
731,0.731,0.475656
732,0.732,0.475656
733,0.733,0.475656
734,0.734,0.475656
735,0.735,0.475656
736,0.736,0.475656
737,0.737,0.475656
738,0.738,0.472178
739,0.739,0.472178
740,0.74,0.472178
741,0.741,0.472178
742,0.742,0.472178
743,0.743,0.472178
744,0.744,0.472178
745,0.745,0.472178
746,0.746,0.472178
747,0.747,0.472178
748,0.748,0.472178
749,0.749,0.472178
750,0.75,0.475656
751,0.751,0.47044
752,0.752,0.47044
753,0.753,0.47044
754,0.754,0.47044
755,0.755,0.47044
756,0.756,0.47044
757,0.757,0.47044
758,0.758,0.47044
759,0.759,0.47044
760,0.76,0.47044
761,0.761,0.47044
762,0.762,0.47044
763,0.763,0.47044
764,0.764,0.47044
765,0.765,0.47044
766,0.766,0.47044
767,0.767,0.47044
768,0.768,0.47044
769,0.769,0.47044
770,0.77,0.47044
771,0.771,0.47044
772,0.772,0.47044
773,0.773,0.47044
774,0.774,0.47044
775,0.775,0.47044
776,0.776,0.468701
777,0.777,0.468701
778,0.778,0.468701
779,0.779,0.468701
780,0.78,0.468701
781,0.781,0.468701
782,0.782,0.468701
783,0.783,0.468701
784,0.784,0.468701
785,0.785,0.468701
786,0.786,0.468701
787,0.787,0.468701
788,0.788,0.468701
789,0.789,0.468701
790,0.79,0.468701
791,0.791,0.468701
792,0.792,0.468701
793,0.793,0.468701
794,0.794,0.468701
795,0.795,0.468701
796,0.796,0.468701
797,0.797,0.468701
798,0.798,0.468701
799,0.799,0.468701
800,0.8,0.468701
801,0.801,0.468701
802,0.802,0.468701
803,0.803,0.468701
804,0.804,0.468701
805,0.805,0.468701
806,0.806,0.468701
807,0.807,0.468701
808,0.808,0.468701
809,0.809,0.468701
810,0.81,0.468701
811,0.811,0.468701
812,0.812,0.468701
813,0.813,0.468701
814,0.814,0.468701
815,0.815,0.468701
816,0.816,0.468701
817,0.817,0.468701
818,0.818,0.468701
819,0.819,0.468701
820,0.82,0.468701
821,0.821,0.47044
822,0.822,0.466962
823,0.823,0.466962
824,0.824,0.466962
825,0.825,0.466962
826,0.826,0.466962
827,0.827,0.466962
828,0.828,0.466962
829,0.829,0.466962
830,0.83,0.466962
831,0.831,0.466962
832,0.832,0.466962
833,0.833,0.466962
834,0.834,0.466962
835,0.835,0.466962
836,0.836,0.466962
837,0.837,0.466962
838,0.838,0.466962
839,0.839,0.466962
840,0.84,0.466962
841,0.841,0.466962
842,0.842,0.466962
843,0.843,0.466962
844,0.844,0.466962
845,0.845,0.466962
846,0.846,0.466962
847,0.847,0.466962
848,0.848,0.466962
849,0.849,0.466962
850,0.85,0.466962
851,0.851,0.466962
852,0.852,0.466962
853,0.853,0.466962
854,0.854,0.466962
855,0.855,0.466962
856,0.856,0.466962
857,0.857,0.466962
858,0.858,0.466962
859,0.859,0.466962
860,0.86,0.466962
861,0.861,0.466962
862,0.862,0.466962
863,0.863,0.466962
864,0.864,0.466962
865,0.865,0.466962
866,0.866,0.466962
867,0.867,0.466962
868,0.868,0.466962
869,0.869,0.466962
870,0.87,0.466962
871,0.871,0.466962
872,0.872,0.466962
873,0.873,0.466962
874,0.874,0.466962
875,0.875,0.466962
876,0.876,0.466962
877,0.877,0.466962
878,0.878,0.466962
879,0.879,0.466962
880,0.88,0.466962
881,0.881,0.466962
882,0.882,0.466962
883,0.883,0.466962
884,0.884,0.466962
885,0.885,0.466962
886,0.886,0.466962
887,0.887,0.466962
888,0.888,0.466962
889,0.889,0.466962
890,0.89,0.466962
891,0.891,0.466962
892,0.892,0.466962
893,0.893,0.466962
894,0.894,0.466962
895,0.895,0.466962
896,0.896,0.466962
897,0.897,0.466962
898,0.898,0.466962
899,0.899,0.466962
900,0.9,0.466962
901,0.901,0.466962
902,0.902,0.466962
903,0.903,0.466962
904,0.904,0.466962
905,0.905,0.466962
906,0.906,0.466962
907,0.907,0.466962
908,0.908,0.466962
909,0.909,0.466962
910,0.91,0.466962
911,0.911,0.466962
912,0.912,0.466962
913,0.913,0.466962
914,0.914,0.466962
915,0.915,0.466962
916,0.916,0.466962
917,0.917,0.466962
918,0.918,0.466962
919,0.919,0.466962
920,0.92,0.466962
921,0.921,0.466962
922,0.922,0.466962
923,0.923,0.466962
924,0.924,0.466962
925,0.925,0.466962
926,0.926,0.466962
927,0.927,0.466962
928,0.928,0.466962
929,0.929,0.466962
930,0.93,0.466962
931,0.931,0.466962
932,0.932,0.466962
933,0.933,0.466962
934,0.934,0.466962
935,0.935,0.466962
936,0.936,0.466962
937,0.937,0.466962
938,0.938,0.466962
939,0.939,0.466962
940,0.94,0.466962
941,0.941,0.466962
942,0.942,0.466962
943,0.943,0.466962
944,0.944,0.466962
945,0.945,0.466962
946,0.946,0.466962
947,0.947,0.466962
948,0.948,0.466962
949,0.949,0.466962
950,0.95,0.466962
951,0.951,0.466962
952,0.952,0.466962
953,0.953,0.466962
954,0.954,0.466962
955,0.955,0.466962
956,0.956,0.466962
957,0.957,0.466962
958,0.958,0.466962
959,0.959,0.466962
960,0.96,0.466962
961,0.961,0.466962
962,0.962,0.466962
963,0.963,0.466962
964,0.964,0.466962
965,0.965,0.466962
966,0.966,0.466962
967,0.967,0.466962
968,0.968,0.466962
969,0.969,0.466962
970,0.97,0.466962
971,0.971,0.466962
972,0.972,0.466962
973,0.973,0.466962
974,0.974,0.466962
975,0.975,0.466962
976,0.976,0.466962
977,0.977,0.466962
978,0.978,0.466962
979,0.979,0.466962
980,0.98,0.466962
981,0.981,0.466962
982,0.982,0.466962
983,0.983,0.466962
984,0.984,0.466962
985,0.985,0.466962
986,0.986,0.466962
987,0.987,0.466962
988,0.988,0.466962
989,0.989,0.466962
990,0.99,0.466962
991,0.991,0.466962
992,0.992,0.466962
993,0.993,0.466962
994,0.994,0.466962
995,0.995,0.466962
996,0.996,0.466962
997,0.997,0.466962
998,0.998,0.466962
999,0.999,0.466962
1000,1,0.466962
1001,1.001,0.466962
1002,1.002,0.466962
1003,1.003,0.466962
1004,1.004,0.466962
1005,1.005,0.466962
1006,1.006,0.466962
1007,1.007,0.466962
1008,1.008,0.466962
1009,1.009,0.466962
1010,1.01,0.466962
1011,1.011,0.466962
1012,1.012,0.466962
1013,1.013,0.466962
1014,1.014,0.466962
1015,1.015,0.466962
1016,1.016,0.466962
1017,1.017,0.466962
1018,1.018,0.466962
1019,1.019,0.466962
1020,1.02,0.466962
1021,1.021,0.466962
1022,1.022,0.466962
1023,1.023,0.466962
1024,1.024,0.466962
1025,1.025,0.466962
1026,1.026,0.466962
1027,1.027,0.466962
1028,1.028,0.466962
1029,1.029,0.466962
1030,1.03,0.466962
1031,1.031,0.466962
1032,1.032,0.466962
1033,1.033,0.466962
1034,1.034,0.466962
1035,1.035,0.466962
1036,1.036,0.466962
1037,1.037,0.466962
1038,1.038,0.466962
1039,1.039,0.466962
1040,1.04,0.466962
1041,1.041,0.466962
1042,1.042,0.466962
1043,1.043,0.466962
1044,1.044,0.466962
1045,1.045,0.466962
1046,1.046,0.466962
1047,1.047,0.466962
1048,1.048,0.466962
1049,1.049,0.466962
1050,1.05,0.466962
1051,1.051,0.466962
1052,1.052,0.466962
1053,1.053,0.466962
1054,1.054,0.466962
1055,1.055,0.466962
1056,1.056,0.466962
1057,1.057,0.466962
1058,1.058,0.466962
