mcu/report/power_measurement/afe/afe_2v8_mic_clap.csv

;Scopy version,438f138
;Exported on,samedi décembre 14/12/2024
;Device,M2K
;Nr of samples,1600
;Sample rate,1000
;Tool,Oscilloscope
;Additional Information,
Sample,Time(S),CH1(V)
0,0,0.45479
1,0.001,0.45479
2,0.002,0.45479
3,0.003,0.45479
4,0.004,0.45479
5,0.005,0.456529
6,0.006,0.453051
7,0.007,0.453051
8,0.008,0.453051
9,0.009,0.453051
10,0.01,0.453051
11,0.011,0.453051
12,0.012,0.453051
13,0.013,0.453051
14,0.014,0.453051
15,0.015,0.453051
16,0.016,0.453051
17,0.017,0.453051
18,0.018,0.453051
19,0.019,0.453051
20,0.02,0.453051
21,0.021,0.453051
22,0.022,0.453051
23,0.023,0.453051
24,0.024,0.453051
25,0.025,0.453051
26,0.026,0.453051
27,0.027,0.453051
28,0.028,0.453051
29,0.029,0.453051
30,0.03,0.453051
31,0.031,0.453051
32,0.032,0.453051
33,0.033,0.453051
34,0.034,0.453051
35,0.035,0.453051
36,0.036,0.453051
37,0.037,0.453051
38,0.038,0.453051
39,0.039,0.453051
40,0.04,0.453051
41,0.041,0.453051
42,0.042,0.453051
43,0.043,0.453051
44,0.044,0.453051
45,0.045,0.453051
46,0.046,0.453051
47,0.047,0.453051
48,0.048,0.453051
49,0.049,0.453051
50,0.05,0.453051
51,0.051,0.453051
52,0.052,0.453051
53,0.053,0.453051
54,0.054,0.453051
55,0.055,0.453051
56,0.056,0.453051
57,0.057,0.453051
58,0.058,0.453051
59,0.059,0.453051
60,0.06,0.453051
61,0.061,0.453051
62,0.062,0.453051
63,0.063,0.453051
64,0.064,0.453051
65,0.065,0.453051
66,0.066,0.453051
67,0.067,0.453051
68,0.068,0.453051
69,0.069,0.453051
70,0.07,0.453051
71,0.071,0.453051
72,0.072,0.453051
73,0.073,0.453051
74,0.074,0.453051
75,0.075,0.453051
76,0.076,0.453051
77,0.077,0.453051
78,0.078,0.453051
79,0.079,0.453051
80,0.08,0.453051
81,0.081,0.453051
82,0.082,0.453051
83,0.083,0.453051
84,0.084,0.453051
85,0.085,0.453051
86,0.086,0.453051
87,0.087,0.453051
88,0.088,0.453051
89,0.089,0.453051
90,0.09,0.453051
91,0.091,0.453051
92,0.092,0.453051
93,0.093,0.453051
94,0.094,0.453051
95,0.095,0.453051
96,0.096,0.453051
97,0.097,0.453051
98,0.098,0.453051
99,0.099,0.453051
100,0.1,0.453051
101,0.101,0.453051
102,0.102,0.453051
103,0.103,0.453051
104,0.104,0.453051
105,0.105,0.453051
106,0.106,0.453051
107,0.107,0.453051
108,0.108,0.453051
109,0.109,0.453051
110,0.11,0.453051
111,0.111,0.453051
112,0.112,0.453051
113,0.113,0.453051
114,0.114,0.453051
115,0.115,0.453051
116,0.116,0.453051
117,0.117,0.453051
118,0.118,0.453051
119,0.119,0.453051
120,0.12,0.453051
121,0.121,0.453051
122,0.122,0.453051
123,0.123,0.453051
124,0.124,0.453051
125,0.125,0.453051
126,0.126,0.453051
127,0.127,0.453051
128,0.128,0.453051
129,0.129,0.453051
130,0.13,0.453051
131,0.131,0.453051
132,0.132,0.453051
133,0.133,0.453051
134,0.134,0.453051
135,0.135,0.453051
136,0.136,0.453051
137,0.137,0.453051
138,0.138,0.453051
139,0.139,0.453051
140,0.14,0.453051
141,0.141,0.453051
142,0.142,0.453051
143,0.143,0.453051
144,0.144,0.453051
145,0.145,0.453051
146,0.146,0.453051
147,0.147,0.453051
148,0.148,0.453051
149,0.149,0.453051
150,0.15,0.453051
151,0.151,0.453051
152,0.152,0.453051
153,0.153,0.453051
154,0.154,0.453051
155,0.155,0.453051
156,0.156,0.453051
157,0.157,0.453051
158,0.158,0.453051
159,0.159,0.453051
160,0.16,0.453051
161,0.161,0.453051
162,0.162,0.453051
163,0.163,0.453051
164,0.164,0.453051
165,0.165,0.453051
166,0.166,0.453051
167,0.167,0.453051
168,0.168,0.453051
169,0.169,0.453051
170,0.17,0.453051
171,0.171,0.453051
172,0.172,0.453051
173,0.173,0.453051
174,0.174,0.453051
175,0.175,0.453051
176,0.176,0.453051
177,0.177,0.453051
178,0.178,0.453051
179,0.179,0.453051
180,0.18,0.453051
181,0.181,0.453051
182,0.182,0.453051
183,0.183,0.453051
184,0.184,0.453051
185,0.185,0.453051
186,0.186,0.453051
187,0.187,0.453051
188,0.188,0.453051
189,0.189,0.453051
190,0.19,0.453051
191,0.191,0.453051
192,0.192,0.453051
193,0.193,0.453051
194,0.194,0.453051
195,0.195,0.453051
196,0.196,0.453051
197,0.197,0.453051
198,0.198,0.453051
199,0.199,0.453051
200,0.2,0.453051
201,0.201,0.453051
202,0.202,0.453051
203,0.203,0.453051
204,0.204,0.453051
205,0.205,0.453051
206,0.206,0.453051
207,0.207,0.453051
208,0.208,0.453051
209,0.209,0.453051
210,0.21,0.453051
211,0.211,0.453051
212,0.212,0.453051
213,0.213,0.453051
214,0.214,0.453051
215,0.215,0.453051
216,0.216,0.453051
217,0.217,0.453051
218,0.218,0.453051
219,0.219,0.453051
220,0.22,0.453051
221,0.221,0.453051
222,0.222,0.453051
223,0.223,0.453051
224,0.224,0.453051
225,0.225,0.453051
226,0.226,0.453051
227,0.227,0.453051
228,0.228,0.453051
229,0.229,0.453051
230,0.23,0.453051
231,0.231,0.453051
232,0.232,0.453051
233,0.233,0.453051
234,0.234,0.453051
235,0.235,0.453051
236,0.236,0.453051
237,0.237,0.453051
238,0.238,0.453051
239,0.239,0.453051
240,0.24,0.453051
241,0.241,0.453051
242,0.242,0.453051
243,0.243,0.453051
244,0.244,0.453051
245,0.245,0.453051
246,0.246,0.453051
247,0.247,0.453051
248,0.248,0.453051
249,0.249,0.453051
250,0.25,0.453051
251,0.251,0.453051
252,0.252,0.453051
253,0.253,0.453051
254,0.254,0.453051
255,0.255,0.453051
256,0.256,0.453051
257,0.257,0.453051
258,0.258,0.453051
259,0.259,0.453051
260,0.26,0.453051
261,0.261,0.453051
262,0.262,0.453051
263,0.263,0.453051
264,0.264,0.453051
265,0.265,0.453051
266,0.266,0.453051
267,0.267,0.453051
268,0.268,0.453051
269,0.269,0.453051
270,0.27,0.453051
271,0.271,0.453051
272,0.272,0.453051
273,0.273,0.453051
274,0.274,0.453051
275,0.275,0.453051
276,0.276,0.453051
277,0.277,0.453051
278,0.278,0.453051
279,0.279,0.453051
280,0.28,0.45479
281,0.281,0.453051
282,0.282,0.456529
283,0.283,0.453051
284,0.284,0.453051
285,0.285,0.453051
286,0.286,0.453051
287,0.287,0.453051
288,0.288,0.453051
289,0.289,0.45479
290,0.29,0.453051
291,0.291,0.453051
292,0.292,0.453051
293,0.293,0.453051
294,0.294,0.453051
295,0.295,0.453051
296,0.296,0.453051
297,0.297,0.453051
298,0.298,0.453051
299,0.299,0.453051
300,0.3,0.453051
301,0.301,0.456529
302,0.302,0.453051
303,0.303,0.453051
304,0.304,0.453051
305,0.305,0.453051
306,0.306,0.453051
307,0.307,0.45479
308,0.308,0.453051
309,0.309,0.453051
310,0.31,0.453051
311,0.311,0.453051
312,0.312,0.453051
313,0.313,0.453051
314,0.314,0.45479
315,0.315,0.453051
316,0.316,0.453051
317,0.317,0.453051
318,0.318,0.453051
319,0.319,0.453051
320,0.32,0.453051
321,0.321,0.453051
322,0.322,0.453051
323,0.323,0.453051
324,0.324,0.45479
325,0.325,0.453051
326,0.326,0.453051
327,0.327,0.453051
328,0.328,0.453051
329,0.329,0.453051
330,0.33,0.453051
331,0.331,0.453051
332,0.332,0.453051
333,0.333,0.453051
334,0.334,0.453051
335,0.335,0.453051
336,0.336,0.453051
337,0.337,0.453051
338,0.338,0.456529
339,0.339,0.45479
340,0.34,0.45479
341,0.341,0.45479
342,0.342,0.45479
343,0.343,0.45479
344,0.344,0.45479
345,0.345,0.45479
346,0.346,0.45479
347,0.347,0.45479
348,0.348,0.45479
349,0.349,0.45479
350,0.35,0.45479
351,0.351,0.453051
352,0.352,0.453051
353,0.353,0.453051
354,0.354,0.453051
355,0.355,0.453051
356,0.356,0.453051
357,0.357,0.453051
358,0.358,0.453051
359,0.359,0.456529
360,0.36,0.45479
361,0.361,0.458268
362,0.362,0.456529
363,0.363,0.460006
364,0.364,0.456529
365,0.365,0.456529
366,0.366,0.456529
367,0.367,0.456529
368,0.368,0.456529
369,0.369,0.456529
370,0.37,0.456529
371,0.371,0.456529
372,0.372,0.456529
373,0.373,0.456529
374,0.374,0.456529
375,0.375,0.456529
376,0.376,0.458268
377,0.377,0.458268
378,0.378,0.458268
379,0.379,0.460006
380,0.38,0.460006
381,0.381,0.460006
382,0.382,0.460006
383,0.383,0.463484
384,0.384,0.463484
385,0.385,0.463484
386,0.386,0.463484
387,0.387,0.465223
388,0.388,0.465223
389,0.389,0.465223
390,0.39,0.465223
391,0.391,0.465223
392,0.392,0.465223
393,0.393,0.465223
394,0.394,0.468701
395,0.395,0.466962
396,0.396,0.466962
397,0.397,0.466962
398,0.398,0.468701
399,0.399,0.468701
400,0.4,0.468701
401,0.401,0.468701
402,0.402,0.468701
403,0.403,0.468701
404,0.404,0.468701
405,0.405,0.47044
406,0.406,0.47044
407,0.407,0.47044
408,0.408,0.47044
409,0.409,0.472178
410,0.41,0.472178
411,0.411,0.472178
412,0.412,0.472178
413,0.413,0.475656
414,0.414,0.475656
415,0.415,0.475656
416,0.416,0.475656
417,0.417,0.475656
418,0.418,0.475656
419,0.419,0.475656
420,0.42,0.479134
421,0.421,0.477395
422,0.422,0.477395
423,0.423,0.477395
424,0.424,0.477395
425,0.425,0.477395
426,0.426,0.480873
427,0.427,0.479134
428,0.428,0.479134
429,0.429,0.479134
430,0.43,0.479134
431,0.431,0.479134
432,0.432,0.479134
433,0.433,0.482612
434,0.434,0.480873
435,0.435,0.480873
436,0.436,0.480873
437,0.437,0.480873
438,0.438,0.482612
439,0.439,0.482612
440,0.44,0.482612
441,0.441,0.482612
442,0.442,0.482612
443,0.443,0.482612
444,0.444,0.482612
445,0.445,0.482612
446,0.446,0.482612
447,0.447,0.482612
448,0.448,0.482612
449,0.449,0.482612
450,0.45,0.482612
451,0.451,0.482612
452,0.452,0.482612
453,0.453,0.482612
454,0.454,0.482612
455,0.455,0.486089
456,0.456,0.48435
457,0.457,0.486089
458,0.458,0.48435
459,0.459,0.48435
460,0.46,0.48435
461,0.461,0.48435
462,0.462,0.48435
463,0.463,0.48435
464,0.464,0.48435
465,0.465,0.48435
466,0.466,0.48435
467,0.467,0.48435
468,0.468,0.48435
469,0.469,0.48435
470,0.47,0.482612
471,0.471,0.482612
472,0.472,0.482612
473,0.473,0.482612
474,0.474,0.482612
475,0.475,0.482612
476,0.476,0.482612
477,0.477,0.482612
478,0.478,0.482612
479,0.479,0.480873
480,0.48,0.480873
481,0.481,0.480873
482,0.482,0.480873
483,0.483,0.480873
484,0.484,0.480873
485,0.485,0.480873
486,0.486,0.480873
487,0.487,0.479134
488,0.488,0.479134
489,0.489,0.479134
490,0.49,0.479134
491,0.491,0.479134
492,0.492,0.479134
493,0.493,0.479134
494,0.494,0.479134
495,0.495,0.479134
496,0.496,0.479134
497,0.497,0.480873
498,0.498,0.477395
499,0.499,0.477395
500,0.5,0.477395
501,0.501,0.477395
502,0.502,0.477395
503,0.503,0.479134
504,0.504,0.475656
505,0.505,0.475656
506,0.506,0.475656
507,0.507,0.475656
508,0.508,0.475656
509,0.509,0.475656
510,0.51,0.475656
511,0.511,0.472178
512,0.512,0.472178
513,0.513,0.472178
514,0.514,0.472178
515,0.515,0.472178
516,0.516,0.472178
517,0.517,0.475656
518,0.518,0.47044
519,0.519,0.472178
520,0.52,0.472178
521,0.521,0.47044
522,0.522,0.47044
523,0.523,0.47044
524,0.524,0.47044
525,0.525,0.47044
526,0.526,0.472178
527,0.527,0.468701
528,0.528,0.468701
529,0.529,0.468701
530,0.53,0.468701
531,0.531,0.468701
532,0.532,0.468701
533,0.533,0.468701
534,0.534,0.468701
535,0.535,0.466962
536,0.536,0.466962
537,0.537,0.466962
538,0.538,0.466962
539,0.539,0.466962
540,0.54,0.466962
541,0.541,0.468701
542,0.542,0.465223
543,0.543,0.465223
544,0.544,0.465223
545,0.545,0.465223
546,0.546,0.465223
547,0.547,0.465223
548,0.548,0.465223
549,0.549,0.465223
550,0.55,0.465223
551,0.551,0.465223
552,0.552,0.463484
553,0.553,0.463484
554,0.554,0.463484
555,0.555,0.463484
556,0.556,0.463484
557,0.557,0.463484
558,0.558,0.463484
559,0.559,0.463484
560,0.56,0.463484
561,0.561,0.463484
562,0.562,0.461745
563,0.563,0.461745
564,0.564,0.461745
565,0.565,0.461745
566,0.566,0.461745
567,0.567,0.461745
568,0.568,0.461745
569,0.569,0.461745
570,0.57,0.461745
571,0.571,0.461745
572,0.572,0.461745
573,0.573,0.461745
574,0.574,0.460006
575,0.575,0.460006
576,0.576,0.460006
577,0.577,0.460006
578,0.578,0.460006
579,0.579,0.460006
580,0.58,0.460006
581,0.581,0.460006
582,0.582,0.460006
583,0.583,0.460006
584,0.584,0.460006
585,0.585,0.460006
586,0.586,0.461745
587,0.587,0.458268
588,0.588,0.458268
589,0.589,0.458268
590,0.59,0.458268
591,0.591,0.458268
592,0.592,0.458268
593,0.593,0.458268
594,0.594,0.458268
595,0.595,0.458268
596,0.596,0.458268
597,0.597,0.458268
598,0.598,0.458268
599,0.599,0.458268
600,0.6,0.458268
601,0.601,0.458268
602,0.602,0.458268
603,0.603,0.460006
604,0.604,0.456529
605,0.605,0.456529
606,0.606,0.456529
607,0.607,0.456529
608,0.608,0.456529
609,0.609,0.456529
610,0.61,0.456529
611,0.611,0.456529
612,0.612,0.456529
613,0.613,0.456529
614,0.614,0.456529
615,0.615,0.456529
616,0.616,0.456529
617,0.617,0.456529
618,0.618,0.456529
619,0.619,0.456529
620,0.62,0.456529
621,0.621,0.456529
622,0.622,0.456529
623,0.623,0.456529
624,0.624,0.456529
625,0.625,0.456529
626,0.626,0.456529
627,0.627,0.456529
628,0.628,0.456529
629,0.629,0.458268
630,0.63,0.45479
631,0.631,0.45479
632,0.632,0.45479
633,0.633,0.45479
634,0.634,0.45479
635,0.635,0.45479
636,0.636,0.45479
637,0.637,0.45479
638,0.638,0.45479
639,0.639,0.45479
640,0.64,0.45479
641,0.641,0.45479
642,0.642,0.45479
643,0.643,0.45479
644,0.644,0.45479
645,0.645,0.45479
646,0.646,0.45479
647,0.647,0.45479
648,0.648,0.45479
649,0.649,0.45479
650,0.65,0.45479
651,0.651,0.45479
652,0.652,0.45479
653,0.653,0.45479
654,0.654,0.45479
655,0.655,0.45479
656,0.656,0.45479
657,0.657,0.45479
658,0.658,0.45479
659,0.659,0.45479
660,0.66,0.45479
661,0.661,0.45479
662,0.662,0.45479
663,0.663,0.45479
664,0.664,0.45479
665,0.665,0.45479
666,0.666,0.45479
667,0.667,0.45479
668,0.668,0.45479
669,0.669,0.45479
670,0.67,0.45479
671,0.671,0.45479
672,0.672,0.45479
673,0.673,0.45479
674,0.674,0.45479
675,0.675,0.45479
676,0.676,0.45479
677,0.677,0.45479
678,0.678,0.45479
679,0.679,0.45479
680,0.68,0.45479
681,0.681,0.45479
682,0.682,0.45479
683,0.683,0.45479
684,0.684,0.45479
685,0.685,0.45479
686,0.686,0.45479
687,0.687,0.45479
688,0.688,0.45479
689,0.689,0.45479
690,0.69,0.45479
691,0.691,0.453051
692,0.692,0.453051
693,0.693,0.453051
694,0.694,0.453051
695,0.695,0.453051
696,0.696,0.453051
697,0.697,0.453051
698,0.698,0.453051
699,0.699,0.453051
700,0.7,0.453051
701,0.701,0.453051
702,0.702,0.453051
703,0.703,0.453051
704,0.704,0.453051
705,0.705,0.453051
706,0.706,0.453051
707,0.707,0.453051
708,0.708,0.453051
709,0.709,0.453051
710,0.71,0.453051
711,0.711,0.453051
712,0.712,0.453051
713,0.713,0.453051
714,0.714,0.453051
715,0.715,0.453051
716,0.716,0.453051
717,0.717,0.453051
718,0.718,0.453051
719,0.719,0.453051
720,0.72,0.453051
721,0.721,0.453051
722,0.722,0.453051
723,0.723,0.453051
724,0.724,0.453051
725,0.725,0.453051
726,0.726,0.453051
727,0.727,0.453051
728,0.728,0.453051
729,0.729,0.453051
730,0.73,0.453051
731,0.731,0.453051
732,0.732,0.453051
733,0.733,0.453051
734,0.734,0.45479
735,0.735,0.458268
736,0.736,0.460006
737,0.737,0.460006
738,0.738,0.460006
739,0.739,0.463484
740,0.74,0.461745
741,0.741,0.461745
742,0.742,0.461745
743,0.743,0.461745
744,0.744,0.465223
745,0.745,0.463484
746,0.746,0.465223
747,0.747,0.465223
748,0.748,0.465223
749,0.749,0.465223
750,0.75,0.465223
751,0.751,0.468701
752,0.752,0.466962
753,0.753,0.466962
754,0.754,0.468701
755,0.755,0.468701
756,0.756,0.468701
757,0.757,0.468701
758,0.758,0.47044
759,0.759,0.47044
760,0.76,0.47044
761,0.761,0.47044
762,0.762,0.475656
763,0.763,0.472178
764,0.764,0.472178
765,0.765,0.472178
766,0.766,0.472178
767,0.767,0.472178
768,0.768,0.472178
769,0.769,0.472178
770,0.77,0.477395
771,0.771,0.475656
772,0.772,0.475656
773,0.773,0.475656
774,0.774,0.475656
775,0.775,0.475656
776,0.776,0.475656
777,0.777,0.475656
778,0.778,0.477395
779,0.779,0.477395
780,0.78,0.477395
781,0.781,0.477395
782,0.782,0.477395
783,0.783,0.479134
784,0.784,0.479134
785,0.785,0.479134
786,0.786,0.479134
787,0.787,0.479134
788,0.788,0.479134
789,0.789,0.479134
790,0.79,0.482612
791,0.791,0.480873
792,0.792,0.480873
793,0.793,0.480873
794,0.794,0.480873
795,0.795,0.480873
796,0.796,0.480873
797,0.797,0.480873
798,0.798,0.480873
799,0.799,0.480873
800,0.8,0.480873
801,0.801,0.482612
802,0.802,0.482612
803,0.803,0.482612
804,0.804,0.482612
805,0.805,0.482612
806,0.806,0.482612
807,0.807,0.482612
808,0.808,0.482612
809,0.809,0.482612
810,0.81,0.482612
811,0.811,0.482612
812,0.812,0.482612
813,0.813,0.482612
814,0.814,0.482612
815,0.815,0.482612
816,0.816,0.48435
817,0.817,0.480873
818,0.818,0.482612
819,0.819,0.482612
820,0.82,0.482612
821,0.821,0.482612
822,0.822,0.482612
823,0.823,0.482612
824,0.824,0.48435
825,0.825,0.480873
826,0.826,0.480873
827,0.827,0.480873
828,0.828,0.480873
829,0.829,0.480873
830,0.83,0.480873
831,0.831,0.480873
832,0.832,0.480873
833,0.833,0.480873
834,0.834,0.480873
835,0.835,0.480873
836,0.836,0.479134
837,0.837,0.479134
838,0.838,0.479134
839,0.839,0.479134
840,0.84,0.479134
841,0.841,0.479134
842,0.842,0.479134
843,0.843,0.480873
844,0.844,0.477395
845,0.845,0.477395
846,0.846,0.477395
847,0.847,0.477395
848,0.848,0.477395
849,0.849,0.477395
850,0.85,0.477395
851,0.851,0.477395
852,0.852,0.477395
853,0.853,0.477395
854,0.854,0.475656
855,0.855,0.475656
856,0.856,0.475656
857,0.857,0.475656
858,0.858,0.477395
859,0.859,0.472178
860,0.86,0.472178
861,0.861,0.472178
862,0.862,0.472178
863,0.863,0.472178
864,0.864,0.472178
865,0.865,0.472178
866,0.866,0.472178
867,0.867,0.472178
868,0.868,0.472178
869,0.869,0.47044
870,0.87,0.47044
871,0.871,0.47044
872,0.872,0.47044
873,0.873,0.47044
874,0.874,0.47044
875,0.875,0.47044
876,0.876,0.468701
877,0.877,0.468701
878,0.878,0.468701
879,0.879,0.468701
880,0.88,0.468701
881,0.881,0.468701
882,0.882,0.468701
883,0.883,0.466962
884,0.884,0.466962
885,0.885,0.466962
886,0.886,0.466962
887,0.887,0.466962
888,0.888,0.466962
889,0.889,0.466962
890,0.89,0.466962
891,0.891,0.465223
892,0.892,0.465223
893,0.893,0.465223
894,0.894,0.465223
895,0.895,0.465223
896,0.896,0.465223
897,0.897,0.465223
898,0.898,0.466962
899,0.899,0.463484
900,0.9,0.463484
901,0.901,0.463484
902,0.902,0.463484
903,0.903,0.463484
904,0.904,0.463484
905,0.905,0.463484
906,0.906,0.463484
907,0.907,0.463484
908,0.908,0.463484
909,0.909,0.463484
910,0.91,0.461745
911,0.911,0.461745
912,0.912,0.461745
913,0.913,0.461745
914,0.914,0.461745
915,0.915,0.461745
916,0.916,0.461745
917,0.917,0.461745
918,0.918,0.461745
919,0.919,0.461745
920,0.92,0.461745
921,0.921,0.460006
922,0.922,0.460006
923,0.923,0.460006
924,0.924,0.460006
925,0.925,0.460006
926,0.926,0.460006
927,0.927,0.460006
928,0.928,0.460006
929,0.929,0.460006
930,0.93,0.460006
931,0.931,0.460006
932,0.932,0.460006
933,0.933,0.460006
934,0.934,0.460006
935,0.935,0.458268
936,0.936,0.458268
937,0.937,0.458268
938,0.938,0.458268
939,0.939,0.458268
940,0.94,0.458268
941,0.941,0.458268
942,0.942,0.458268
943,0.943,0.458268
944,0.944,0.458268
945,0.945,0.458268
946,0.946,0.458268
947,0.947,0.458268
948,0.948,0.458268
949,0.949,0.458268
950,0.95,0.458268
951,0.951,0.456529
952,0.952,0.456529
953,0.953,0.456529
954,0.954,0.456529
955,0.955,0.456529
956,0.956,0.456529
957,0.957,0.456529
958,0.958,0.456529
959,0.959,0.456529
960,0.96,0.456529
961,0.961,0.456529
962,0.962,0.456529
963,0.963,0.456529
964,0.964,0.456529
965,0.965,0.456529
966,0.966,0.456529
967,0.967,0.456529
968,0.968,0.456529
969,0.969,0.456529
970,0.97,0.456529
971,0.971,0.456529
972,0.972,0.456529
973,0.973,0.456529
974,0.974,0.456529
975,0.975,0.45479
976,0.976,0.45479
977,0.977,0.45479
978,0.978,0.45479
979,0.979,0.45479
980,0.98,0.45479
981,0.981,0.45479
982,0.982,0.45479
983,0.983,0.45479
984,0.984,0.45479
985,0.985,0.45479
986,0.986,0.45479
987,0.987,0.45479
988,0.988,0.45479
989,0.989,0.45479
990,0.99,0.45479
991,0.991,0.45479
992,0.992,0.45479
993,0.993,0.45479
994,0.994,0.45479
995,0.995,0.45479
996,0.996,0.45479
997,0.997,0.45479
998,0.998,0.45479
999,0.999,0.45479
1000,1,0.45479
1001,1.001,0.45479
1002,1.002,0.45479
1003,1.003,0.45479
1004,1.004,0.45479
1005,1.005,0.45479
1006,1.006,0.45479
1007,1.007,0.45479
1008,1.008,0.45479
1009,1.009,0.45479
1010,1.01,0.45479
1011,1.011,0.45479
1012,1.012,0.45479
1013,1.013,0.45479
1014,1.014,0.45479
1015,1.015,0.45479
1016,1.016,0.453051
1017,1.017,0.45479
1018,1.018,0.453051
1019,1.019,0.453051
1020,1.02,0.453051
1021,1.021,0.453051
1022,1.022,0.453051
1023,1.023,0.453051
1024,1.024,0.453051
1025,1.025,0.453051
1026,1.026,0.453051
1027,1.027,0.453051
1028,1.028,0.453051
1029,1.029,0.453051
1030,1.03,0.453051
1031,1.031,0.453051
1032,1.032,0.453051
1033,1.033,0.453051
1034,1.034,0.453051
1035,1.035,0.453051
1036,1.036,0.453051
1037,1.037,0.453051
1038,1.038,0.453051
1039,1.039,0.453051
1040,1.04,0.453051
1041,1.041,0.453051
1042,1.042,0.453051
1043,1.043,0.453051
1044,1.044,0.453051
1045,1.045,0.453051
1046,1.046,0.453051
1047,1.047,0.453051
1048,1.048,0.453051
1049,1.049,0.453051
1050,1.05,0.453051
1051,1.051,0.453051
1052,1.052,0.453051
1053,1.053,0.453051
1054,1.054,0.453051
1055,1.055,0.453051
1056,1.056,0.453051
1057,1.057,0.453051
1058,1.058,0.453051
1059,1.059,0.453051
