mcu/report/power_measurement/mcu/melvec_param/mcu_halfSamplePerMelvec.csv

;Scopy version,438f138
;Exported on,samedi décembre 14/12/2024
;Device,M2K
;Nr of samples,3200
;Sample rate,1000
;Tool,Oscilloscope
;Additional Information,
Sample,Time(S),Ref
0,-1.6,0.572146
1,-1.599,0.572146
2,-1.598,0.570407
3,-1.597,0.570407
4,-1.596,0.570407
5,-1.595,0.570407
6,-1.594,0.570407
7,-1.593,0.570407
8,-1.592,0.572146
9,-1.591,0.572146
10,-1.59,0.570407
11,-1.589,0.570407
12,-1.588,0.570407
13,-1.587,0.572146
14,-1.586,0.572146
15,-1.585,0.572146
16,-1.584,0.572146
17,-1.583,0.573885
18,-1.582,0.570407
19,-1.581,0.572146
20,-1.58,0.572146
21,-1.579,0.572146
22,-1.578,0.570407
23,-1.577,0.570407
24,-1.576,0.570407
25,-1.575,0.572146
26,-1.574,0.570407
27,-1.573,0.570407
28,-1.572,0.570407
29,-1.571,0.570407
30,-1.57,0.570407
31,-1.569,0.572146
32,-1.568,0.572146
33,-1.567,0.573885
34,-1.566,0.572146
35,-1.565,0.572146
36,-1.564,0.572146
37,-1.563,0.572146
38,-1.562,0.572146
39,-1.561,0.572146
40,-1.56,0.572146
41,-1.559,0.573885
42,-1.558,0.572146
43,-1.557,0.568669
44,-1.556,0.568669
45,-1.555,0.568669
46,-1.554,0.570407
47,-1.553,0.570407
48,-1.552,0.570407
49,-1.551,0.570407
50,-1.55,0.572146
51,-1.549,0.570407
52,-1.548,0.570407
53,-1.547,0.572146
54,-1.546,0.572146
55,-1.545,0.570407
56,-1.544,0.572146
57,-1.543,0.572146
58,-1.542,0.572146
59,-1.541,0.570407
60,-1.54,0.570407
61,-1.539,0.570407
62,-1.538,0.570407
63,-1.537,0.570407
64,-1.536,0.570407
65,-1.535,0.570407
66,-1.534,0.570407
67,-1.533,0.570407
68,-1.532,0.570407
69,-1.531,0.570407
70,-1.53,0.572146
71,-1.529,0.572146
72,-1.528,0.572146
73,-1.527,0.572146
74,-1.526,0.572146
75,-1.525,0.572146
76,-1.524,0.572146
77,-1.523,0.572146
78,-1.522,0.572146
79,-1.521,0.572146
80,-1.52,0.572146
81,-1.519,0.572146
82,-1.518,0.572146
83,-1.517,0.570407
84,-1.516,0.570407
85,-1.515,0.570407
86,-1.514,0.570407
87,-1.513,0.570407
88,-1.512,0.572146
89,-1.511,0.572146
90,-1.51,0.572146
91,-1.509,0.572146
92,-1.508,0.572146
93,-1.507,0.572146
94,-1.506,0.572146
95,-1.505,0.572146
96,-1.504,0.572146
97,-1.503,0.573885
98,-1.502,0.573885
99,-1.501,0.572146
100,-1.5,0.572146
101,-1.499,0.572146
102,-1.498,0.572146
103,-1.497,0.572146
104,-1.496,0.572146
105,-1.495,0.572146
106,-1.494,0.572146
107,-1.493,0.568669
108,-1.492,0.568669
109,-1.491,0.570407
110,-1.49,0.570407
111,-1.489,0.570407
112,-1.488,0.570407
113,-1.487,0.572146
114,-1.486,0.572146
115,-1.485,0.570407
116,-1.484,0.570407
117,-1.483,0.570407
118,-1.482,0.570407
119,-1.481,0.570407
120,-1.48,0.570407
121,-1.479,0.570407
122,-1.478,0.570407
123,-1.477,0.568669
124,-1.476,0.568669
125,-1.475,0.568669
126,-1.474,0.570407
127,-1.473,0.570407
128,-1.472,0.570407
129,-1.471,0.570407
130,-1.47,0.572146
131,-1.469,0.572146
132,-1.468,0.572146
133,-1.467,0.572146
134,-1.466,0.572146
135,-1.465,0.572146
136,-1.464,0.572146
137,-1.463,0.572146
138,-1.462,0.572146
139,-1.461,0.570407
140,-1.46,0.570407
141,-1.459,0.570407
142,-1.458,0.570407
143,-1.457,0.570407
144,-1.456,0.570407
145,-1.455,0.572146
146,-1.454,0.572146
147,-1.453,0.570407
148,-1.452,0.570407
149,-1.451,0.572146
150,-1.45,0.572146
151,-1.449,0.572146
152,-1.448,0.572146
153,-1.447,0.572146
154,-1.446,0.575624
155,-1.445,0.572146
156,-1.444,0.572146
157,-1.443,0.572146
158,-1.442,0.572146
159,-1.441,0.573885
160,-1.44,0.577363
161,-1.439,0.577363
162,-1.438,0.579102
163,-1.437,0.575624
164,-1.436,0.577363
165,-1.435,0.577363
166,-1.434,0.577363
167,-1.433,0.577363
168,-1.432,0.579102
169,-1.431,0.579102
170,-1.43,0.579102
171,-1.429,0.577363
172,-1.428,0.577363
173,-1.427,0.577363
174,-1.426,0.577363
175,-1.425,0.577363
176,-1.424,0.577363
177,-1.423,0.577363
178,-1.422,0.577363
179,-1.421,0.577363
180,-1.42,0.577363
181,-1.419,0.577363
182,-1.418,0.577363
183,-1.417,0.577363
184,-1.416,0.577363
185,-1.415,0.577363
186,-1.414,0.577363
187,-1.413,0.579102
188,-1.412,0.575624
189,-1.411,0.577363
190,-1.41,0.575624
191,-1.409,0.579102
192,-1.408,0.577363
193,-1.407,0.577363
194,-1.406,0.579102
195,-1.405,0.577363
196,-1.404,0.577363
197,-1.403,0.577363
198,-1.402,0.579102
199,-1.401,0.579102
200,-1.4,0.575624
201,-1.399,0.579102
202,-1.398,0.579102
203,-1.397,0.577363
204,-1.396,0.577363
205,-1.395,0.577363
206,-1.394,0.575624
207,-1.393,0.579102
208,-1.392,0.577363
209,-1.391,0.577363
210,-1.39,0.579102
211,-1.389,0.579102
212,-1.388,0.577363
213,-1.387,0.579102
214,-1.386,0.579102
215,-1.385,0.582579
216,-1.384,0.579102
217,-1.383,0.579102
218,-1.382,0.582579
219,-1.381,0.582579
220,-1.38,0.577363
221,-1.379,0.577363
222,-1.378,0.577363
223,-1.377,0.577363
224,-1.376,0.577363
225,-1.375,0.577363
226,-1.374,0.577363
227,-1.373,0.579102
228,-1.372,0.577363
229,-1.371,0.577363
230,-1.37,0.579102
231,-1.369,0.579102
232,-1.368,0.579102
233,-1.367,0.579102
234,-1.366,0.582579
235,-1.365,0.584318
236,-1.364,0.575624
237,-1.363,0.577363
238,-1.362,0.577363
239,-1.361,0.577363
240,-1.36,0.577363
241,-1.359,0.577363
242,-1.358,0.577363
243,-1.357,0.577363
244,-1.356,0.577363
245,-1.355,0.577363
246,-1.354,0.577363
247,-1.353,0.577363
248,-1.352,0.577363
249,-1.351,0.577363
250,-1.35,0.579102
251,-1.349,0.579102
252,-1.348,0.577363
253,-1.347,0.577363
254,-1.346,0.577363
255,-1.345,0.579102
256,-1.344,0.579102
257,-1.343,0.579102
258,-1.342,0.579102
259,-1.341,0.579102
260,-1.34,0.577363
261,-1.339,0.577363
262,-1.338,0.577363
263,-1.337,0.577363
264,-1.336,0.577363
265,-1.335,0.577363
266,-1.334,0.579102
267,-1.333,0.579102
268,-1.332,0.577363
269,-1.331,0.577363
270,-1.33,0.577363
271,-1.329,0.579102
272,-1.328,0.579102
273,-1.327,0.579102
274,-1.326,0.579102
275,-1.325,0.584318
276,-1.324,0.579102
277,-1.323,0.579102
278,-1.322,0.579102
279,-1.321,0.579102
280,-1.32,0.579102
281,-1.319,0.579102
282,-1.318,0.579102
283,-1.317,0.584318
284,-1.316,0.577363
285,-1.315,0.577363
286,-1.314,0.577363
287,-1.313,0.579102
288,-1.312,0.579102
289,-1.311,0.579102
290,-1.31,0.579102
291,-1.309,0.582579
292,-1.308,0.579102
293,-1.307,0.579102
294,-1.306,0.579102
295,-1.305,0.584318
296,-1.304,0.579102
297,-1.303,0.579102
298,-1.302,0.582579
299,-1.301,0.582579
300,-1.3,0.577363
301,-1.299,0.577363
302,-1.298,0.577363
303,-1.297,0.577363
304,-1.296,0.577363
305,-1.295,0.577363
306,-1.294,0.577363
307,-1.293,0.579102
308,-1.292,0.575624
309,-1.291,0.577363
310,-1.29,0.577363
311,-1.289,0.579102
312,-1.288,0.579102
313,-1.287,0.579102
314,-1.286,0.579102
315,-1.285,0.584318
316,-1.284,0.579102
317,-1.283,0.575624
318,-1.282,0.579102
319,-1.281,0.579102
320,-1.28,0.577363
321,-1.279,0.577363
322,-1.278,0.577363
323,-1.277,0.579102
324,-1.276,0.577363
325,-1.275,0.577363
326,-1.274,0.577363
327,-1.273,0.579102
328,-1.272,0.579102
329,-1.271,0.579102
330,-1.27,0.579102
331,-1.269,0.582579
332,-1.268,0.579102
333,-1.267,0.579102
334,-1.266,0.579102
335,-1.265,0.579102
336,-1.264,0.579102
337,-1.263,0.579102
338,-1.262,0.579102
339,-1.261,0.582579
340,-1.26,0.579102
341,-1.259,0.579102
342,-1.258,0.579102
343,-1.257,0.579102
344,-1.256,0.579102
345,-1.255,0.579102
346,-1.254,0.579102
347,-1.253,0.579102
348,-1.252,0.579102
349,-1.251,0.579102
350,-1.25,0.579102
351,-1.249,0.579102
352,-1.248,0.579102
353,-1.247,0.579102
354,-1.246,0.582579
355,-1.245,0.582579
356,-1.244,0.582579
357,-1.243,0.579102
358,-1.242,0.579102
359,-1.241,0.582579
360,-1.24,0.579102
361,-1.239,0.577363
362,-1.238,0.573885
363,-1.237,0.573885
364,-1.236,0.573885
365,-1.235,0.570407
366,-1.234,0.570407
367,-1.233,0.570407
368,-1.232,0.570407
369,-1.231,0.570407
370,-1.23,0.572146
371,-1.229,0.572146
372,-1.228,0.572146
373,-1.227,0.572146
374,-1.226,0.572146
375,-1.225,0.570407
376,-1.224,0.573885
377,-1.223,0.572146
378,-1.222,0.572146
379,-1.221,0.573885
380,-1.22,0.573885
381,-1.219,0.570407
382,-1.218,0.570407
383,-1.217,0.570407
384,-1.216,0.573885
385,-1.215,0.570407
386,-1.214,0.570407
387,-1.213,0.572146
388,-1.212,0.572146
389,-1.211,0.572146
390,-1.21,0.572146
391,-1.209,0.572146
392,-1.208,0.573885
393,-1.207,0.573885
394,-1.206,0.573885
395,-1.205,0.573885
396,-1.204,0.573885
397,-1.203,0.572146
398,-1.202,0.572146
399,-1.201,0.570407
400,-1.2,0.573885
401,-1.199,0.572146
402,-1.198,0.572146
403,-1.197,0.572146
404,-1.196,0.573885
405,-1.195,0.572146
406,-1.194,0.572146
407,-1.193,0.572146
408,-1.192,0.573885
409,-1.191,0.573885
410,-1.19,0.573885
411,-1.189,0.572146
412,-1.188,0.575624
413,-1.187,0.573885
414,-1.186,0.573885
415,-1.185,0.573885
416,-1.184,0.573885
417,-1.183,0.573885
418,-1.182,0.573885
419,-1.181,0.573885
420,-1.18,0.573885
421,-1.179,0.572146
422,-1.178,0.572146
423,-1.177,0.572146
424,-1.176,0.573885
425,-1.175,0.573885
426,-1.174,0.573885
427,-1.173,0.573885
428,-1.172,0.573885
429,-1.171,0.570407
430,-1.17,0.570407
431,-1.169,0.572146
432,-1.168,0.572146
433,-1.167,0.572146
434,-1.166,0.572146
435,-1.165,0.572146
436,-1.164,0.573885
437,-1.163,0.572146
438,-1.162,0.572146
439,-1.161,0.572146
440,-1.16,0.573885
441,-1.159,0.572146
442,-1.158,0.572146
443,-1.157,0.570407
444,-1.156,0.573885
445,-1.155,0.572146
446,-1.154,0.570407
447,-1.153,0.570407
448,-1.152,0.572146
449,-1.151,0.572146
450,-1.15,0.572146
451,-1.149,0.573885
452,-1.148,0.573885
453,-1.147,0.573885
454,-1.146,0.572146
455,-1.145,0.573885
456,-1.144,0.573885
457,-1.143,0.573885
458,-1.142,0.573885
459,-1.141,0.573885
460,-1.14,0.573885
461,-1.139,0.572146
462,-1.138,0.572146
463,-1.137,0.572146
464,-1.136,0.572146
465,-1.135,0.572146
466,-1.134,0.572146
467,-1.133,0.572146
468,-1.132,0.573885
469,-1.131,0.573885
470,-1.13,0.573885
471,-1.129,0.573885
472,-1.128,0.572146
473,-1.127,0.575624
474,-1.126,0.573885
475,-1.125,0.575624
476,-1.124,0.575624
477,-1.123,0.573885
478,-1.122,0.573885
479,-1.121,0.573885
480,-1.12,0.573885
481,-1.119,0.573885
482,-1.118,0.573885
483,-1.117,0.573885
484,-1.116,0.573885
485,-1.115,0.572146
486,-1.114,0.572146
487,-1.113,0.573885
488,-1.112,0.573885
489,-1.111,0.573885
490,-1.11,0.573885
491,-1.109,0.573885
492,-1.108,0.575624
493,-1.107,0.572146
494,-1.106,0.570407
495,-1.105,0.570407
496,-1.104,0.572146
497,-1.103,0.572146
498,-1.102,0.568669
499,-1.101,0.572146
500,-1.1,0.572146
501,-1.099,0.570407
502,-1.098,0.570407
503,-1.097,0.570407
504,-1.096,0.570407
505,-1.095,0.570407
506,-1.094,0.570407
507,-1.093,0.570407
508,-1.092,0.572146
509,-1.091,0.570407
510,-1.09,0.570407
511,-1.089,0.570407
512,-1.088,0.572146
513,-1.087,0.572146
514,-1.086,0.572146
515,-1.085,0.572146
516,-1.084,0.572146
517,-1.083,0.572146
518,-1.082,0.572146
519,-1.081,0.572146
520,-1.08,0.572146
521,-1.079,0.572146
522,-1.078,0.572146
523,-1.077,0.572146
524,-1.076,0.572146
525,-1.075,0.570407
526,-1.074,0.570407
527,-1.073,0.570407
528,-1.072,0.570407
529,-1.071,0.572146
530,-1.07,0.572146
531,-1.069,0.572146
532,-1.068,0.573885
533,-1.067,0.572146
534,-1.066,0.572146
535,-1.065,0.572146
536,-1.064,0.573885
537,-1.063,0.573885
538,-1.062,0.572146
539,-1.061,0.573885
540,-1.06,0.573885
541,-1.059,0.573885
542,-1.058,0.570407
543,-1.057,0.570407
544,-1.056,0.570407
545,-1.055,0.572146
546,-1.054,0.572146
547,-1.053,0.572146
548,-1.052,0.572146
549,-1.051,0.572146
550,-1.05,0.572146
551,-1.049,0.572146
552,-1.048,0.573885
553,-1.047,0.573885
554,-1.046,0.573885
555,-1.045,0.573885
556,-1.044,0.573885
557,-1.043,0.572146
558,-1.042,0.572146
559,-1.041,0.570407
560,-1.04,0.568669
561,-1.039,0.572146
562,-1.038,0.570407
563,-1.037,0.570407
564,-1.036,0.575624
565,-1.035,0.577363
566,-1.034,0.575624
567,-1.033,0.575624
568,-1.032,0.577363
569,-1.031,0.577363
570,-1.03,0.577363
571,-1.029,0.577363
572,-1.028,0.577363
573,-1.027,0.579102
574,-1.026,0.577363
575,-1.025,0.577363
576,-1.024,0.575624
577,-1.023,0.579102
578,-1.022,0.577363
579,-1.021,0.579102
580,-1.02,0.577363
581,-1.019,0.579102
582,-1.018,0.577363
583,-1.017,0.577363
584,-1.016,0.577363
585,-1.015,0.577363
586,-1.014,0.577363
587,-1.013,0.577363
588,-1.012,0.577363
589,-1.011,0.579102
590,-1.01,0.577363
591,-1.009,0.577363
592,-1.008,0.577363
593,-1.007,0.579102
594,-1.006,0.579102
595,-1.005,0.579102
596,-1.004,0.579102
597,-1.003,0.579102
598,-1.002,0.579102
599,-1.001,0.579102
600,-1,0.575624
601,-0.999,0.582579
602,-0.998,0.577363
603,-0.997,0.579102
604,-0.996,0.577363
605,-0.995,0.579102
606,-0.994,0.577363
607,-0.993,0.577363
608,-0.992,0.577363
609,-0.991,0.579102
610,-0.99,0.579102
611,-0.989,0.579102
612,-0.988,0.579102
613,-0.987,0.584318
614,-0.986,0.579102
615,-0.985,0.579102
616,-0.984,0.579102
617,-0.983,0.582579
618,-0.982,0.579102
619,-0.981,0.579102
620,-0.98,0.582579
621,-0.979,0.582579
622,-0.978,0.575624
623,-0.977,0.575624
624,-0.976,0.575624
625,-0.975,0.577363
626,-0.974,0.575624
627,-0.973,0.577363
628,-0.972,0.577363
629,-0.971,0.577363
630,-0.97,0.575624
631,-0.969,0.577363
632,-0.968,0.577363
633,-0.967,0.577363
634,-0.966,0.577363
635,-0.965,0.577363
636,-0.964,0.577363
637,-0.963,0.582579
638,-0.962,0.577363
639,-0.961,0.577363
640,-0.96,0.577363
641,-0.959,0.577363
642,-0.958,0.577363
643,-0.957,0.577363
644,-0.956,0.577363
645,-0.955,0.577363
646,-0.954,0.575624
647,-0.953,0.577363
648,-0.952,0.577363
649,-0.951,0.577363
650,-0.95,0.577363
651,-0.949,0.579102
652,-0.948,0.579102
653,-0.947,0.579102
654,-0.946,0.579102
655,-0.945,0.579102
656,-0.944,0.579102
657,-0.943,0.579102
658,-0.942,0.579102
659,-0.941,0.579102
660,-0.94,0.579102
661,-0.939,0.579102
662,-0.938,0.577363
663,-0.937,0.577363
664,-0.936,0.577363
665,-0.935,0.577363
666,-0.934,0.577363
667,-0.933,0.577363
668,-0.932,0.579102
669,-0.931,0.579102
670,-0.93,0.579102
671,-0.929,0.577363
672,-0.928,0.579102
673,-0.927,0.579102
674,-0.926,0.579102
675,-0.925,0.579102
676,-0.924,0.579102
677,-0.923,0.582579
678,-0.922,0.579102
679,-0.921,0.579102
680,-0.92,0.579102
681,-0.919,0.579102
682,-0.918,0.579102
683,-0.917,0.579102
684,-0.916,0.579102
685,-0.915,0.579102
686,-0.914,0.577363
687,-0.913,0.577363
688,-0.912,0.577363
689,-0.911,0.577363
690,-0.91,0.577363
691,-0.909,0.575624
692,-0.908,0.579102
693,-0.907,0.577363
694,-0.906,0.577363
695,-0.905,0.577363
696,-0.904,0.577363
697,-0.903,0.577363
698,-0.902,0.577363
699,-0.901,0.577363
700,-0.9,0.577363
701,-0.899,0.579102
702,-0.898,0.577363
703,-0.897,0.573885
704,-0.896,0.577363
705,-0.895,0.577363
706,-0.894,0.577363
707,-0.893,0.577363
708,-0.892,0.577363
709,-0.891,0.577363
710,-0.89,0.577363
711,-0.889,0.577363
712,-0.888,0.577363
713,-0.887,0.579102
714,-0.886,0.579102
715,-0.885,0.579102
716,-0.884,0.579102
717,-0.883,0.579102
718,-0.882,0.579102
719,-0.881,0.577363
720,-0.88,0.577363
721,-0.879,0.577363
722,-0.878,0.579102
723,-0.877,0.575624
724,-0.876,0.579102
725,-0.875,0.577363
726,-0.874,0.577363
727,-0.873,0.577363
728,-0.872,0.577363
729,-0.871,0.577363
730,-0.87,0.579102
731,-0.869,0.579102
732,-0.868,0.579102
733,-0.867,0.579102
734,-0.866,0.579102
735,-0.865,0.579102
736,-0.864,0.579102
737,-0.863,0.579102
738,-0.862,0.582579
739,-0.861,0.579102
740,-0.86,0.579102
741,-0.859,0.579102
742,-0.858,0.579102
743,-0.857,0.577363
744,-0.856,0.579102
745,-0.855,0.579102
746,-0.854,0.579102
747,-0.853,0.579102
748,-0.852,0.579102
749,-0.851,0.582579
750,-0.85,0.582579
751,-0.849,0.577363
752,-0.848,0.577363
753,-0.847,0.577363
754,-0.846,0.579102
755,-0.845,0.579102
756,-0.844,0.579102
757,-0.843,0.579102
758,-0.842,0.579102
759,-0.841,0.577363
760,-0.84,0.577363
761,-0.839,0.577363
762,-0.838,0.577363
763,-0.837,0.577363
764,-0.836,0.577363
765,-0.835,0.577363
766,-0.834,0.573885
767,-0.833,0.570407
768,-0.832,0.570407
769,-0.831,0.570407
770,-0.83,0.572146
771,-0.829,0.572146
772,-0.828,0.572146
773,-0.827,0.572146
774,-0.826,0.573885
775,-0.825,0.572146
776,-0.824,0.572146
777,-0.823,0.572146
778,-0.822,0.572146
779,-0.821,0.572146
780,-0.82,0.572146
781,-0.819,0.572146
782,-0.818,0.572146
783,-0.817,0.570407
784,-0.816,0.570407
785,-0.815,0.570407
786,-0.814,0.572146
787,-0.813,0.572146
788,-0.812,0.572146
789,-0.811,0.572146
790,-0.81,0.575624
791,-0.809,0.572146
792,-0.808,0.572146
793,-0.807,0.572146
794,-0.806,0.573885
795,-0.805,0.573885
796,-0.804,0.573885
797,-0.803,0.573885
798,-0.802,0.573885
799,-0.801,0.572146
800,-0.8,0.572146
801,-0.799,0.572146
802,-0.798,0.572146
803,-0.797,0.572146
804,-0.796,0.572146
805,-0.795,0.572146
806,-0.794,0.575624
807,-0.793,0.572146
808,-0.792,0.572146
809,-0.791,0.572146
810,-0.79,0.573885
811,-0.789,0.573885
812,-0.788,0.573885
813,-0.787,0.573885
814,-0.786,0.575624
815,-0.785,0.572146
816,-0.784,0.572146
817,-0.783,0.572146
818,-0.782,0.572146
819,-0.781,0.572146
820,-0.78,0.572146
821,-0.779,0.572146
822,-0.778,0.572146
823,-0.777,0.570407
824,-0.776,0.570407
825,-0.775,0.570407
826,-0.774,0.572146
827,-0.773,0.572146
828,-0.772,0.572146
829,-0.771,0.572146
830,-0.77,0.575624
831,-0.769,0.572146
832,-0.768,0.572146
833,-0.767,0.572146
834,-0.766,0.572146
835,-0.765,0.572146
836,-0.764,0.572146
837,-0.763,0.573885
838,-0.762,0.573885
839,-0.761,0.572146
840,-0.76,0.572146
841,-0.759,0.572146
842,-0.758,0.572146
843,-0.757,0.572146
844,-0.756,0.572146
845,-0.755,0.572146
846,-0.754,0.575624
847,-0.753,0.572146
848,-0.752,0.572146
849,-0.751,0.572146
850,-0.75,0.572146
851,-0.749,0.573885
852,-0.748,0.573885
853,-0.747,0.573885
854,-0.746,0.575624
855,-0.745,0.572146
856,-0.744,0.573885
857,-0.743,0.573885
858,-0.742,0.573885
859,-0.741,0.573885
860,-0.74,0.573885
861,-0.739,0.573885
862,-0.738,0.573885
863,-0.737,0.572146
864,-0.736,0.572146
865,-0.735,0.572146
866,-0.734,0.572146
867,-0.733,0.572146
868,-0.732,0.573885
869,-0.731,0.573885
870,-0.73,0.575624
871,-0.729,0.572146
872,-0.728,0.573885
873,-0.727,0.573885
874,-0.726,0.573885
875,-0.725,0.575624
876,-0.724,0.575624
877,-0.723,0.575624
878,-0.722,0.575624
879,-0.721,0.575624
880,-0.72,0.570407
881,-0.719,0.570407
882,-0.718,0.570407
883,-0.717,0.570407
884,-0.716,0.570407
885,-0.715,0.572146
886,-0.714,0.572146
887,-0.713,0.572146
888,-0.712,0.568669
889,-0.711,0.572146
890,-0.71,0.572146
891,-0.709,0.572146
892,-0.708,0.572146
893,-0.707,0.573885
894,-0.706,0.573885
895,-0.705,0.572146
896,-0.704,0.572146
897,-0.703,0.572146
898,-0.702,0.572146
899,-0.701,0.572146
900,-0.7,0.572146
901,-0.699,0.572146
902,-0.698,0.572146
903,-0.697,0.572146
904,-0.696,0.568669
905,-0.695,0.572146
906,-0.694,0.572146
907,-0.693,0.572146
908,-0.692,0.572146
909,-0.691,0.572146
910,-0.69,0.573885
911,-0.689,0.573885
912,-0.688,0.572146
913,-0.687,0.572146
914,-0.686,0.572146
915,-0.685,0.573885
916,-0.684,0.573885
917,-0.683,0.573885
918,-0.682,0.573885
919,-0.681,0.573885
920,-0.68,0.572146
921,-0.679,0.572146
922,-0.678,0.572146
923,-0.677,0.572146
924,-0.676,0.572146
925,-0.675,0.572146
926,-0.674,0.573885
927,-0.673,0.572146
928,-0.672,0.572146
929,-0.671,0.572146
930,-0.67,0.572146
931,-0.669,0.573885
932,-0.668,0.573885
933,-0.667,0.573885
934,-0.666,0.573885
935,-0.665,0.573885
936,-0.664,0.573885
937,-0.663,0.573885
938,-0.662,0.573885
939,-0.661,0.573885
940,-0.66,0.573885
941,-0.659,0.573885
942,-0.658,0.573885
943,-0.657,0.573885
944,-0.656,0.570407
945,-0.655,0.570407
946,-0.654,0.570407
947,-0.653,0.572146
948,-0.652,0.572146
949,-0.651,0.572146
950,-0.65,0.572146
951,-0.649,0.573885
952,-0.648,0.572146
953,-0.647,0.572146
954,-0.646,0.573885
955,-0.645,0.573885
956,-0.644,0.573885
957,-0.643,0.573885
958,-0.642,0.573885
959,-0.641,0.573885
960,-0.64,0.572146
961,-0.639,0.572146
962,-0.638,0.572146
963,-0.637,0.572146
964,-0.636,0.572146
965,-0.635,0.572146
966,-0.634,0.572146
967,-0.633,0.573885
968,-0.632,0.575624
969,-0.631,0.575624
970,-0.63,0.575624
971,-0.629,0.579102
972,-0.628,0.577363
973,-0.627,0.579102
974,-0.626,0.579102
975,-0.625,0.584318
976,-0.624,0.577363
977,-0.623,0.577363
978,-0.622,0.577363
979,-0.621,0.579102
980,-0.62,0.579102
981,-0.619,0.579102
982,-0.618,0.579102
983,-0.617,0.579102
984,-0.616,0.577363
985,-0.615,0.577363
986,-0.614,0.577363
987,-0.613,0.577363
988,-0.612,0.577363
989,-0.611,0.579102
990,-0.61,0.579102
991,-0.609,0.584318
992,-0.608,0.577363
993,-0.607,0.579102
994,-0.606,0.579102
995,-0.605,0.579102
996,-0.604,0.579102
997,-0.603,0.579102
998,-0.602,0.579102
999,-0.601,0.584318
1000,-0.6,0.577363
1001,-0.599,0.577363
