mcu/report/power_measurement/mcu/mcu_1/mcu_1.csv

;Scopy version,438f138
;Exported on,samedi décembre 14/12/2024
;Device,M2K
;Nr of samples,3200
;Sample rate,1000
;Tool,Oscilloscope
;Additional Information,
Sample,Time(S),CH1(V)
0,-1.575,0.565191
1,-1.574,0.561713
2,-1.573,0.561713
3,-1.572,0.561713
4,-1.571,0.561713
5,-1.57,0.561713
6,-1.569,0.561713
7,-1.568,0.559974
8,-1.567,0.563452
9,-1.566,0.561713
10,-1.565,0.561713
11,-1.564,0.559974
12,-1.563,0.563452
13,-1.562,0.561713
14,-1.561,0.563452
15,-1.56,0.563452
16,-1.559,0.563452
17,-1.558,0.561713
18,-1.557,0.561713
19,-1.556,0.561713
20,-1.555,0.563452
21,-1.554,0.563452
22,-1.553,0.563452
23,-1.552,0.563452
24,-1.551,0.563452
25,-1.55,0.563452
26,-1.549,0.563452
27,-1.548,0.563452
28,-1.547,0.563452
29,-1.546,0.563452
30,-1.545,0.56693
31,-1.544,0.563452
32,-1.543,0.563452
33,-1.542,0.563452
34,-1.541,0.561713
35,-1.54,0.561713
36,-1.539,0.563452
37,-1.538,0.563452
38,-1.537,0.563452
39,-1.536,0.563452
40,-1.535,0.563452
41,-1.534,0.563452
42,-1.533,0.563452
43,-1.532,0.563452
44,-1.531,0.56693
45,-1.53,0.561713
46,-1.529,0.565191
47,-1.528,0.565191
48,-1.527,0.565191
49,-1.526,0.563452
50,-1.525,0.563452
51,-1.524,0.563452
52,-1.523,0.565191
53,-1.522,0.565191
54,-1.521,0.565191
55,-1.52,0.565191
56,-1.519,0.565191
57,-1.518,0.565191
58,-1.517,0.565191
59,-1.516,0.565191
60,-1.515,0.565191
61,-1.514,0.565191
62,-1.513,0.565191
63,-1.512,0.56693
64,-1.511,0.568669
65,-1.51,0.561713
66,-1.509,0.561713
67,-1.508,0.561713
68,-1.507,0.565191
69,-1.506,0.561713
70,-1.505,0.563452
71,-1.504,0.559974
72,-1.503,0.565191
73,-1.502,0.561713
74,-1.501,0.561713
75,-1.5,0.561713
76,-1.499,0.563452
77,-1.498,0.563452
78,-1.497,0.563452
79,-1.496,0.563452
80,-1.495,0.563452
81,-1.494,0.563452
82,-1.493,0.563452
83,-1.492,0.563452
84,-1.491,0.563452
85,-1.49,0.563452
86,-1.489,0.563452
87,-1.488,0.563452
88,-1.487,0.565191
89,-1.486,0.561713
90,-1.485,0.563452
91,-1.484,0.563452
92,-1.483,0.565191
93,-1.482,0.563452
94,-1.481,0.563452
95,-1.48,0.565191
96,-1.479,0.565191
97,-1.478,0.563452
98,-1.477,0.563452
99,-1.476,0.563452
100,-1.475,0.563452
101,-1.474,0.563452
102,-1.473,0.563452
103,-1.472,0.563452
104,-1.471,0.563452
105,-1.47,0.563452
106,-1.469,0.563452
107,-1.468,0.563452
108,-1.467,0.565191
109,-1.466,0.563452
110,-1.465,0.563452
111,-1.464,0.565191
112,-1.463,0.56693
113,-1.462,0.570407
114,-1.461,0.570407
115,-1.46,0.570407
116,-1.459,0.570407
117,-1.458,0.570407
118,-1.457,0.570407
119,-1.456,0.572146
120,-1.455,0.572146
121,-1.454,0.570407
122,-1.453,0.570407
123,-1.452,0.572146
124,-1.451,0.572146
125,-1.45,0.572146
126,-1.449,0.572146
127,-1.448,0.572146
128,-1.447,0.572146
129,-1.446,0.572146
130,-1.445,0.568669
131,-1.444,0.568669
132,-1.443,0.570407
133,-1.442,0.570407
134,-1.441,0.570407
135,-1.44,0.570407
136,-1.439,0.570407
137,-1.438,0.570407
138,-1.437,0.570407
139,-1.436,0.570407
140,-1.435,0.570407
141,-1.434,0.570407
142,-1.433,0.570407
143,-1.432,0.572146
144,-1.431,0.572146
145,-1.43,0.570407
146,-1.429,0.570407
147,-1.428,0.570407
148,-1.427,0.570407
149,-1.426,0.570407
150,-1.425,0.570407
151,-1.424,0.572146
152,-1.423,0.572146
153,-1.422,0.570407
154,-1.421,0.570407
155,-1.42,0.570407
156,-1.419,0.572146
157,-1.418,0.572146
158,-1.417,0.572146
159,-1.416,0.572146
160,-1.415,0.572146
161,-1.414,0.570407
162,-1.413,0.570407
163,-1.412,0.570407
164,-1.411,0.570407
165,-1.41,0.570407
166,-1.409,0.570407
167,-1.408,0.572146
168,-1.407,0.572146
169,-1.406,0.570407
170,-1.405,0.570407
171,-1.404,0.570407
172,-1.403,0.572146
173,-1.402,0.572146
174,-1.401,0.572146
175,-1.4,0.572146
176,-1.399,0.572146
177,-1.398,0.572146
178,-1.397,0.570407
179,-1.396,0.570407
180,-1.395,0.572146
181,-1.394,0.572146
182,-1.393,0.572146
183,-1.392,0.572146
184,-1.391,0.573885
185,-1.39,0.570407
186,-1.389,0.572146
187,-1.388,0.572146
188,-1.387,0.572146
189,-1.386,0.572146
190,-1.385,0.572146
191,-1.384,0.573885
192,-1.383,0.573885
193,-1.382,0.572146
194,-1.381,0.568669
195,-1.38,0.565191
196,-1.379,0.568669
197,-1.378,0.568669
198,-1.377,0.568669
199,-1.376,0.568669
200,-1.375,0.568669
201,-1.374,0.568669
202,-1.373,0.568669
203,-1.372,0.568669
204,-1.371,0.568669
205,-1.37,0.568669
206,-1.369,0.568669
207,-1.368,0.568669
208,-1.367,0.570407
209,-1.366,0.568669
210,-1.365,0.568669
211,-1.364,0.568669
212,-1.363,0.568669
213,-1.362,0.568669
214,-1.361,0.568669
215,-1.36,0.568669
216,-1.359,0.570407
217,-1.358,0.570407
218,-1.357,0.568669
219,-1.356,0.568669
220,-1.355,0.570407
221,-1.354,0.570407
222,-1.353,0.570407
223,-1.352,0.570407
224,-1.351,0.570407
225,-1.35,0.570407
226,-1.349,0.568669
227,-1.348,0.568669
228,-1.347,0.568669
229,-1.346,0.568669
230,-1.345,0.568669
231,-1.344,0.568669
232,-1.343,0.570407
233,-1.342,0.570407
234,-1.341,0.568669
235,-1.34,0.568669
236,-1.339,0.570407
237,-1.338,0.570407
238,-1.337,0.570407
239,-1.336,0.570407
240,-1.335,0.570407
241,-1.334,0.570407
242,-1.333,0.570407
243,-1.332,0.570407
244,-1.331,0.570407
245,-1.33,0.570407
246,-1.329,0.570407
247,-1.328,0.570407
248,-1.327,0.568669
249,-1.326,0.572146
250,-1.325,0.570407
251,-1.324,0.570407
252,-1.323,0.570407
253,-1.322,0.570407
254,-1.321,0.570407
255,-1.32,0.570407
256,-1.319,0.572146
257,-1.318,0.572146
258,-1.317,0.568669
259,-1.316,0.568669
260,-1.315,0.568669
261,-1.314,0.568669
262,-1.313,0.568669
263,-1.312,0.568669
264,-1.311,0.570407
265,-1.31,0.570407
266,-1.309,0.570407
267,-1.308,0.570407
268,-1.307,0.570407
269,-1.306,0.570407
270,-1.305,0.570407
271,-1.304,0.570407
272,-1.303,0.570407
273,-1.302,0.570407
274,-1.301,0.568669
275,-1.3,0.568669
276,-1.299,0.570407
277,-1.298,0.570407
278,-1.297,0.570407
279,-1.296,0.570407
280,-1.295,0.570407
281,-1.294,0.573885
282,-1.293,0.570407
283,-1.292,0.570407
284,-1.291,0.570407
285,-1.29,0.572146
286,-1.289,0.572146
287,-1.288,0.572146
288,-1.287,0.572146
289,-1.286,0.572146
290,-1.285,0.570407
291,-1.284,0.570407
292,-1.283,0.570407
293,-1.282,0.570407
294,-1.281,0.570407
295,-1.28,0.570407
296,-1.279,0.570407
297,-1.278,0.572146
298,-1.277,0.570407
299,-1.276,0.570407
300,-1.275,0.570407
301,-1.274,0.572146
302,-1.273,0.572146
303,-1.272,0.572146
304,-1.271,0.572146
305,-1.27,0.572146
306,-1.269,0.570407
307,-1.268,0.570407
308,-1.267,0.570407
309,-1.266,0.572146
310,-1.265,0.572146
311,-1.264,0.572146
312,-1.263,0.572146
313,-1.262,0.572146
314,-1.261,0.56693
315,-1.26,0.559974
316,-1.259,0.561713
317,-1.258,0.561713
318,-1.257,0.561713
319,-1.256,0.561713
320,-1.255,0.561713
321,-1.254,0.565191
322,-1.253,0.559974
323,-1.252,0.558235
324,-1.251,0.558235
325,-1.25,0.559974
326,-1.249,0.559974
327,-1.248,0.559974
328,-1.247,0.559974
329,-1.246,0.561713
330,-1.245,0.559974
331,-1.244,0.558235
332,-1.243,0.558235
333,-1.242,0.559974
334,-1.241,0.559974
335,-1.24,0.559974
336,-1.239,0.559974
337,-1.238,0.561713
338,-1.237,0.561713
339,-1.236,0.558235
340,-1.235,0.559974
341,-1.234,0.559974
342,-1.233,0.559974
343,-1.232,0.559974
344,-1.231,0.561713
345,-1.23,0.561713
346,-1.229,0.559974
347,-1.228,0.559974
348,-1.227,0.559974
349,-1.226,0.559974
350,-1.225,0.559974
351,-1.224,0.561713
352,-1.223,0.561713
353,-1.222,0.561713
354,-1.221,0.559974
355,-1.22,0.558235
356,-1.219,0.559974
357,-1.218,0.558235
358,-1.217,0.561713
359,-1.216,0.559974
360,-1.215,0.561713
361,-1.214,0.561713
362,-1.213,0.561713
363,-1.212,0.559974
364,-1.211,0.559974
365,-1.21,0.559974
366,-1.209,0.561713
367,-1.208,0.561713
368,-1.207,0.561713
369,-1.206,0.561713
370,-1.205,0.563452
371,-1.204,0.559974
372,-1.203,0.559974
373,-1.202,0.559974
374,-1.201,0.561713
375,-1.2,0.561713
376,-1.199,0.561713
377,-1.198,0.561713
378,-1.197,0.563452
379,-1.196,0.558235
380,-1.195,0.561713
381,-1.194,0.561713
382,-1.193,0.561713
383,-1.192,0.561713
384,-1.191,0.561713
385,-1.19,0.563452
386,-1.189,0.563452
387,-1.188,0.558235
388,-1.187,0.558235
389,-1.186,0.559974
390,-1.185,0.559974
391,-1.184,0.559974
392,-1.183,0.559974
393,-1.182,0.559974
394,-1.181,0.559974
395,-1.18,0.558235
396,-1.179,0.559974
397,-1.178,0.558235
398,-1.177,0.561713
399,-1.176,0.559974
400,-1.175,0.561713
401,-1.174,0.561713
402,-1.173,0.561713
403,-1.172,0.559974
404,-1.171,0.559974
405,-1.17,0.559974
406,-1.169,0.563452
407,-1.168,0.558235
408,-1.167,0.561713
409,-1.166,0.561713
410,-1.165,0.561713
411,-1.164,0.559974
412,-1.163,0.559974
413,-1.162,0.559974
414,-1.161,0.561713
415,-1.16,0.561713
416,-1.159,0.561713
417,-1.158,0.559974
418,-1.157,0.563452
419,-1.156,0.559974
420,-1.155,0.559974
421,-1.154,0.559974
422,-1.153,0.561713
423,-1.152,0.561713
424,-1.151,0.561713
425,-1.15,0.559974
426,-1.149,0.563452
427,-1.148,0.561713
428,-1.147,0.561713
429,-1.146,0.561713
430,-1.145,0.561713
431,-1.144,0.561713
432,-1.143,0.561713
433,-1.142,0.561713
434,-1.141,0.563452
435,-1.14,0.559974
436,-1.139,0.561713
437,-1.138,0.561713
438,-1.137,0.561713
439,-1.136,0.561713
440,-1.135,0.561713
441,-1.134,0.563452
442,-1.133,0.563452
443,-1.132,0.561713
444,-1.131,0.561713
445,-1.13,0.561713
446,-1.129,0.563452
447,-1.128,0.561713
448,-1.127,0.563452
449,-1.126,0.563452
450,-1.125,0.563452
451,-1.124,0.559974
452,-1.123,0.559974
453,-1.122,0.559974
454,-1.121,0.561713
455,-1.12,0.559974
456,-1.119,0.559974
457,-1.118,0.561713
458,-1.117,0.561713
459,-1.116,0.559974
460,-1.115,0.559974
461,-1.114,0.559974
462,-1.113,0.561713
463,-1.112,0.561713
464,-1.111,0.561713
465,-1.11,0.561713
466,-1.109,0.565191
467,-1.108,0.559974
468,-1.107,0.559974
469,-1.106,0.561713
470,-1.105,0.561713
471,-1.104,0.561713
472,-1.103,0.561713
473,-1.102,0.561713
474,-1.101,0.565191
475,-1.1,0.561713
476,-1.099,0.559974
477,-1.098,0.561713
478,-1.097,0.561713
479,-1.096,0.561713
480,-1.095,0.561713
481,-1.094,0.563452
482,-1.093,0.563452
483,-1.092,0.563452
484,-1.091,0.559974
485,-1.09,0.561713
486,-1.089,0.561713
487,-1.088,0.561713
488,-1.087,0.561713
489,-1.086,0.563452
490,-1.085,0.563452
491,-1.084,0.561713
492,-1.083,0.561713
493,-1.082,0.561713
494,-1.081,0.561713
495,-1.08,0.561713
496,-1.079,0.563452
497,-1.078,0.563452
498,-1.077,0.565191
499,-1.076,0.561713
500,-1.075,0.561713
501,-1.074,0.561713
502,-1.073,0.561713
503,-1.072,0.563452
504,-1.071,0.563452
505,-1.07,0.563452
506,-1.069,0.565191
507,-1.068,0.563452
508,-1.067,0.561713
509,-1.066,0.561713
510,-1.065,0.563452
511,-1.064,0.563452
512,-1.063,0.563452
513,-1.062,0.563452
514,-1.061,0.56693
515,-1.06,0.561713
516,-1.059,0.561713
517,-1.058,0.565191
518,-1.057,0.565191
519,-1.056,0.56693
520,-1.055,0.56693
521,-1.054,0.56693
522,-1.053,0.56693
523,-1.052,0.56693
524,-1.051,0.56693
525,-1.05,0.56693
526,-1.049,0.56693
527,-1.048,0.56693
528,-1.047,0.56693
529,-1.046,0.568669
530,-1.045,0.568669
531,-1.044,0.56693
532,-1.043,0.56693
533,-1.042,0.56693
534,-1.041,0.565191
535,-1.04,0.568669
536,-1.039,0.56693
537,-1.038,0.568669
538,-1.037,0.568669
539,-1.036,0.568669
540,-1.035,0.568669
541,-1.034,0.568669
542,-1.033,0.568669
543,-1.032,0.568669
544,-1.031,0.568669
545,-1.03,0.568669
546,-1.029,0.570407
547,-1.028,0.570407
548,-1.027,0.56693
549,-1.026,0.56693
550,-1.025,0.56693
551,-1.024,0.570407
552,-1.023,0.56693
553,-1.022,0.568669
554,-1.021,0.568669
555,-1.02,0.568669
556,-1.019,0.568669
557,-1.018,0.568669
558,-1.017,0.568669
559,-1.016,0.568669
560,-1.015,0.568669
561,-1.014,0.568669
562,-1.013,0.570407
563,-1.012,0.570407
564,-1.011,0.568669
565,-1.01,0.568669
566,-1.009,0.568669
567,-1.008,0.568669
568,-1.007,0.568669
569,-1.006,0.568669
570,-1.005,0.570407
571,-1.004,0.570407
572,-1.003,0.568669
573,-1.002,0.568669
574,-1.001,0.568669
575,-1,0.570407
576,-0.999,0.570407
577,-0.998,0.570407
578,-0.997,0.570407
579,-0.996,0.572146
580,-0.995,0.56693
581,-0.994,0.565191
582,-0.993,0.565191
583,-0.992,0.56693
584,-0.991,0.56693
585,-0.99,0.56693
586,-0.989,0.56693
587,-0.988,0.568669
588,-0.987,0.56693
589,-0.986,0.56693
590,-0.985,0.56693
591,-0.984,0.56693
592,-0.983,0.56693
593,-0.982,0.56693
594,-0.981,0.568669
595,-0.98,0.568669
596,-0.979,0.56693
597,-0.978,0.56693
598,-0.977,0.56693
599,-0.976,0.568669
600,-0.975,0.565191
601,-0.974,0.568669
602,-0.973,0.568669
603,-0.972,0.568669
604,-0.971,0.568669
605,-0.97,0.56693
606,-0.969,0.568669
607,-0.968,0.568669
608,-0.967,0.568669
609,-0.966,0.568669
610,-0.965,0.570407
611,-0.964,0.570407
612,-0.963,0.568669
613,-0.962,0.56693
614,-0.961,0.56693
615,-0.96,0.568669
616,-0.959,0.568669
617,-0.958,0.568669
618,-0.957,0.568669
619,-0.956,0.568669
620,-0.955,0.568669
621,-0.954,0.568669
622,-0.953,0.568669
623,-0.952,0.568669
624,-0.951,0.568669
625,-0.95,0.568669
626,-0.949,0.570407
627,-0.948,0.570407
628,-0.947,0.568669
629,-0.946,0.568669
630,-0.945,0.568669
631,-0.944,0.568669
632,-0.943,0.568669
633,-0.942,0.568669
634,-0.941,0.570407
635,-0.94,0.570407
636,-0.939,0.568669
637,-0.938,0.568669
638,-0.937,0.568669
639,-0.936,0.570407
640,-0.935,0.570407
641,-0.934,0.570407
642,-0.933,0.570407
643,-0.932,0.573885
644,-0.931,0.568669
645,-0.93,0.56693
646,-0.929,0.56693
647,-0.928,0.568669
648,-0.927,0.565191
649,-0.926,0.56693
650,-0.925,0.56693
651,-0.924,0.568669
652,-0.923,0.56693
653,-0.922,0.56693
654,-0.921,0.56693
655,-0.92,0.568669
656,-0.919,0.568669
657,-0.918,0.568669
658,-0.917,0.568669
659,-0.916,0.572146
660,-0.915,0.568669
661,-0.914,0.568669
662,-0.913,0.568669
663,-0.912,0.568669
664,-0.911,0.568669
665,-0.91,0.568669
666,-0.909,0.568669
667,-0.908,0.570407
668,-0.907,0.568669
669,-0.906,0.568669
670,-0.905,0.568669
671,-0.904,0.568669
672,-0.903,0.570407
673,-0.902,0.570407
674,-0.901,0.570407
675,-0.9,0.570407
676,-0.899,0.568669
677,-0.898,0.568669
678,-0.897,0.568669
679,-0.896,0.568669
680,-0.895,0.568669
681,-0.894,0.570407
682,-0.893,0.570407
683,-0.892,0.572146
684,-0.891,0.568669
685,-0.89,0.570407
686,-0.889,0.570407
687,-0.888,0.570407
688,-0.887,0.570407
689,-0.886,0.570407
690,-0.885,0.570407
691,-0.884,0.572146
692,-0.883,0.570407
693,-0.882,0.570407
694,-0.881,0.570407
695,-0.88,0.570407
696,-0.879,0.570407
697,-0.878,0.570407
698,-0.877,0.572146
699,-0.876,0.572146
700,-0.875,0.572146
701,-0.874,0.570407
702,-0.873,0.570407
703,-0.872,0.572146
704,-0.871,0.572146
705,-0.87,0.572146
706,-0.869,0.572146
707,-0.868,0.575624
708,-0.867,0.570407
709,-0.866,0.56693
710,-0.865,0.56693
711,-0.864,0.565191
712,-0.863,0.568669
713,-0.862,0.56693
714,-0.861,0.568669
715,-0.86,0.568669
716,-0.859,0.568669
717,-0.858,0.56693
718,-0.857,0.565191
719,-0.856,0.561713
720,-0.855,0.561713
721,-0.854,0.559974
722,-0.853,0.561713
723,-0.852,0.561713
724,-0.851,0.561713
725,-0.85,0.558235
726,-0.849,0.561713
727,-0.848,0.561713
728,-0.847,0.561713
729,-0.846,0.561713
730,-0.845,0.561713
731,-0.844,0.561713
732,-0.843,0.561713
733,-0.842,0.561713
734,-0.841,0.561713
735,-0.84,0.561713
736,-0.839,0.561713
737,-0.838,0.561713
738,-0.837,0.563452
739,-0.836,0.563452
740,-0.835,0.561713
741,-0.834,0.561713
742,-0.833,0.561713
743,-0.832,0.561713
744,-0.831,0.561713
745,-0.83,0.561713
746,-0.829,0.561713
747,-0.828,0.561713
748,-0.827,0.561713
749,-0.826,0.561713
750,-0.825,0.561713
751,-0.824,0.561713
752,-0.823,0.561713
753,-0.822,0.561713
754,-0.821,0.561713
755,-0.82,0.561713
756,-0.819,0.563452
757,-0.818,0.561713
758,-0.817,0.561713
759,-0.816,0.561713
760,-0.815,0.561713
761,-0.814,0.561713
762,-0.813,0.563452
763,-0.812,0.563452
764,-0.811,0.563452
765,-0.81,0.563452
766,-0.809,0.563452
767,-0.808,0.563452
768,-0.807,0.563452
769,-0.806,0.563452
770,-0.805,0.563452
771,-0.804,0.561713
772,-0.803,0.565191
773,-0.802,0.559974
774,-0.801,0.559974
775,-0.8,0.559974
776,-0.799,0.561713
777,-0.798,0.561713
778,-0.797,0.561713
779,-0.796,0.561713
780,-0.795,0.561713
781,-0.794,0.561713
782,-0.793,0.561713
783,-0.792,0.559974
784,-0.791,0.561713
785,-0.79,0.561713
786,-0.789,0.561713
787,-0.788,0.559974
788,-0.787,0.563452
789,-0.786,0.561713
790,-0.785,0.561713
791,-0.784,0.561713
792,-0.783,0.561713
793,-0.782,0.561713
794,-0.781,0.561713
795,-0.78,0.561713
796,-0.779,0.565191
797,-0.778,0.561713
798,-0.777,0.561713
799,-0.776,0.561713
800,-0.775,0.561713
801,-0.774,0.561713
802,-0.773,0.563452
803,-0.772,0.563452
804,-0.771,0.563452
805,-0.77,0.561713
806,-0.769,0.561713
807,-0.768,0.561713
808,-0.767,0.561713
809,-0.766,0.561713
810,-0.765,0.563452
811,-0.764,0.563452
812,-0.763,0.563452
813,-0.762,0.563452
814,-0.761,0.563452
815,-0.76,0.561713
816,-0.759,0.561713
817,-0.758,0.561713
818,-0.757,0.563452
819,-0.756,0.563452
820,-0.755,0.563452
821,-0.754,0.563452
822,-0.753,0.563452
823,-0.752,0.563452
824,-0.751,0.561713
825,-0.75,0.561713
826,-0.749,0.563452
827,-0.748,0.563452
828,-0.747,0.563452
829,-0.746,0.563452
830,-0.745,0.563452
831,-0.744,0.563452
832,-0.743,0.563452
833,-0.742,0.563452
834,-0.741,0.563452
835,-0.74,0.563452
836,-0.739,0.565191
837,-0.738,0.561713
838,-0.737,0.559974
839,-0.736,0.559974
840,-0.735,0.559974
841,-0.734,0.559974
842,-0.733,0.559974
843,-0.732,0.561713
844,-0.731,0.561713
845,-0.73,0.561713
846,-0.729,0.561713
847,-0.728,0.559974
848,-0.727,0.559974
849,-0.726,0.559974
850,-0.725,0.561713
851,-0.724,0.561713
852,-0.723,0.561713
853,-0.722,0.561713
854,-0.721,0.559974
855,-0.72,0.559974
856,-0.719,0.561713
857,-0.718,0.561713
858,-0.717,0.561713
859,-0.716,0.561713
860,-0.715,0.561713
861,-0.714,0.561713
862,-0.713,0.561713
863,-0.712,0.561713
864,-0.711,0.561713
865,-0.71,0.561713
866,-0.709,0.561713
867,-0.708,0.563452
868,-0.707,0.563452
869,-0.706,0.561713
870,-0.705,0.561713
871,-0.704,0.561713
872,-0.703,0.561713
873,-0.702,0.561713
874,-0.701,0.561713
875,-0.7,0.563452
876,-0.699,0.563452
877,-0.698,0.561713
878,-0.697,0.561713
879,-0.696,0.561713
880,-0.695,0.561713
881,-0.694,0.561713
882,-0.693,0.561713
883,-0.692,0.563452
884,-0.691,0.563452
885,-0.69,0.563452
886,-0.689,0.561713
887,-0.688,0.563452
888,-0.687,0.563452
889,-0.686,0.563452
890,-0.685,0.563452
891,-0.684,0.563452
892,-0.683,0.563452
893,-0.682,0.563452
894,-0.681,0.563452
895,-0.68,0.563452
896,-0.679,0.563452
897,-0.678,0.563452
898,-0.677,0.563452
899,-0.676,0.565191
900,-0.675,0.565191
901,-0.674,0.565191
902,-0.673,0.561713
903,-0.672,0.561713
904,-0.671,0.561713
905,-0.67,0.561713
906,-0.669,0.561713
907,-0.668,0.561713
908,-0.667,0.561713
909,-0.666,0.561713
910,-0.665,0.561713
911,-0.664,0.561713
912,-0.663,0.561713
913,-0.662,0.561713
914,-0.661,0.561713
915,-0.66,0.561713
916,-0.659,0.563452
917,-0.658,0.563452
918,-0.657,0.559974
919,-0.656,0.559974
920,-0.655,0.511286
921,-0.654,0.323491
922,-0.653,0.288714
923,-0.652,0.281758
924,-0.651,0.281758
925,-0.65,0.280019
926,-0.649,0.280019
927,-0.648,0.280019
928,-0.647,0.280019
929,-0.646,0.280019
930,-0.645,0.280019
931,-0.644,0.280019
932,-0.643,0.280019
933,-0.642,0.280019
934,-0.641,0.280019
935,-0.64,0.280019
936,-0.639,0.280019
937,-0.638,0.280019
938,-0.637,0.280019
939,-0.636,0.280019
940,-0.635,0.280019
941,-0.634,0.280019
942,-0.633,0.280019
943,-0.632,0.280019
944,-0.631,0.280019
945,-0.63,0.280019
946,-0.629,0.280019
947,-0.628,0.280019
948,-0.627,0.280019
949,-0.626,0.280019
950,-0.625,0.280019
951,-0.624,0.280019
952,-0.623,0.280019
953,-0.622,0.280019
954,-0.621,0.280019
955,-0.62,0.280019
956,-0.619,0.280019
957,-0.618,0.280019
958,-0.617,0.280019
959,-0.616,0.280019
960,-0.615,0.280019
961,-0.614,0.280019
962,-0.613,0.280019
963,-0.612,0.280019
964,-0.611,0.280019
965,-0.61,0.280019
966,-0.609,0.280019
967,-0.608,0.280019
968,-0.607,0.280019
969,-0.606,0.281758
970,-0.605,0.304363
971,-0.604,0.533891
972,-0.603,0.565191
973,-0.602,0.372178
974,-0.601,0.299147
975,-0.6,0.283497
976,-0.599,0.281758
977,-0.598,0.280019
978,-0.597,0.280019
979,-0.596,0.280019
980,-0.595,0.280019
981,-0.594,0.280019
982,-0.593,0.280019
983,-0.592,0.280019
984,-0.591,0.280019
985,-0.59,0.280019
986,-0.589,0.280019
987,-0.588,0.280019
988,-0.587,0.280019
989,-0.586,0.280019
990,-0.585,0.280019
991,-0.584,0.280019
992,-0.583,0.280019
993,-0.582,0.280019
994,-0.581,0.280019
995,-0.58,0.280019
996,-0.579,0.280019
997,-0.578,0.280019
998,-0.577,0.280019
999,-0.576,0.280019
1000,-0.575,0.280019
1001,-0.574,0.280019
1002,-0.573,0.280019
1003,-0.572,0.280019
