mcu/power_measurement/mcu/melvec_param/mcu_doubleLength.csv

;Scopy version,438f138
;Exported on,samedi décembre 14/12/2024
;Device,M2K
;Nr of samples,3200
;Sample rate,1000
;Tool,Oscilloscope
;Additional Information,
Sample,Time(S),Ref
0,-1.6,0.587796
1,-1.599,0.586057
2,-1.598,0.586057
3,-1.597,0.587796
4,-1.596,0.587796
5,-1.595,0.587796
6,-1.594,0.587796
7,-1.593,0.587796
8,-1.592,0.589535
9,-1.591,0.586057
10,-1.59,0.586057
11,-1.589,0.586057
12,-1.588,0.586057
13,-1.587,0.586057
14,-1.586,0.586057
15,-1.585,0.586057
16,-1.584,0.584318
17,-1.583,0.584318
18,-1.582,0.584318
19,-1.581,0.584318
20,-1.58,0.586057
21,-1.579,0.586057
22,-1.578,0.586057
23,-1.577,0.586057
24,-1.576,0.587796
25,-1.575,0.586057
26,-1.574,0.586057
27,-1.573,0.586057
28,-1.572,0.586057
29,-1.571,0.586057
30,-1.57,0.586057
31,-1.569,0.586057
32,-1.568,0.586057
33,-1.567,0.586057
34,-1.566,0.586057
35,-1.565,0.586057
36,-1.564,0.586057
37,-1.563,0.586057
38,-1.562,0.586057
39,-1.561,0.586057
40,-1.56,0.587796
41,-1.559,0.586057
42,-1.558,0.586057
43,-1.557,0.586057
44,-1.556,0.587796
45,-1.555,0.587796
46,-1.554,0.587796
47,-1.553,0.587796
48,-1.552,0.587796
49,-1.551,0.586057
50,-1.55,0.587796
51,-1.549,0.587796
52,-1.548,0.587796
53,-1.547,0.587796
54,-1.546,0.587796
55,-1.545,0.584318
56,-1.544,0.589535
57,-1.543,0.586057
58,-1.542,0.586057
59,-1.541,0.586057
60,-1.54,0.586057
61,-1.539,0.586057
62,-1.538,0.587796
63,-1.537,0.587796
64,-1.536,0.587796
65,-1.535,0.587796
66,-1.534,0.587796
67,-1.533,0.587796
68,-1.532,0.589535
69,-1.531,0.587796
70,-1.53,0.587796
71,-1.529,0.587796
72,-1.528,0.589535
73,-1.527,0.584318
74,-1.526,0.584318
75,-1.525,0.584318
76,-1.524,0.584318
77,-1.523,0.584318
78,-1.522,0.584318
79,-1.521,0.586057
80,-1.52,0.582579
81,-1.519,0.577363
82,-1.518,0.577363
83,-1.517,0.577363
84,-1.516,0.577363
85,-1.515,0.577363
86,-1.514,0.577363
87,-1.513,0.579102
88,-1.512,0.579102
89,-1.511,0.577363
90,-1.51,0.577363
91,-1.509,0.577363
92,-1.508,0.577363
93,-1.507,0.577363
94,-1.506,0.577363
95,-1.505,0.577363
96,-1.504,0.577363
97,-1.503,0.577363
98,-1.502,0.573885
99,-1.501,0.577363
100,-1.5,0.577363
101,-1.499,0.577363
102,-1.498,0.579102
103,-1.497,0.579102
104,-1.496,0.579102
105,-1.495,0.577363
106,-1.494,0.577363
107,-1.493,0.579102
108,-1.492,0.579102
109,-1.491,0.579102
110,-1.49,0.579102
111,-1.489,0.579102
112,-1.488,0.579102
113,-1.487,0.577363
114,-1.486,0.577363
115,-1.485,0.577363
116,-1.484,0.577363
117,-1.483,0.577363
118,-1.482,0.577363
119,-1.481,0.579102
120,-1.48,0.579102
121,-1.479,0.579102
122,-1.478,0.579102
123,-1.477,0.579102
124,-1.476,0.579102
125,-1.475,0.579102
126,-1.474,0.579102
127,-1.473,0.582579
128,-1.472,0.582579
129,-1.471,0.582579
130,-1.47,0.579102
131,-1.469,0.579102
132,-1.468,0.582579
133,-1.467,0.579102
134,-1.466,0.579102
135,-1.465,0.579102
136,-1.464,0.582579
137,-1.463,0.577363
138,-1.462,0.577363
139,-1.461,0.577363
140,-1.46,0.577363
141,-1.459,0.577363
142,-1.458,0.577363
143,-1.457,0.579102
144,-1.456,0.579102
145,-1.455,0.577363
146,-1.454,0.577363
147,-1.453,0.577363
148,-1.452,0.577363
149,-1.451,0.579102
150,-1.45,0.577363
151,-1.449,0.579102
152,-1.448,0.579102
153,-1.447,0.577363
154,-1.446,0.577363
155,-1.445,0.577363
156,-1.444,0.577363
157,-1.443,0.577363
158,-1.442,0.577363
159,-1.441,0.577363
160,-1.44,0.577363
161,-1.439,0.577363
162,-1.438,0.577363
163,-1.437,0.577363
164,-1.436,0.579102
165,-1.435,0.579102
166,-1.434,0.579102
167,-1.433,0.579102
168,-1.432,0.582579
169,-1.431,0.579102
170,-1.43,0.579102
171,-1.429,0.579102
172,-1.428,0.579102
173,-1.427,0.579102
174,-1.426,0.575624
175,-1.425,0.579102
176,-1.424,0.579102
177,-1.423,0.577363
178,-1.422,0.577363
179,-1.421,0.577363
180,-1.42,0.579102
181,-1.419,0.579102
182,-1.418,0.579102
183,-1.417,0.579102
184,-1.416,0.582579
185,-1.415,0.582579
186,-1.414,0.579102
187,-1.413,0.579102
188,-1.412,0.579102
189,-1.411,0.582579
190,-1.41,0.577363
191,-1.409,0.582579
192,-1.408,0.582579
193,-1.407,0.579102
194,-1.406,0.579102
195,-1.405,0.579102
196,-1.404,0.579102
197,-1.403,0.579102
198,-1.402,0.579102
199,-1.401,0.579102
200,-1.4,0.582579
201,-1.399,0.582579
202,-1.398,0.577363
203,-1.397,0.577363
204,-1.396,0.577363
205,-1.395,0.579102
206,-1.394,0.579102
207,-1.393,0.579102
208,-1.392,0.579102
209,-1.391,0.579102
210,-1.39,0.577363
211,-1.389,0.577363
212,-1.388,0.577363
213,-1.387,0.577363
214,-1.386,0.577363
215,-1.385,0.577363
216,-1.384,0.577363
217,-1.383,0.577363
218,-1.382,0.577363
219,-1.381,0.577363
220,-1.38,0.577363
221,-1.379,0.577363
222,-1.378,0.577363
223,-1.377,0.579102
224,-1.376,0.579102
225,-1.375,0.579102
226,-1.374,0.579102
227,-1.373,0.579102
228,-1.372,0.579102
229,-1.371,0.579102
230,-1.37,0.579102
231,-1.369,0.579102
232,-1.368,0.582579
233,-1.367,0.579102
234,-1.366,0.579102
235,-1.365,0.577363
236,-1.364,0.577363
237,-1.363,0.577363
238,-1.362,0.577363
239,-1.361,0.577363
240,-1.36,0.579102
241,-1.359,0.579102
242,-1.358,0.579102
243,-1.357,0.579102
244,-1.356,0.579102
245,-1.355,0.582579
246,-1.354,0.582579
247,-1.353,0.582579
248,-1.352,0.582579
249,-1.351,0.582579
250,-1.35,0.579102
251,-1.349,0.579102
252,-1.348,0.579102
253,-1.347,0.579102
254,-1.346,0.579102
255,-1.345,0.579102
256,-1.344,0.579102
257,-1.343,0.579102
258,-1.342,0.579102
259,-1.341,0.579102
260,-1.34,0.579102
261,-1.339,0.582579
262,-1.338,0.582579
263,-1.337,0.582579
264,-1.336,0.582579
265,-1.335,0.584318
266,-1.334,0.579102
267,-1.333,0.577363
268,-1.332,0.577363
269,-1.331,0.577363
270,-1.33,0.577363
271,-1.329,0.577363
272,-1.328,0.577363
273,-1.327,0.577363
274,-1.326,0.575624
275,-1.325,0.575624
276,-1.324,0.575624
277,-1.323,0.575624
278,-1.322,0.575624
279,-1.321,0.575624
280,-1.32,0.577363
281,-1.319,0.577363
282,-1.318,0.579102
283,-1.317,0.579102
284,-1.316,0.582579
285,-1.315,0.582579
286,-1.314,0.584318
287,-1.313,0.584318
288,-1.312,0.584318
289,-1.311,0.586057
290,-1.31,0.584318
291,-1.309,0.582579
292,-1.308,0.584318
293,-1.307,0.584318
294,-1.306,0.584318
295,-1.305,0.584318
296,-1.304,0.584318
297,-1.303,0.584318
298,-1.302,0.582579
299,-1.301,0.582579
300,-1.3,0.582579
301,-1.299,0.582579
302,-1.298,0.584318
303,-1.297,0.584318
304,-1.296,0.584318
305,-1.295,0.586057
306,-1.294,0.584318
307,-1.293,0.584318
308,-1.292,0.584318
309,-1.291,0.584318
310,-1.29,0.586057
311,-1.289,0.582579
312,-1.288,0.586057
313,-1.287,0.586057
314,-1.286,0.586057
315,-1.285,0.582579
316,-1.284,0.582579
317,-1.283,0.582579
318,-1.282,0.584318
319,-1.281,0.584318
320,-1.28,0.584318
321,-1.279,0.584318
322,-1.278,0.584318
323,-1.277,0.584318
324,-1.276,0.584318
325,-1.275,0.586057
326,-1.274,0.586057
327,-1.273,0.586057
328,-1.272,0.586057
329,-1.271,0.587796
330,-1.27,0.586057
331,-1.269,0.582579
332,-1.268,0.582579
333,-1.267,0.582579
334,-1.266,0.582579
335,-1.265,0.582579
336,-1.264,0.582579
337,-1.263,0.582579
338,-1.262,0.582579
339,-1.261,0.582579
340,-1.26,0.582579
341,-1.259,0.584318
342,-1.258,0.584318
343,-1.257,0.584318
344,-1.256,0.584318
345,-1.255,0.586057
346,-1.254,0.586057
347,-1.253,0.582579
348,-1.252,0.582579
349,-1.251,0.582579
350,-1.25,0.584318
351,-1.249,0.584318
352,-1.248,0.584318
353,-1.247,0.584318
354,-1.246,0.584318
355,-1.245,0.582579
356,-1.244,0.582579
357,-1.243,0.582579
358,-1.242,0.584318
359,-1.241,0.582579
360,-1.24,0.584318
361,-1.239,0.584318
362,-1.238,0.586057
363,-1.237,0.582579
364,-1.236,0.584318
365,-1.235,0.584318
366,-1.234,0.584318
367,-1.233,0.584318
368,-1.232,0.584318
369,-1.231,0.586057
370,-1.23,0.586057
371,-1.229,0.584318
372,-1.228,0.584318
373,-1.227,0.584318
374,-1.226,0.586057
375,-1.225,0.584318
376,-1.224,0.584318
377,-1.223,0.584318
378,-1.222,0.586057
379,-1.221,0.582579
380,-1.22,0.584318
381,-1.219,0.584318
382,-1.218,0.587796
383,-1.217,0.584318
384,-1.216,0.586057
385,-1.215,0.586057
386,-1.214,0.589535
387,-1.213,0.586057
388,-1.212,0.586057
389,-1.211,0.586057
390,-1.21,0.586057
391,-1.209,0.586057
392,-1.208,0.586057
393,-1.207,0.586057
394,-1.206,0.586057
395,-1.205,0.582579
396,-1.204,0.577363
397,-1.203,0.582579
398,-1.202,0.582579
399,-1.201,0.582579
400,-1.2,0.582579
401,-1.199,0.584318
402,-1.198,0.584318
403,-1.197,0.584318
404,-1.196,0.584318
405,-1.195,0.584318
406,-1.194,0.586057
407,-1.193,0.584318
408,-1.192,0.584318
409,-1.191,0.586057
410,-1.19,0.586057
411,-1.189,0.582579
412,-1.188,0.582579
413,-1.187,0.582579
414,-1.186,0.582579
415,-1.185,0.582579
416,-1.184,0.582579
417,-1.183,0.582579
418,-1.182,0.584318
419,-1.181,0.582579
420,-1.18,0.582579
421,-1.179,0.582579
422,-1.178,0.584318
423,-1.177,0.584318
424,-1.176,0.584318
425,-1.175,0.586057
426,-1.174,0.586057
427,-1.173,0.584318
428,-1.172,0.584318
429,-1.171,0.584318
430,-1.17,0.584318
431,-1.169,0.584318
432,-1.168,0.584318
433,-1.167,0.584318
434,-1.166,0.587796
435,-1.165,0.582579
436,-1.164,0.584318
437,-1.163,0.584318
438,-1.162,0.584318
439,-1.161,0.584318
440,-1.16,0.584318
441,-1.159,0.586057
442,-1.158,0.587796
443,-1.157,0.584318
444,-1.156,0.584318
445,-1.155,0.584318
446,-1.154,0.586057
447,-1.153,0.586057
448,-1.152,0.586057
449,-1.151,0.586057
450,-1.15,0.587796
451,-1.149,0.586057
452,-1.148,0.584318
453,-1.147,0.584318
454,-1.146,0.586057
455,-1.145,0.584318
456,-1.144,0.584318
457,-1.143,0.586057
458,-1.142,0.586057
459,-1.141,0.584318
460,-1.14,0.582579
461,-1.139,0.582579
462,-1.138,0.584318
463,-1.137,0.584318
464,-1.136,0.584318
465,-1.135,0.584318
466,-1.134,0.586057
467,-1.133,0.584318
468,-1.132,0.584318
469,-1.131,0.584318
470,-1.13,0.584318
471,-1.129,0.584318
472,-1.128,0.584318
473,-1.127,0.584318
474,-1.126,0.587796
475,-1.125,0.582579
476,-1.124,0.582579
477,-1.123,0.582579
478,-1.122,0.582579
479,-1.121,0.584318
480,-1.12,0.584318
481,-1.119,0.584318
482,-1.118,0.584318
483,-1.117,0.586057
484,-1.116,0.582579
485,-1.115,0.577363
486,-1.114,0.577363
487,-1.113,0.577363
488,-1.112,0.577363
489,-1.111,0.577363
490,-1.11,0.579102
491,-1.109,0.577363
492,-1.108,0.575624
493,-1.107,0.575624
494,-1.106,0.575624
495,-1.105,0.575624
496,-1.104,0.575624
497,-1.103,0.575624
498,-1.102,0.575624
499,-1.101,0.575624
500,-1.1,0.575624
501,-1.099,0.575624
502,-1.098,0.577363
503,-1.097,0.577363
504,-1.096,0.577363
505,-1.095,0.577363
506,-1.094,0.579102
507,-1.093,0.577363
508,-1.092,0.579102
509,-1.091,0.575624
510,-1.09,0.577363
511,-1.089,0.577363
512,-1.088,0.577363
513,-1.087,0.577363
514,-1.086,0.577363
515,-1.085,0.577363
516,-1.084,0.575624
517,-1.083,0.575624
518,-1.082,0.575624
519,-1.081,0.577363
520,-1.08,0.577363
521,-1.079,0.577363
522,-1.078,0.579102
523,-1.077,0.579102
524,-1.076,0.575624
525,-1.075,0.575624
526,-1.074,0.575624
527,-1.073,0.577363
528,-1.072,0.577363
529,-1.071,0.577363
530,-1.07,0.577363
531,-1.069,0.577363
532,-1.068,0.575624
533,-1.067,0.575624
534,-1.066,0.575624
535,-1.065,0.575624
536,-1.064,0.575624
537,-1.063,0.575624
538,-1.062,0.575624
539,-1.061,0.577363
540,-1.06,0.575624
541,-1.059,0.575624
542,-1.058,0.575624
543,-1.057,0.577363
544,-1.056,0.577363
545,-1.055,0.577363
546,-1.054,0.577363
547,-1.053,0.579102
548,-1.052,0.577363
549,-1.051,0.573885
550,-1.05,0.577363
551,-1.049,0.577363
552,-1.048,0.577363
553,-1.047,0.577363
554,-1.046,0.577363
555,-1.045,0.577363
556,-1.044,0.575624
557,-1.043,0.575624
558,-1.042,0.575624
559,-1.041,0.575624
560,-1.04,0.577363
561,-1.039,0.577363
562,-1.038,0.577363
563,-1.037,0.582579
564,-1.036,0.577363
565,-1.035,0.577363
566,-1.034,0.577363
567,-1.033,0.577363
568,-1.032,0.579102
569,-1.031,0.579102
570,-1.03,0.579102
571,-1.029,0.579102
572,-1.028,0.577363
573,-1.027,0.577363
574,-1.026,0.577363
575,-1.025,0.577363
576,-1.024,0.577363
577,-1.023,0.577363
578,-1.022,0.577363
579,-1.021,0.579102
580,-1.02,0.575624
581,-1.019,0.577363
582,-1.018,0.577363
583,-1.017,0.579102
584,-1.016,0.579102
585,-1.015,0.579102
586,-1.014,0.579102
587,-1.013,0.582579
588,-1.012,0.577363
589,-1.011,0.575624
590,-1.01,0.575624
591,-1.009,0.577363
592,-1.008,0.575624
593,-1.007,0.575624
594,-1.006,0.575624
595,-1.005,0.577363
596,-1.004,0.575624
597,-1.003,0.575624
598,-1.002,0.575624
599,-1.001,0.575624
600,-1,0.575624
601,-0.999,0.577363
602,-0.998,0.577363
603,-0.997,0.582579
604,-0.996,0.577363
605,-0.995,0.573885
606,-0.994,0.577363
607,-0.993,0.577363
608,-0.992,0.577363
609,-0.991,0.577363
610,-0.99,0.577363
611,-0.989,0.582579
612,-0.988,0.577363
613,-0.987,0.575624
614,-0.986,0.575624
615,-0.985,0.575624
616,-0.984,0.575624
617,-0.983,0.575624
618,-0.982,0.577363
619,-0.981,0.577363
620,-0.98,0.577363
621,-0.979,0.575624
622,-0.978,0.575624
623,-0.977,0.577363
624,-0.976,0.577363
625,-0.975,0.577363
626,-0.974,0.579102
627,-0.973,0.579102
628,-0.972,0.577363
629,-0.971,0.577363
630,-0.97,0.577363
631,-0.969,0.577363
632,-0.968,0.577363
633,-0.967,0.577363
634,-0.966,0.577363
635,-0.965,0.582579
636,-0.964,0.577363
637,-0.963,0.575624
638,-0.962,0.575624
639,-0.961,0.577363
640,-0.96,0.577363
641,-0.959,0.577363
642,-0.958,0.577363
643,-0.957,0.579102
644,-0.956,0.579102
645,-0.955,0.579102
646,-0.954,0.579102
647,-0.953,0.579102
648,-0.952,0.579102
649,-0.951,0.579102
650,-0.95,0.579102
651,-0.949,0.584318
652,-0.948,0.577363
653,-0.947,0.575624
654,-0.946,0.575624
655,-0.945,0.575624
656,-0.944,0.575624
657,-0.943,0.575624
658,-0.942,0.575624
659,-0.941,0.575624
660,-0.94,0.575624
661,-0.939,0.575624
662,-0.938,0.575624
663,-0.937,0.577363
664,-0.936,0.577363
665,-0.935,0.577363
666,-0.934,0.577363
667,-0.933,0.579102
668,-0.932,0.577363
669,-0.931,0.577363
670,-0.93,0.575624
671,-0.929,0.577363
672,-0.928,0.577363
673,-0.927,0.577363
674,-0.926,0.577363
675,-0.925,0.577363
676,-0.924,0.575624
677,-0.923,0.575624
678,-0.922,0.575624
679,-0.921,0.575624
680,-0.92,0.577363
681,-0.919,0.577363
682,-0.918,0.577363
683,-0.917,0.577363
684,-0.916,0.579102
685,-0.915,0.577363
686,-0.914,0.577363
687,-0.913,0.584318
688,-0.912,0.586057
689,-0.911,0.586057
690,-0.91,0.586057
691,-0.909,0.586057
692,-0.908,0.587796
693,-0.907,0.586057
694,-0.906,0.586057
695,-0.905,0.584318
696,-0.904,0.586057
697,-0.903,0.586057
698,-0.902,0.586057
699,-0.901,0.586057
700,-0.9,0.587796
701,-0.899,0.586057
702,-0.898,0.586057
703,-0.897,0.586057
704,-0.896,0.586057
705,-0.895,0.586057
706,-0.894,0.587796
707,-0.893,0.587796
708,-0.892,0.587796
709,-0.891,0.586057
710,-0.89,0.587796
711,-0.889,0.587796
712,-0.888,0.587796
713,-0.887,0.587796
714,-0.886,0.587796
715,-0.885,0.587796
716,-0.884,0.587796
717,-0.883,0.584318
718,-0.882,0.584318
719,-0.881,0.584318
720,-0.88,0.584318
721,-0.879,0.584318
722,-0.878,0.584318
723,-0.877,0.586057
724,-0.876,0.586057
725,-0.875,0.586057
726,-0.874,0.586057
727,-0.873,0.586057
728,-0.872,0.586057
729,-0.871,0.586057
730,-0.87,0.587796
731,-0.869,0.586057
732,-0.868,0.587796
733,-0.867,0.586057
734,-0.866,0.584318
735,-0.865,0.584318
736,-0.864,0.584318
737,-0.863,0.584318
738,-0.862,0.586057
739,-0.861,0.586057
740,-0.86,0.586057
741,-0.859,0.586057
742,-0.858,0.586057
743,-0.857,0.586057
744,-0.856,0.587796
745,-0.855,0.587796
746,-0.854,0.587796
747,-0.853,0.587796
748,-0.852,0.591274
749,-0.851,0.586057
750,-0.85,0.586057
751,-0.849,0.586057
752,-0.848,0.586057
753,-0.847,0.586057
754,-0.846,0.586057
755,-0.845,0.586057
756,-0.844,0.586057
757,-0.843,0.584318
758,-0.842,0.586057
759,-0.841,0.586057
760,-0.84,0.586057
761,-0.839,0.586057
762,-0.838,0.587796
763,-0.837,0.587796
764,-0.836,0.589535
765,-0.835,0.587796
766,-0.834,0.587796
767,-0.833,0.587796
768,-0.832,0.587796
769,-0.831,0.587796
770,-0.83,0.587796
771,-0.829,0.587796
772,-0.828,0.587796
773,-0.827,0.586057
774,-0.826,0.586057
775,-0.825,0.586057
776,-0.824,0.586057
777,-0.823,0.586057
778,-0.822,0.587796
779,-0.821,0.587796
780,-0.82,0.587796
781,-0.819,0.587796
782,-0.818,0.584318
783,-0.817,0.584318
784,-0.816,0.584318
785,-0.815,0.584318
786,-0.814,0.584318
787,-0.813,0.586057
788,-0.812,0.586057
789,-0.811,0.586057
790,-0.81,0.586057
791,-0.809,0.584318
792,-0.808,0.586057
793,-0.807,0.586057
794,-0.806,0.584318
795,-0.805,0.584318
796,-0.804,0.586057
797,-0.803,0.584318
798,-0.802,0.584318
799,-0.801,0.584318
800,-0.8,0.584318
801,-0.799,0.586057
802,-0.798,0.586057
803,-0.797,0.586057
804,-0.796,0.586057
805,-0.795,0.586057
806,-0.794,0.586057
807,-0.793,0.586057
808,-0.792,0.586057
809,-0.791,0.587796
810,-0.79,0.587796
811,-0.789,0.587796
812,-0.788,0.587796
813,-0.787,0.587796
814,-0.786,0.584318
815,-0.785,0.584318
816,-0.784,0.584318
817,-0.783,0.584318
818,-0.782,0.584318
819,-0.781,0.584318
820,-0.78,0.586057
821,-0.779,0.586057
822,-0.778,0.586057
823,-0.777,0.586057
824,-0.776,0.586057
825,-0.775,0.586057
826,-0.774,0.586057
827,-0.773,0.587796
828,-0.772,0.587796
829,-0.771,0.587796
830,-0.77,0.586057
831,-0.769,0.586057
832,-0.768,0.586057
833,-0.767,0.586057
834,-0.766,0.586057
835,-0.765,0.586057
836,-0.764,0.586057
837,-0.763,0.586057
838,-0.762,0.586057
839,-0.761,0.586057
840,-0.76,0.586057
841,-0.759,0.587796
842,-0.758,0.587796
843,-0.757,0.587796
844,-0.756,0.587796
845,-0.755,0.589535
846,-0.754,0.586057
847,-0.753,0.584318
848,-0.752,0.584318
849,-0.751,0.586057
850,-0.75,0.584318
851,-0.749,0.586057
852,-0.748,0.586057
853,-0.747,0.584318
854,-0.746,0.584318
855,-0.745,0.584318
856,-0.744,0.584318
857,-0.743,0.584318
858,-0.742,0.584318
859,-0.741,0.584318
860,-0.74,0.586057
861,-0.739,0.586057
862,-0.738,0.582579
863,-0.737,0.586057
864,-0.736,0.586057
865,-0.735,0.586057
866,-0.734,0.586057
867,-0.733,0.587796
868,-0.732,0.587796
869,-0.731,0.587796
870,-0.73,0.584318
871,-0.729,0.587796
872,-0.728,0.586057
873,-0.727,0.589535
874,-0.726,0.584318
875,-0.725,0.587796
876,-0.724,0.587796
877,-0.723,0.586057
878,-0.722,0.586057
879,-0.721,0.586057
880,-0.72,0.586057
881,-0.719,0.586057
882,-0.718,0.586057
883,-0.717,0.587796
884,-0.716,0.587796
885,-0.715,0.587796
886,-0.714,0.587796
887,-0.713,0.587796
888,-0.712,0.587796
889,-0.711,0.584318
890,-0.71,0.579102
891,-0.709,0.579102
892,-0.708,0.579102
893,-0.707,0.579102
894,-0.706,0.577363
895,-0.705,0.577363
896,-0.704,0.577363
897,-0.703,0.577363
898,-0.702,0.577363
899,-0.701,0.579102
900,-0.7,0.579102
901,-0.699,0.579102
902,-0.698,0.579102
903,-0.697,0.579102
904,-0.696,0.579102
905,-0.695,0.582579
906,-0.694,0.582579
907,-0.693,0.582579
908,-0.692,0.582579
909,-0.691,0.582579
910,-0.69,0.577363
911,-0.689,0.577363
912,-0.688,0.577363
913,-0.687,0.577363
914,-0.686,0.577363
915,-0.685,0.577363
916,-0.684,0.577363
917,-0.683,0.577363
918,-0.682,0.577363
919,-0.681,0.577363
920,-0.68,0.577363
921,-0.679,0.577363
922,-0.678,0.577363
923,-0.677,0.579102
924,-0.676,0.579102
925,-0.675,0.579102
926,-0.674,0.579102
927,-0.673,0.579102
928,-0.672,0.579102
929,-0.671,0.579102
930,-0.67,0.579102
931,-0.669,0.579102
932,-0.668,0.579102
933,-0.667,0.579102
934,-0.666,0.577363
935,-0.665,0.577363
936,-0.664,0.577363
937,-0.663,0.577363
938,-0.662,0.577363
939,-0.661,0.579102
940,-0.66,0.579102
941,-0.659,0.584318
942,-0.658,0.579102
943,-0.657,0.579102
944,-0.656,0.579102
945,-0.655,0.579102
946,-0.654,0.579102
947,-0.653,0.579102
948,-0.652,0.582579
949,-0.651,0.582579
950,-0.65,0.579102
951,-0.649,0.579102
952,-0.648,0.579102
953,-0.647,0.579102
954,-0.646,0.579102
955,-0.645,0.579102
956,-0.644,0.579102
957,-0.643,0.579102
958,-0.642,0.579102
959,-0.641,0.577363
960,-0.64,0.579102
961,-0.639,0.579102
962,-0.638,0.579102
963,-0.637,0.579102
964,-0.636,0.582579
965,-0.635,0.582579
966,-0.634,0.582579
967,-0.633,0.582579
968,-0.632,0.582579
969,-0.631,0.582579
970,-0.63,0.582579
971,-0.629,0.582579
972,-0.628,0.582579
973,-0.627,0.582579
974,-0.626,0.579102
975,-0.625,0.577363
976,-0.624,0.577363
977,-0.623,0.577363
978,-0.622,0.577363
979,-0.621,0.577363
980,-0.62,0.577363
981,-0.619,0.579102
982,-0.618,0.579102
983,-0.617,0.577363
984,-0.616,0.579102
985,-0.615,0.579102
986,-0.614,0.579102
987,-0.613,0.579102
988,-0.612,0.579102
989,-0.611,0.582579
990,-0.61,0.579102
991,-0.609,0.579102
992,-0.608,0.579102
993,-0.607,0.579102
994,-0.606,0.577363
995,-0.605,0.577363
996,-0.604,0.579102
997,-0.603,0.579102
998,-0.602,0.577363
999,-0.601,0.577363
1000,-0.6,0.579102
1001,-0.599,0.579102
