mcu/power_measurement/mcu/mst_clk/mcu_clk_80MHz.csv

;Scopy version,438f138
;Exported on,samedi décembre 14/12/2024
;Device,M2K
;Nr of samples,3200
;Sample rate,1000
;Tool,Oscilloscope
;Additional Information,
Sample,Time(S),CH1(V)
0,-1.6,0.958203
1,-1.599,0.958203
2,-1.598,0.958203
3,-1.597,0.956464
4,-1.596,0.956464
5,-1.595,0.959942
6,-1.594,0.959942
7,-1.593,0.956464
8,-1.592,0.958203
9,-1.591,0.958203
10,-1.59,0.958203
11,-1.589,0.958203
12,-1.588,0.959942
13,-1.587,0.959942
14,-1.586,0.959942
15,-1.585,0.959942
16,-1.584,0.959942
17,-1.583,0.958203
18,-1.582,0.958203
19,-1.581,0.959942
20,-1.58,0.959942
21,-1.579,0.959942
22,-1.578,0.959942
23,-1.577,0.959942
24,-1.576,0.958203
25,-1.575,0.958203
26,-1.574,0.958203
27,-1.573,0.959942
28,-1.572,0.959942
29,-1.571,0.959942
30,-1.57,0.965159
31,-1.569,0.96342
32,-1.568,0.96342
33,-1.567,0.959942
34,-1.566,0.959942
35,-1.565,0.96342
36,-1.564,0.959942
37,-1.563,0.959942
38,-1.562,0.959942
39,-1.561,0.959942
40,-1.56,0.959942
41,-1.559,0.959942
42,-1.558,0.959942
43,-1.557,0.958203
44,-1.556,0.958203
45,-1.555,0.958203
46,-1.554,0.96342
47,-1.553,0.959942
48,-1.552,0.959942
49,-1.551,0.959942
50,-1.55,0.96342
51,-1.549,0.96342
52,-1.548,0.96342
53,-1.547,0.96342
54,-1.546,0.96342
55,-1.545,0.96342
56,-1.544,0.954726
57,-1.543,0.956464
58,-1.542,0.956464
59,-1.541,0.956464
60,-1.54,0.956464
61,-1.539,0.954726
62,-1.538,0.958203
63,-1.537,0.956464
64,-1.536,0.956464
65,-1.535,0.954726
66,-1.534,0.956464
67,-1.533,0.958203
68,-1.532,0.958203
69,-1.531,0.958203
70,-1.53,0.959942
71,-1.529,0.958203
72,-1.528,0.954726
73,-1.527,0.954726
74,-1.526,0.958203
75,-1.525,0.958203
76,-1.524,0.954726
77,-1.523,0.958203
78,-1.522,0.956464
79,-1.521,0.959942
80,-1.52,0.954726
81,-1.519,0.956464
82,-1.518,0.956464
83,-1.517,0.958203
84,-1.516,0.956464
85,-1.515,0.959942
86,-1.514,0.959942
87,-1.513,0.959942
88,-1.512,0.954726
89,-1.511,0.958203
90,-1.51,0.958203
91,-1.509,0.958203
92,-1.508,0.958203
93,-1.507,0.958203
94,-1.506,0.958203
95,-1.505,0.959942
96,-1.504,0.956464
97,-1.503,0.956464
98,-1.502,0.959942
99,-1.501,0.958203
100,-1.5,0.958203
101,-1.499,0.959942
102,-1.498,0.959942
103,-1.497,0.959942
104,-1.496,0.956464
105,-1.495,0.958203
106,-1.494,0.958203
107,-1.493,0.959942
108,-1.492,0.956464
109,-1.491,0.959942
110,-1.49,0.959942
111,-1.489,0.959942
112,-1.488,0.956464
113,-1.487,0.959942
114,-1.486,0.958203
115,-1.485,0.959942
116,-1.484,0.959942
117,-1.483,0.959942
118,-1.482,0.959942
119,-1.481,0.96342
120,-1.48,0.954726
121,-1.479,0.956464
122,-1.478,0.956464
123,-1.477,0.958203
124,-1.476,0.954726
125,-1.475,0.956464
126,-1.474,0.956464
127,-1.473,0.959942
128,-1.472,0.954726
129,-1.471,0.956464
130,-1.47,0.956464
131,-1.469,0.959942
132,-1.468,0.956464
133,-1.467,0.959942
134,-1.466,0.959942
135,-1.465,0.959942
136,-1.464,0.956464
137,-1.463,0.954726
138,-1.462,0.958203
139,-1.461,0.956464
140,-1.46,0.956464
141,-1.459,0.958203
142,-1.458,0.958203
143,-1.457,0.958203
144,-1.456,0.956464
145,-1.455,0.958203
146,-1.454,0.958203
147,-1.453,0.958203
148,-1.452,0.958203
149,-1.451,0.959942
150,-1.45,0.96342
151,-1.449,0.96342
152,-1.448,0.958203
153,-1.447,0.956464
154,-1.446,0.959942
155,-1.445,0.959942
156,-1.444,0.956464
157,-1.443,0.959942
158,-1.442,0.958203
159,-1.441,0.96342
160,-1.44,0.956464
161,-1.439,0.958203
162,-1.438,0.958203
163,-1.437,0.958203
164,-1.436,0.958203
165,-1.435,0.958203
166,-1.434,0.959942
167,-1.433,0.965159
168,-1.432,0.958203
169,-1.431,0.958203
170,-1.43,0.958203
171,-1.429,0.959942
172,-1.428,0.958203
173,-1.427,0.959942
174,-1.426,0.959942
175,-1.425,0.96342
176,-1.424,0.956464
177,-1.423,0.959942
178,-1.422,0.958203
179,-1.421,0.96342
180,-1.42,0.958203
181,-1.419,0.959942
182,-1.418,0.959942
183,-1.417,0.965159
184,-1.416,0.954726
185,-1.415,0.956464
186,-1.414,0.954726
187,-1.413,0.958203
188,-1.412,0.954726
189,-1.411,0.954726
190,-1.41,0.958203
191,-1.409,0.958203
192,-1.408,0.954726
193,-1.407,0.954726
194,-1.406,0.958203
195,-1.405,0.956464
196,-1.404,0.956464
197,-1.403,0.958203
198,-1.402,0.958203
199,-1.401,0.959942
200,-1.4,0.956464
201,-1.399,0.956464
202,-1.398,0.956464
203,-1.397,0.958203
204,-1.396,0.954726
205,-1.395,0.956464
206,-1.394,0.956464
207,-1.393,0.959942
208,-1.392,0.954726
209,-1.391,0.958203
210,-1.39,0.958203
211,-1.389,0.958203
212,-1.388,0.958203
213,-1.387,0.959942
214,-1.386,0.959942
215,-1.385,0.96342
216,-1.384,0.958203
217,-1.383,0.958203
218,-1.382,0.956464
219,-1.381,0.959942
220,-1.38,0.956464
221,-1.379,0.956464
222,-1.378,0.959942
223,-1.377,0.958203
224,-1.376,0.958203
225,-1.375,0.956464
226,-1.374,0.958203
227,-1.373,0.96342
228,-1.372,0.958203
229,-1.371,0.959942
230,-1.37,0.959942
231,-1.369,0.965159
232,-1.368,0.959942
233,-1.367,0.959942
234,-1.366,0.958203
235,-1.365,0.96342
236,-1.364,0.958203
237,-1.363,0.958203
238,-1.362,0.958203
239,-1.361,0.96342
240,-1.36,0.958203
241,-1.359,0.958203
242,-1.358,0.958203
243,-1.357,0.96342
244,-1.356,0.958203
245,-1.355,0.959942
246,-1.354,0.959942
247,-1.353,0.96342
248,-1.352,0.956464
249,-1.351,0.956464
250,-1.35,0.954726
251,-1.349,0.958203
252,-1.348,0.956464
253,-1.347,0.956464
254,-1.346,0.956464
255,-1.345,0.959942
256,-1.344,0.956464
257,-1.343,0.954726
258,-1.342,0.958203
259,-1.341,0.958203
260,-1.34,0.956464
261,-1.339,0.958203
262,-1.338,0.958203
263,-1.337,0.959942
264,-1.336,0.956464
265,-1.335,0.956464
266,-1.334,0.956464
267,-1.333,0.958203
268,-1.332,0.956464
269,-1.331,0.956464
270,-1.33,0.959942
271,-1.329,0.958203
272,-1.328,0.958203
273,-1.327,0.958203
274,-1.326,0.958203
275,-1.325,0.958203
276,-1.324,0.958203
277,-1.323,0.958203
278,-1.322,0.959942
279,-1.321,0.959942
280,-1.32,0.956464
281,-1.319,0.958203
282,-1.318,0.958203
283,-1.317,0.958203
284,-1.316,0.958203
285,-1.315,0.958203
286,-1.314,0.958203
287,-1.313,0.96342
288,-1.312,0.959942
289,-1.311,0.959942
290,-1.31,0.958203
291,-1.309,0.96342
292,-1.308,0.96342
293,-1.307,0.958203
294,-1.306,0.96342
295,-1.305,0.959942
296,-1.304,0.959942
297,-1.303,0.956464
298,-1.302,0.958203
299,-1.301,0.958203
300,-1.3,0.958203
301,-1.299,0.958203
302,-1.298,0.958203
303,-1.297,0.96342
304,-1.296,0.959942
305,-1.295,0.959942
306,-1.294,0.958203
307,-1.293,0.96342
308,-1.292,0.959942
309,-1.291,0.959942
310,-1.29,0.959942
311,-1.289,0.965159
312,-1.288,0.959942
313,-1.287,0.956464
314,-1.286,0.958203
315,-1.285,0.958203
316,-1.284,0.956464
317,-1.283,0.958203
318,-1.282,0.958203
319,-1.281,0.958203
320,-1.28,0.958203
321,-1.279,0.958203
322,-1.278,0.956464
323,-1.277,0.959942
324,-1.276,0.958203
325,-1.275,0.959942
326,-1.274,0.959942
327,-1.273,0.959942
328,-1.272,0.959942
329,-1.271,0.956464
330,-1.27,0.956464
331,-1.269,0.959942
332,-1.268,0.958203
333,-1.267,0.959942
334,-1.266,0.959942
335,-1.265,0.959942
336,-1.264,0.959942
337,-1.263,0.958203
338,-1.262,0.959942
339,-1.261,0.959942
340,-1.26,0.96342
341,-1.259,0.958203
342,-1.258,0.959942
343,-1.257,0.959942
344,-1.256,0.959942
345,-1.255,0.956464
346,-1.254,0.958203
347,-1.253,0.959942
348,-1.252,0.959942
349,-1.251,0.959942
350,-1.25,0.959942
351,-1.249,0.965159
352,-1.248,0.96342
353,-1.247,0.959942
354,-1.246,0.959942
355,-1.245,0.959942
356,-1.244,0.959942
357,-1.243,0.959942
358,-1.242,0.959942
359,-1.241,0.965159
360,-1.24,0.959942
361,-1.239,0.958203
362,-1.238,0.959942
363,-1.237,0.959942
364,-1.236,0.959942
365,-1.235,0.959942
366,-1.234,0.959942
367,-1.233,0.965159
368,-1.232,0.96342
369,-1.231,0.96342
370,-1.23,0.959942
371,-1.229,0.965159
372,-1.228,0.96342
373,-1.227,0.96342
374,-1.226,0.96342
375,-1.225,0.96342
376,-1.224,0.96342
377,-1.223,0.956464
378,-1.222,0.958203
379,-1.221,0.958203
380,-1.22,0.959942
381,-1.219,0.958203
382,-1.218,0.958203
383,-1.217,0.959942
384,-1.216,0.959942
385,-1.215,0.956464
386,-1.214,0.958203
387,-1.213,0.959942
388,-1.212,0.96342
389,-1.211,0.958203
390,-1.21,0.96342
391,-1.209,0.959942
392,-1.208,0.959942
393,-1.207,0.956464
394,-1.206,0.958203
395,-1.205,0.958203
396,-1.204,0.958203
397,-1.203,0.958203
398,-1.202,0.958203
399,-1.201,0.96342
400,-1.2,0.959942
401,-1.199,0.959942
402,-1.198,0.959942
403,-1.197,0.959942
404,-1.196,0.959942
405,-1.195,0.959942
406,-1.194,0.96342
407,-1.193,0.96342
408,-1.192,0.96342
409,-1.191,0.958203
410,-1.19,0.958203
411,-1.189,0.96342
412,-1.188,0.959942
413,-1.187,0.959942
414,-1.186,0.96342
415,-1.185,0.96342
416,-1.184,0.96342
417,-1.183,0.959942
418,-1.182,0.959942
419,-1.181,0.959942
420,-1.18,0.965159
421,-1.179,0.959942
422,-1.178,0.96342
423,-1.177,0.96342
424,-1.176,0.96342
425,-1.175,0.958203
426,-1.174,0.958203
427,-1.173,0.959942
428,-1.172,0.96342
429,-1.171,0.96342
430,-1.17,0.96342
431,-1.169,0.96342
432,-1.168,0.966897
433,-1.167,0.959942
434,-1.166,0.959942
435,-1.165,0.965159
436,-1.164,0.96342
437,-1.163,0.96342
438,-1.162,0.96342
439,-1.161,0.96342
440,-1.16,0.965159
441,-1.159,0.956464
442,-1.158,0.956464
443,-1.157,0.956464
444,-1.156,0.958203
445,-1.155,0.958203
446,-1.154,0.956464
447,-1.153,0.956464
448,-1.152,0.959942
449,-1.151,0.954726
450,-1.15,0.958203
451,-1.149,0.956464
452,-1.148,0.959942
453,-1.147,0.956464
454,-1.146,0.959942
455,-1.145,0.958203
456,-1.144,0.959942
457,-1.143,0.956464
458,-1.142,0.956464
459,-1.141,0.956464
460,-1.14,0.959942
461,-1.139,0.956464
462,-1.138,0.959942
463,-1.137,0.958203
464,-1.136,0.959942
465,-1.135,0.956464
466,-1.134,0.958203
467,-1.133,0.958203
468,-1.132,0.958203
469,-1.131,0.958203
470,-1.13,0.96342
471,-1.129,0.959942
472,-1.128,0.96342
473,-1.127,0.958203
474,-1.126,0.958203
475,-1.125,0.958203
476,-1.124,0.959942
477,-1.123,0.958203
478,-1.122,0.96342
479,-1.121,0.958203
480,-1.12,0.959942
481,-1.119,0.958203
482,-1.118,0.959942
483,-1.117,0.958203
484,-1.116,0.96342
485,-1.115,0.958203
486,-1.114,0.96342
487,-1.113,0.96342
488,-1.112,0.965159
489,-1.111,0.959942
490,-1.11,0.959942
491,-1.109,0.959942
492,-1.108,0.959942
493,-1.107,0.959942
494,-1.106,0.965159
495,-1.105,0.96342
496,-1.104,0.965159
497,-1.103,0.959942
498,-1.102,0.959942
499,-1.101,0.959942
500,-1.1,0.959942
501,-1.099,0.959942
502,-1.098,0.965159
503,-1.097,0.96342
504,-1.096,0.965159
505,-1.095,0.956464
506,-1.094,0.958203
507,-1.093,0.958203
508,-1.092,0.958203
509,-1.091,0.958203
510,-1.09,0.958203
511,-1.089,0.958203
512,-1.088,0.959942
513,-1.087,0.956464
514,-1.086,0.956464
515,-1.085,0.956464
516,-1.084,0.959942
517,-1.083,0.958203
518,-1.082,0.958203
519,-1.081,0.958203
520,-1.08,0.96342
521,-1.079,0.956464
522,-1.078,0.958203
523,-1.077,0.958203
524,-1.076,0.958203
525,-1.075,0.958203
526,-1.074,0.959942
527,-1.073,0.959942
528,-1.072,0.96342
529,-1.071,0.958203
530,-1.07,0.959942
531,-1.069,0.959942
532,-1.068,0.959942
533,-1.067,0.959942
534,-1.066,0.96342
535,-1.065,0.96342
536,-1.064,0.965159
537,-1.063,0.959942
538,-1.062,0.959942
539,-1.061,0.958203
540,-1.06,0.96342
541,-1.059,0.959942
542,-1.058,0.959942
543,-1.057,0.959942
544,-1.056,0.959942
545,-1.055,0.959942
546,-1.054,0.959942
547,-1.053,0.959942
548,-1.052,0.96342
549,-1.051,0.959942
550,-1.05,0.965159
551,-1.049,0.96342
552,-1.048,0.966897
553,-1.047,0.959942
554,-1.046,0.959942
555,-1.045,0.959942
556,-1.044,0.965159
557,-1.043,0.96342
558,-1.042,0.965159
559,-1.041,0.96342
560,-1.04,0.965159
561,-1.039,0.959942
562,-1.038,0.959942
563,-1.037,0.959942
564,-1.036,0.965159
565,-1.035,0.965159
566,-1.034,0.965159
567,-1.033,0.965159
568,-1.032,0.966897
569,-1.031,0.954726
570,-1.03,0.951248
571,-1.029,0.951248
572,-1.028,0.951248
573,-1.027,0.951248
574,-1.026,0.951248
575,-1.025,0.951248
576,-1.024,0.952987
577,-1.023,0.949509
578,-1.022,0.949509
579,-1.021,0.951248
580,-1.02,0.951248
581,-1.019,0.949509
582,-1.018,0.952987
583,-1.017,0.952987
584,-1.016,0.952987
585,-1.015,0.949509
586,-1.014,0.951248
587,-1.013,0.949509
588,-1.012,0.952987
589,-1.011,0.951248
590,-1.01,0.951248
591,-1.009,0.951248
592,-1.008,0.954726
593,-1.007,0.951248
594,-1.006,0.951248
595,-1.005,0.952987
596,-1.004,0.952987
597,-1.003,0.951248
598,-1.002,0.954726
599,-1.001,0.952987
600,-1,0.954726
601,-0.999,0.952987
602,-0.998,0.951248
603,-0.997,0.951248
604,-0.996,0.951248
605,-0.995,0.952987
606,-0.994,0.952987
607,-0.993,0.951248
608,-0.992,0.954726
609,-0.991,0.952987
610,-0.99,0.952987
611,-0.989,0.951248
612,-0.988,0.954726
613,-0.987,0.952987
614,-0.986,0.952987
615,-0.985,0.952987
616,-0.984,0.956464
617,-0.983,0.952987
618,-0.982,0.952987
619,-0.981,0.951248
620,-0.98,0.954726
621,-0.979,0.952987
622,-0.978,0.954726
623,-0.977,0.954726
624,-0.976,0.954726
625,-0.975,0.952987
626,-0.974,0.952987
627,-0.973,0.952987
628,-0.972,0.956464
629,-0.971,0.954726
630,-0.97,0.954726
631,-0.969,0.954726
632,-0.968,0.958203
633,-0.967,0.952987
634,-0.966,0.952987
635,-0.965,0.951248
636,-0.964,0.952987
637,-0.963,0.951248
638,-0.962,0.951248
639,-0.961,0.951248
640,-0.96,0.951248
641,-0.959,0.951248
642,-0.958,0.951248
643,-0.957,0.949509
644,-0.956,0.952987
645,-0.955,0.952987
646,-0.954,0.952987
647,-0.953,0.954726
648,-0.952,0.951248
649,-0.951,0.949509
650,-0.95,0.946031
651,-0.949,0.94777
652,-0.948,0.94777
653,-0.947,0.94777
654,-0.946,0.94777
655,-0.945,0.951248
656,-0.944,0.949509
657,-0.943,0.949509
658,-0.942,0.949509
659,-0.941,0.949509
660,-0.94,0.949509
661,-0.939,0.949509
662,-0.938,0.949509
663,-0.937,0.949509
664,-0.936,0.952987
665,-0.935,0.949509
666,-0.934,0.949509
667,-0.933,0.949509
668,-0.932,0.949509
669,-0.931,0.949509
670,-0.93,0.949509
671,-0.929,0.949509
672,-0.928,0.952987
673,-0.927,0.951248
674,-0.926,0.949509
675,-0.925,0.949509
676,-0.924,0.949509
677,-0.923,0.949509
678,-0.922,0.949509
679,-0.921,0.952987
680,-0.92,0.952987
681,-0.919,0.949509
682,-0.918,0.949509
683,-0.917,0.94777
684,-0.916,0.951248
685,-0.915,0.949509
686,-0.914,0.951248
687,-0.913,0.951248
688,-0.912,0.951248
689,-0.911,0.951248
690,-0.91,0.951248
691,-0.909,0.951248
692,-0.908,0.951248
693,-0.907,0.951248
694,-0.906,0.952987
695,-0.905,0.952987
696,-0.904,0.952987
697,-0.903,0.949509
698,-0.902,0.946031
699,-0.901,0.946031
700,-0.9,0.946031
701,-0.899,0.946031
702,-0.898,0.946031
703,-0.897,0.949509
704,-0.896,0.949509
705,-0.895,0.94777
706,-0.894,0.946031
707,-0.893,0.949509
708,-0.892,0.94777
709,-0.891,0.949509
710,-0.89,0.949509
711,-0.889,0.949509
712,-0.888,0.949509
713,-0.887,0.949509
714,-0.886,0.946031
715,-0.885,0.946031
716,-0.884,0.949509
717,-0.883,0.94777
718,-0.882,0.94777
719,-0.881,0.949509
720,-0.88,0.949509
721,-0.879,0.949509
722,-0.878,0.946031
723,-0.877,0.949509
724,-0.876,0.94777
725,-0.875,0.949509
726,-0.874,0.949509
727,-0.873,0.949509
728,-0.872,0.952987
729,-0.871,0.949509
730,-0.87,0.94777
731,-0.869,0.94777
732,-0.868,0.951248
733,-0.867,0.949509
734,-0.866,0.949509
735,-0.865,0.949509
736,-0.864,0.952987
737,-0.863,0.951248
738,-0.862,0.94777
739,-0.861,0.949509
740,-0.86,0.949509
741,-0.859,0.949509
742,-0.858,0.951248
743,-0.857,0.951248
744,-0.856,0.951248
745,-0.855,0.951248
746,-0.854,0.94777
747,-0.853,0.949509
748,-0.852,0.949509
749,-0.851,0.949509
750,-0.85,0.949509
751,-0.849,0.952987
752,-0.848,0.951248
753,-0.847,0.952987
754,-0.846,0.949509
755,-0.845,0.951248
756,-0.844,0.951248
757,-0.843,0.951248
758,-0.842,0.951248
759,-0.841,0.951248
760,-0.84,0.954726
761,-0.839,0.951248
762,-0.838,0.946031
763,-0.837,0.946031
764,-0.836,0.949509
765,-0.835,0.94777
766,-0.834,0.94777
767,-0.833,0.94777
768,-0.832,0.951248
769,-0.831,0.951248
770,-0.83,0.94777
771,-0.829,0.94777
772,-0.828,0.951248
773,-0.827,0.949509
774,-0.826,0.949509
775,-0.825,0.949509
776,-0.824,0.949509
777,-0.823,0.949509
778,-0.822,0.946031
779,-0.821,0.946031
780,-0.82,0.949509
781,-0.819,0.94777
782,-0.818,0.949509
783,-0.817,0.949509
784,-0.816,0.949509
785,-0.815,0.951248
786,-0.814,0.94777
787,-0.813,0.94777
788,-0.812,0.951248
789,-0.811,0.949509
790,-0.81,0.951248
791,-0.809,0.951248
792,-0.808,0.951248
793,-0.807,0.951248
794,-0.806,0.94777
795,-0.805,0.94777
796,-0.804,0.951248
797,-0.803,0.949509
798,-0.802,0.949509
799,-0.801,0.951248
800,-0.8,0.951248
801,-0.799,0.951248
802,-0.798,0.949509
803,-0.797,0.951248
804,-0.796,0.949509
805,-0.795,0.952987
806,-0.794,0.951248
807,-0.793,0.952987
808,-0.792,0.952987
809,-0.791,0.952987
810,-0.79,0.949509
811,-0.789,0.949509
812,-0.788,0.949509
813,-0.787,0.952987
814,-0.786,0.949509
815,-0.785,0.952987
816,-0.784,0.951248
817,-0.783,0.952987
818,-0.782,0.949509
819,-0.781,0.949509
820,-0.78,0.952987
821,-0.779,0.951248
822,-0.778,0.952987
823,-0.777,0.952987
824,-0.776,0.952987
825,-0.775,0.954726
826,-0.774,0.94777
827,-0.773,0.94777
828,-0.772,0.94777
829,-0.771,0.951248
830,-0.77,0.94777
831,-0.769,0.951248
832,-0.768,0.951248
833,-0.767,0.951248
834,-0.766,0.949509
835,-0.765,0.949509
836,-0.764,0.949509
837,-0.763,0.949509
838,-0.762,0.949509
839,-0.761,0.949509
840,-0.76,0.952987
841,-0.759,0.949509
842,-0.758,0.94777
843,-0.757,0.94777
844,-0.756,0.94777
845,-0.755,0.949509
846,-0.754,0.949509
847,-0.753,0.949509
848,-0.752,0.949509
849,-0.751,0.952987
850,-0.75,0.946031
851,-0.749,0.949509
852,-0.748,0.94777
853,-0.747,0.951248
854,-0.746,0.94777
855,-0.745,0.951248
856,-0.744,0.949509
857,-0.743,0.952987
858,-0.742,0.94777
859,-0.741,0.94777
860,-0.74,0.94777
861,-0.739,0.94777
862,-0.738,0.949509
863,-0.737,0.949509
864,-0.736,0.949509
865,-0.735,0.954726
866,-0.734,0.94777
867,-0.733,0.949509
868,-0.732,0.949509
869,-0.731,0.949509
870,-0.73,0.951248
871,-0.729,0.951248
872,-0.728,0.951248
873,-0.727,0.954726
874,-0.726,0.949509
875,-0.725,0.949509
876,-0.724,0.94777
877,-0.723,0.951248
878,-0.722,0.94777
879,-0.721,0.951248
880,-0.72,0.951248
881,-0.719,0.952987
882,-0.718,0.949509
883,-0.717,0.949509
884,-0.716,0.949509
885,-0.715,0.949509
886,-0.714,0.951248
887,-0.713,0.951248
888,-0.712,0.951248
889,-0.711,0.952987
890,-0.71,0.94777
891,-0.709,0.946031
892,-0.708,0.949509
893,-0.707,0.94777
894,-0.706,0.949509
895,-0.705,0.949509
896,-0.704,0.949509
897,-0.703,0.952987
898,-0.702,0.94777
899,-0.701,0.94777
900,-0.7,0.94777
901,-0.699,0.951248
902,-0.698,0.94777
903,-0.697,0.951248
904,-0.696,0.949509
905,-0.695,0.952987
906,-0.694,0.946031
907,-0.693,0.94777
908,-0.692,0.94777
909,-0.691,0.951248
910,-0.69,0.949509
911,-0.689,0.951248
912,-0.688,0.949509
913,-0.687,0.952987
914,-0.686,0.949509
915,-0.685,0.949509
916,-0.684,0.94777
917,-0.683,0.951248
918,-0.682,0.94777
919,-0.681,0.951248
920,-0.68,0.949509
921,-0.679,0.952987
922,-0.678,0.949509
923,-0.677,0.949509
924,-0.676,0.949509
925,-0.675,0.949509
926,-0.674,0.951248
927,-0.673,0.951248
928,-0.672,0.951248
929,-0.671,0.954726
930,-0.67,0.951248
931,-0.669,0.951248
932,-0.668,0.949509
933,-0.667,0.952987
934,-0.666,0.951248
935,-0.665,0.952987
936,-0.664,0.951248
937,-0.663,0.954726
938,-0.662,0.951248
939,-0.661,0.94777
940,-0.66,0.951248
941,-0.659,0.951248
942,-0.658,0.949509
943,-0.657,0.951248
944,-0.656,0.951248
945,-0.655,0.954726
946,-0.654,0.951248
947,-0.653,0.949509
948,-0.652,0.952987
949,-0.651,0.952987
950,-0.65,0.951248
951,-0.649,0.952987
952,-0.648,0.952987
953,-0.647,0.956464
954,-0.646,0.949509
955,-0.645,0.946031
956,-0.644,0.94777
957,-0.643,0.94777
958,-0.642,0.94777
959,-0.641,0.94777
960,-0.64,0.951248
961,-0.639,0.951248
962,-0.638,0.949509
963,-0.637,0.94777
964,-0.636,0.94777
965,-0.635,0.951248
966,-0.634,0.949509
967,-0.633,0.951248
968,-0.632,0.951248
969,-0.631,0.952987
970,-0.63,0.949509
971,-0.629,0.949509
972,-0.628,0.94777
973,-0.627,0.951248
974,-0.626,0.949509
975,-0.625,0.951248
976,-0.624,0.949509
977,-0.623,0.952987
978,-0.622,0.949509
979,-0.621,0.946031
980,-0.62,0.949509
981,-0.619,0.949509
982,-0.618,0.94777
983,-0.617,0.949509
984,-0.616,0.949509
985,-0.615,0.952987
986,-0.614,0.949509
987,-0.613,0.949509
988,-0.612,0.94777
989,-0.611,0.951248
990,-0.61,0.949509
991,-0.609,0.951248
992,-0.608,0.951248
993,-0.607,0.951248
994,-0.606,0.951248
995,-0.605,0.94777
996,-0.604,0.951248
997,-0.603,0.949509
998,-0.602,0.949509
999,-0.601,0.949509
1000,-0.6,0.952987
1001,-0.599,0.952987
1002,-0.598,0.949509
1003,-0.597,0.949509
1004,-0.596,0.94777
1005,-0.595,0.951248
1006,-0.594,0.951248
1007,-0.593,0.951248
