mcu/power_measurement/mcu/mst_clk/mcu_clk_48MHz.csv

;Scopy version,438f138
;Exported on,samedi décembre 14/12/2024
;Device,M2K
;Nr of samples,3200
;Sample rate,1000
;Tool,Oscilloscope
;Additional Information,
Sample,Time(S),CH1(V)
0,-1.6,0.587796
1,-1.599,0.587796
2,-1.598,0.587796
3,-1.597,0.587796
4,-1.596,0.589535
5,-1.595,0.587796
6,-1.594,0.587796
7,-1.593,0.586057
8,-1.592,0.587796
9,-1.591,0.587796
10,-1.59,0.587796
11,-1.589,0.587796
12,-1.588,0.591274
13,-1.587,0.587796
14,-1.586,0.587796
15,-1.585,0.587796
16,-1.584,0.587796
17,-1.583,0.587796
18,-1.582,0.587796
19,-1.581,0.589535
20,-1.58,0.589535
21,-1.579,0.587796
22,-1.578,0.587796
23,-1.577,0.587796
24,-1.576,0.587796
25,-1.575,0.587796
26,-1.574,0.587796
27,-1.573,0.587796
28,-1.572,0.591274
29,-1.571,0.586057
30,-1.57,0.586057
31,-1.569,0.586057
32,-1.568,0.586057
33,-1.567,0.586057
34,-1.566,0.586057
35,-1.565,0.587796
36,-1.564,0.587796
37,-1.563,0.587796
38,-1.562,0.587796
39,-1.561,0.587796
40,-1.56,0.587796
41,-1.559,0.587796
42,-1.558,0.587796
43,-1.557,0.587796
44,-1.556,0.587796
45,-1.555,0.586057
46,-1.554,0.586057
47,-1.553,0.586057
48,-1.552,0.586057
49,-1.551,0.586057
50,-1.55,0.586057
51,-1.549,0.587796
52,-1.548,0.587796
53,-1.547,0.587796
54,-1.546,0.587796
55,-1.545,0.587796
56,-1.544,0.587796
57,-1.543,0.587796
58,-1.542,0.587796
59,-1.541,0.589535
60,-1.54,0.589535
61,-1.539,0.587796
62,-1.538,0.587796
63,-1.537,0.587796
64,-1.536,0.587796
65,-1.535,0.587796
66,-1.534,0.587796
67,-1.533,0.587796
68,-1.532,0.587796
69,-1.531,0.587796
70,-1.53,0.587796
71,-1.529,0.587796
72,-1.528,0.587796
73,-1.527,0.587796
74,-1.526,0.587796
75,-1.525,0.589535
76,-1.524,0.589535
77,-1.523,0.587796
78,-1.522,0.587796
79,-1.521,0.587796
80,-1.52,0.587796
81,-1.519,0.589535
82,-1.518,0.587796
83,-1.517,0.589535
84,-1.516,0.589535
85,-1.515,0.587796
86,-1.514,0.587796
87,-1.513,0.587796
88,-1.512,0.587796
89,-1.511,0.587796
90,-1.51,0.587796
91,-1.509,0.589535
92,-1.508,0.589535
93,-1.507,0.589535
94,-1.506,0.586057
95,-1.505,0.586057
96,-1.504,0.586057
97,-1.503,0.577363
98,-1.502,0.579102
99,-1.501,0.579102
100,-1.5,0.579102
101,-1.499,0.579102
102,-1.498,0.579102
103,-1.497,0.579102
104,-1.496,0.579102
105,-1.495,0.579102
106,-1.494,0.579102
107,-1.493,0.579102
108,-1.492,0.579102
109,-1.491,0.579102
110,-1.49,0.577363
111,-1.489,0.577363
112,-1.488,0.579102
113,-1.487,0.579102
114,-1.486,0.579102
115,-1.485,0.579102
116,-1.484,0.579102
117,-1.483,0.579102
118,-1.482,0.579102
119,-1.481,0.579102
120,-1.48,0.582579
121,-1.479,0.582579
122,-1.478,0.582579
123,-1.477,0.582579
124,-1.476,0.582579
125,-1.475,0.582579
126,-1.474,0.579102
127,-1.473,0.579102
128,-1.472,0.579102
129,-1.471,0.579102
130,-1.47,0.577363
131,-1.469,0.579102
132,-1.468,0.579102
133,-1.467,0.579102
134,-1.466,0.579102
135,-1.465,0.579102
136,-1.464,0.582579
137,-1.463,0.582579
138,-1.462,0.582579
139,-1.461,0.582579
140,-1.46,0.582579
141,-1.459,0.582579
142,-1.458,0.582579
143,-1.457,0.582579
144,-1.456,0.582579
145,-1.455,0.579102
146,-1.454,0.579102
147,-1.453,0.579102
148,-1.452,0.582579
149,-1.451,0.582579
150,-1.45,0.579102
151,-1.449,0.579102
152,-1.448,0.582579
153,-1.447,0.582579
154,-1.446,0.582579
155,-1.445,0.582579
156,-1.444,0.584318
157,-1.443,0.584318
158,-1.442,0.579102
159,-1.441,0.579102
160,-1.44,0.579102
161,-1.439,0.579102
162,-1.438,0.575624
163,-1.437,0.579102
164,-1.436,0.579102
165,-1.435,0.579102
166,-1.434,0.577363
167,-1.433,0.577363
168,-1.432,0.577363
169,-1.431,0.577363
170,-1.43,0.577363
171,-1.429,0.579102
172,-1.428,0.579102
173,-1.427,0.579102
174,-1.426,0.579102
175,-1.425,0.579102
176,-1.424,0.579102
177,-1.423,0.579102
178,-1.422,0.579102
179,-1.421,0.579102
180,-1.42,0.582579
181,-1.419,0.582579
182,-1.418,0.579102
183,-1.417,0.579102
184,-1.416,0.579102
185,-1.415,0.579102
186,-1.414,0.579102
187,-1.413,0.579102
188,-1.412,0.579102
189,-1.411,0.582579
190,-1.41,0.579102
191,-1.409,0.579102
192,-1.408,0.579102
193,-1.407,0.579102
194,-1.406,0.579102
195,-1.405,0.579102
196,-1.404,0.582579
197,-1.403,0.582579
198,-1.402,0.582579
199,-1.401,0.582579
200,-1.4,0.582579
201,-1.399,0.582579
202,-1.398,0.582579
203,-1.397,0.582579
204,-1.396,0.582579
205,-1.395,0.582579
206,-1.394,0.579102
207,-1.393,0.579102
208,-1.392,0.579102
209,-1.391,0.579102
210,-1.39,0.579102
211,-1.389,0.579102
212,-1.388,0.582579
213,-1.387,0.582579
214,-1.386,0.582579
215,-1.385,0.582579
216,-1.384,0.582579
217,-1.383,0.586057
218,-1.382,0.579102
219,-1.381,0.584318
220,-1.38,0.584318
221,-1.379,0.584318
222,-1.378,0.579102
223,-1.377,0.579102
224,-1.376,0.579102
225,-1.375,0.579102
226,-1.374,0.577363
227,-1.373,0.577363
228,-1.372,0.579102
229,-1.371,0.579102
230,-1.37,0.577363
231,-1.369,0.577363
232,-1.368,0.579102
233,-1.367,0.579102
234,-1.366,0.579102
235,-1.365,0.579102
236,-1.364,0.582579
237,-1.363,0.582579
238,-1.362,0.579102
239,-1.361,0.579102
240,-1.36,0.579102
241,-1.359,0.579102
242,-1.358,0.579102
243,-1.357,0.579102
244,-1.356,0.579102
245,-1.355,0.582579
246,-1.354,0.579102
247,-1.353,0.579102
248,-1.352,0.579102
249,-1.351,0.579102
250,-1.35,0.579102
251,-1.349,0.579102
252,-1.348,0.582579
253,-1.347,0.582579
254,-1.346,0.582579
255,-1.345,0.579102
256,-1.344,0.579102
257,-1.343,0.582579
258,-1.342,0.579102
259,-1.341,0.582579
260,-1.34,0.582579
261,-1.339,0.582579
262,-1.338,0.582579
263,-1.337,0.577363
264,-1.336,0.582579
265,-1.335,0.582579
266,-1.334,0.582579
267,-1.333,0.582579
268,-1.332,0.582579
269,-1.331,0.582579
270,-1.33,0.579102
271,-1.329,0.579102
272,-1.328,0.579102
273,-1.327,0.582579
274,-1.326,0.582579
275,-1.325,0.582579
276,-1.324,0.582579
277,-1.323,0.584318
278,-1.322,0.582579
279,-1.321,0.582579
280,-1.32,0.582579
281,-1.319,0.584318
282,-1.318,0.584318
283,-1.317,0.584318
284,-1.316,0.584318
285,-1.315,0.584318
286,-1.314,0.582579
287,-1.313,0.577363
288,-1.312,0.577363
289,-1.311,0.577363
290,-1.31,0.577363
291,-1.309,0.577363
292,-1.308,0.577363
293,-1.307,0.579102
294,-1.306,0.579102
295,-1.305,0.575624
296,-1.304,0.579102
297,-1.303,0.579102
298,-1.302,0.582579
299,-1.301,0.586057
300,-1.3,0.586057
301,-1.299,0.587796
302,-1.298,0.586057
303,-1.297,0.586057
304,-1.296,0.586057
305,-1.295,0.586057
306,-1.294,0.586057
307,-1.293,0.586057
308,-1.292,0.586057
309,-1.291,0.586057
310,-1.29,0.586057
311,-1.289,0.586057
312,-1.288,0.586057
313,-1.287,0.586057
314,-1.286,0.586057
315,-1.285,0.586057
316,-1.284,0.587796
317,-1.283,0.587796
318,-1.282,0.587796
319,-1.281,0.586057
320,-1.28,0.586057
321,-1.279,0.586057
322,-1.278,0.586057
323,-1.277,0.586057
324,-1.276,0.586057
325,-1.275,0.587796
326,-1.274,0.586057
327,-1.273,0.586057
328,-1.272,0.586057
329,-1.271,0.586057
330,-1.27,0.587796
331,-1.269,0.586057
332,-1.268,0.586057
333,-1.267,0.587796
334,-1.266,0.587796
335,-1.265,0.586057
336,-1.264,0.586057
337,-1.263,0.587796
338,-1.262,0.587796
339,-1.261,0.587796
340,-1.26,0.587796
341,-1.259,0.587796
342,-1.258,0.589535
343,-1.257,0.587796
344,-1.256,0.587796
345,-1.255,0.587796
346,-1.254,0.587796
347,-1.253,0.587796
348,-1.252,0.587796
349,-1.251,0.587796
350,-1.25,0.589535
351,-1.249,0.584318
352,-1.248,0.586057
353,-1.247,0.586057
354,-1.246,0.586057
355,-1.245,0.586057
356,-1.244,0.586057
357,-1.243,0.587796
358,-1.242,0.587796
359,-1.241,0.586057
360,-1.24,0.586057
361,-1.239,0.587796
362,-1.238,0.587796
363,-1.237,0.586057
364,-1.236,0.586057
365,-1.235,0.586057
366,-1.234,0.589535
367,-1.233,0.584318
368,-1.232,0.586057
369,-1.231,0.586057
370,-1.23,0.586057
371,-1.229,0.586057
372,-1.228,0.586057
373,-1.227,0.586057
374,-1.226,0.587796
375,-1.225,0.586057
376,-1.224,0.586057
377,-1.223,0.587796
378,-1.222,0.587796
379,-1.221,0.587796
380,-1.22,0.587796
381,-1.219,0.587796
382,-1.218,0.589535
383,-1.217,0.587796
384,-1.216,0.586057
385,-1.215,0.586057
386,-1.214,0.589535
387,-1.213,0.586057
388,-1.212,0.586057
389,-1.211,0.587796
390,-1.21,0.587796
391,-1.209,0.586057
392,-1.208,0.586057
393,-1.207,0.587796
394,-1.206,0.587796
395,-1.205,0.587796
396,-1.204,0.587796
397,-1.203,0.587796
398,-1.202,0.589535
399,-1.201,0.587796
400,-1.2,0.587796
401,-1.199,0.587796
402,-1.198,0.587796
403,-1.197,0.587796
404,-1.196,0.587796
405,-1.195,0.587796
406,-1.194,0.591274
407,-1.193,0.587796
408,-1.192,0.587796
409,-1.191,0.587796
410,-1.19,0.589535
411,-1.189,0.587796
412,-1.188,0.587796
413,-1.187,0.589535
414,-1.186,0.589535
415,-1.185,0.586057
416,-1.184,0.586057
417,-1.183,0.586057
418,-1.182,0.587796
419,-1.181,0.586057
420,-1.18,0.586057
421,-1.179,0.587796
422,-1.178,0.587796
423,-1.177,0.586057
424,-1.176,0.586057
425,-1.175,0.586057
426,-1.174,0.587796
427,-1.173,0.586057
428,-1.172,0.586057
429,-1.171,0.586057
430,-1.17,0.587796
431,-1.169,0.586057
432,-1.168,0.584318
433,-1.167,0.586057
434,-1.166,0.586057
435,-1.165,0.586057
436,-1.164,0.586057
437,-1.163,0.587796
438,-1.162,0.587796
439,-1.161,0.587796
440,-1.16,0.586057
441,-1.159,0.587796
442,-1.158,0.587796
443,-1.157,0.587796
444,-1.156,0.586057
445,-1.155,0.587796
446,-1.154,0.587796
447,-1.153,0.586057
448,-1.152,0.586057
449,-1.151,0.586057
450,-1.15,0.586057
451,-1.149,0.586057
452,-1.148,0.586057
453,-1.147,0.587796
454,-1.146,0.587796
455,-1.145,0.587796
456,-1.144,0.587796
457,-1.143,0.587796
458,-1.142,0.589535
459,-1.141,0.587796
460,-1.14,0.587796
461,-1.139,0.587796
462,-1.138,0.589535
463,-1.137,0.587796
464,-1.136,0.586057
465,-1.135,0.586057
466,-1.134,0.587796
467,-1.133,0.587796
468,-1.132,0.586057
469,-1.131,0.587796
470,-1.13,0.587796
471,-1.129,0.587796
472,-1.128,0.586057
473,-1.127,0.587796
474,-1.126,0.587796
475,-1.125,0.587796
476,-1.124,0.587796
477,-1.123,0.589535
478,-1.122,0.589535
479,-1.121,0.589535
480,-1.12,0.586057
481,-1.119,0.586057
482,-1.118,0.586057
483,-1.117,0.586057
484,-1.116,0.586057
485,-1.115,0.586057
486,-1.114,0.587796
487,-1.113,0.586057
488,-1.112,0.586057
489,-1.111,0.586057
490,-1.11,0.586057
491,-1.109,0.586057
492,-1.108,0.586057
493,-1.107,0.587796
494,-1.106,0.587796
495,-1.105,0.587796
496,-1.104,0.586057
497,-1.103,0.586057
498,-1.102,0.587796
499,-1.101,0.587796
500,-1.1,0.584318
501,-1.099,0.582579
502,-1.098,0.582579
503,-1.097,0.579102
504,-1.096,0.579102
505,-1.095,0.579102
506,-1.094,0.579102
507,-1.093,0.579102
508,-1.092,0.579102
509,-1.091,0.579102
510,-1.09,0.579102
511,-1.089,0.579102
512,-1.088,0.579102
513,-1.087,0.579102
514,-1.086,0.579102
515,-1.085,0.582579
516,-1.084,0.579102
517,-1.083,0.579102
518,-1.082,0.582579
519,-1.081,0.582579
520,-1.08,0.582579
521,-1.079,0.582579
522,-1.078,0.582579
523,-1.077,0.582579
524,-1.076,0.582579
525,-1.075,0.582579
526,-1.074,0.582579
527,-1.073,0.582579
528,-1.072,0.579102
529,-1.071,0.579102
530,-1.07,0.579102
531,-1.069,0.584318
532,-1.068,0.579102
533,-1.067,0.579102
534,-1.066,0.582579
535,-1.065,0.582579
536,-1.064,0.582579
537,-1.063,0.582579
538,-1.062,0.582579
539,-1.061,0.584318
540,-1.06,0.582579
541,-1.059,0.582579
542,-1.058,0.584318
543,-1.057,0.586057
544,-1.056,0.579102
545,-1.055,0.575624
546,-1.054,0.579102
547,-1.053,0.579102
548,-1.052,0.579102
549,-1.051,0.579102
550,-1.05,0.579102
551,-1.049,0.579102
552,-1.048,0.579102
553,-1.047,0.579102
554,-1.046,0.579102
555,-1.045,0.582579
556,-1.044,0.582579
557,-1.043,0.582579
558,-1.042,0.582579
559,-1.041,0.584318
560,-1.04,0.582579
561,-1.039,0.579102
562,-1.038,0.579102
563,-1.037,0.582579
564,-1.036,0.579102
565,-1.035,0.579102
566,-1.034,0.579102
567,-1.033,0.584318
568,-1.032,0.579102
569,-1.031,0.579102
570,-1.03,0.579102
571,-1.029,0.579102
572,-1.028,0.579102
573,-1.027,0.579102
574,-1.026,0.582579
575,-1.025,0.582579
576,-1.024,0.582579
577,-1.023,0.577363
578,-1.022,0.582579
579,-1.021,0.582579
580,-1.02,0.582579
581,-1.019,0.582579
582,-1.018,0.582579
583,-1.017,0.582579
584,-1.016,0.582579
585,-1.015,0.577363
586,-1.014,0.582579
587,-1.013,0.582579
588,-1.012,0.582579
589,-1.011,0.582579
590,-1.01,0.582579
591,-1.009,0.586057
592,-1.008,0.579102
593,-1.007,0.579102
594,-1.006,0.582579
595,-1.005,0.582579
596,-1.004,0.582579
597,-1.003,0.582579
598,-1.002,0.582579
599,-1.001,0.584318
600,-1,0.582579
601,-0.999,0.582579
602,-0.998,0.582579
603,-0.997,0.584318
604,-0.996,0.584318
605,-0.995,0.582579
606,-0.994,0.582579
607,-0.993,0.584318
608,-0.992,0.579102
609,-0.991,0.577363
610,-0.99,0.579102
611,-0.989,0.579102
612,-0.988,0.579102
613,-0.987,0.579102
614,-0.986,0.579102
615,-0.985,0.582579
616,-0.984,0.579102
617,-0.983,0.579102
618,-0.982,0.582579
619,-0.981,0.582579
620,-0.98,0.582579
621,-0.979,0.582579
622,-0.978,0.582579
623,-0.977,0.586057
624,-0.976,0.582579
625,-0.975,0.579102
626,-0.974,0.579102
627,-0.973,0.582579
628,-0.972,0.579102
629,-0.971,0.579102
630,-0.97,0.579102
631,-0.969,0.579102
632,-0.968,0.579102
633,-0.967,0.579102
634,-0.966,0.579102
635,-0.965,0.582579
636,-0.964,0.582579
637,-0.963,0.582579
638,-0.962,0.582579
639,-0.961,0.584318
640,-0.96,0.582579
641,-0.959,0.582579
642,-0.958,0.582579
643,-0.957,0.582579
644,-0.956,0.582579
645,-0.955,0.582579
646,-0.954,0.582579
647,-0.953,0.582579
648,-0.952,0.582579
649,-0.951,0.579102
650,-0.95,0.579102
651,-0.949,0.582579
652,-0.948,0.582579
653,-0.947,0.582579
654,-0.946,0.582579
655,-0.945,0.584318
656,-0.944,0.582579
657,-0.943,0.582579
658,-0.942,0.582579
659,-0.941,0.582579
660,-0.94,0.582579
661,-0.939,0.582579
662,-0.938,0.582579
663,-0.937,0.584318
664,-0.936,0.582579
665,-0.935,0.582579
666,-0.934,0.582579
667,-0.933,0.582579
668,-0.932,0.582579
669,-0.931,0.582579
670,-0.93,0.582579
671,-0.929,0.584318
672,-0.928,0.584318
673,-0.927,0.579102
674,-0.926,0.579102
675,-0.925,0.579102
676,-0.924,0.582579
677,-0.923,0.579102
678,-0.922,0.579102
679,-0.921,0.582579
680,-0.92,0.582579
681,-0.919,0.579102
682,-0.918,0.579102
683,-0.917,0.582579
684,-0.916,0.582579
685,-0.915,0.582579
686,-0.914,0.579102
687,-0.913,0.582579
688,-0.912,0.579102
689,-0.911,0.579102
690,-0.91,0.579102
691,-0.909,0.579102
692,-0.908,0.584318
693,-0.907,0.579102
694,-0.906,0.579102
695,-0.905,0.582579
696,-0.904,0.582579
697,-0.903,0.579102
698,-0.902,0.582579
699,-0.901,0.582579
700,-0.9,0.582579
701,-0.899,0.582579
702,-0.898,0.582579
703,-0.897,0.589535
704,-0.896,0.589535
705,-0.895,0.587796
706,-0.894,0.587796
707,-0.893,0.587796
708,-0.892,0.587796
709,-0.891,0.587796
710,-0.89,0.587796
711,-0.889,0.587796
712,-0.888,0.587796
713,-0.887,0.587796
714,-0.886,0.587796
715,-0.885,0.587796
716,-0.884,0.589535
717,-0.883,0.589535
718,-0.882,0.589535
719,-0.881,0.589535
720,-0.88,0.591274
721,-0.879,0.589535
722,-0.878,0.587796
723,-0.877,0.587796
724,-0.876,0.589535
725,-0.875,0.589535
726,-0.874,0.589535
727,-0.873,0.589535
728,-0.872,0.589535
729,-0.871,0.587796
730,-0.87,0.587796
731,-0.869,0.589535
732,-0.868,0.589535
733,-0.867,0.589535
734,-0.866,0.589535
735,-0.865,0.589535
736,-0.864,0.591274
737,-0.863,0.587796
738,-0.862,0.587796
739,-0.861,0.587796
740,-0.86,0.591274
741,-0.859,0.586057
742,-0.858,0.589535
743,-0.857,0.589535
744,-0.856,0.589535
745,-0.855,0.587796
746,-0.854,0.587796
747,-0.853,0.587796
748,-0.852,0.587796
749,-0.851,0.587796
750,-0.85,0.587796
751,-0.849,0.589535
752,-0.848,0.589535
753,-0.847,0.587796
754,-0.846,0.587796
755,-0.845,0.587796
756,-0.844,0.589535
757,-0.843,0.589535
758,-0.842,0.589535
759,-0.841,0.589535
760,-0.84,0.591274
761,-0.839,0.589535
762,-0.838,0.589535
763,-0.837,0.589535
764,-0.836,0.589535
765,-0.835,0.589535
766,-0.834,0.589535
767,-0.833,0.589535
768,-0.832,0.589535
769,-0.831,0.587796
770,-0.83,0.587796
771,-0.829,0.587796
772,-0.828,0.589535
773,-0.827,0.589535
774,-0.826,0.589535
775,-0.825,0.589535
776,-0.824,0.591274
777,-0.823,0.589535
778,-0.822,0.589535
779,-0.821,0.589535
780,-0.82,0.591274
781,-0.819,0.589535
782,-0.818,0.591274
783,-0.817,0.591274
784,-0.816,0.591274
785,-0.815,0.589535
786,-0.814,0.589535
787,-0.813,0.589535
788,-0.812,0.589535
789,-0.811,0.589535
790,-0.81,0.589535
791,-0.809,0.589535
792,-0.808,0.591274
793,-0.807,0.589535
794,-0.806,0.589535
795,-0.805,0.589535
796,-0.804,0.591274
797,-0.803,0.591274
798,-0.802,0.591274
799,-0.801,0.591274
800,-0.8,0.591274
801,-0.799,0.587796
802,-0.798,0.586057
803,-0.797,0.586057
804,-0.796,0.587796
805,-0.795,0.586057
806,-0.794,0.586057
807,-0.793,0.586057
808,-0.792,0.587796
809,-0.791,0.586057
810,-0.79,0.586057
811,-0.789,0.586057
812,-0.788,0.586057
813,-0.787,0.587796
814,-0.786,0.587796
815,-0.785,0.587796
816,-0.784,0.589535
817,-0.783,0.587796
818,-0.782,0.586057
819,-0.781,0.587796
820,-0.78,0.587796
821,-0.779,0.587796
822,-0.778,0.587796
823,-0.777,0.587796
824,-0.776,0.587796
825,-0.775,0.587796
826,-0.774,0.586057
827,-0.773,0.587796
828,-0.772,0.587796
829,-0.771,0.587796
830,-0.77,0.587796
831,-0.769,0.587796
832,-0.768,0.587796
833,-0.767,0.587796
834,-0.766,0.586057
835,-0.765,0.587796
836,-0.764,0.587796
837,-0.763,0.587796
838,-0.762,0.587796
839,-0.761,0.589535
840,-0.76,0.587796
841,-0.759,0.587796
842,-0.758,0.587796
843,-0.757,0.587796
844,-0.756,0.587796
845,-0.755,0.587796
846,-0.754,0.587796
847,-0.753,0.587796
848,-0.752,0.587796
849,-0.751,0.587796
850,-0.75,0.586057
851,-0.749,0.586057
852,-0.748,0.587796
853,-0.747,0.587796
854,-0.746,0.587796
855,-0.745,0.587796
856,-0.744,0.587796
857,-0.743,0.587796
858,-0.742,0.587796
859,-0.741,0.587796
860,-0.74,0.589535
861,-0.739,0.589535
862,-0.738,0.589535
863,-0.737,0.589535
864,-0.736,0.589535
865,-0.735,0.589535
866,-0.734,0.586057
867,-0.733,0.586057
868,-0.732,0.586057
869,-0.731,0.586057
870,-0.73,0.586057
871,-0.729,0.587796
872,-0.728,0.587796
873,-0.727,0.587796
874,-0.726,0.586057
875,-0.725,0.587796
876,-0.724,0.587796
877,-0.723,0.587796
878,-0.722,0.587796
879,-0.721,0.589535
880,-0.72,0.589535
881,-0.719,0.587796
882,-0.718,0.587796
883,-0.717,0.587796
884,-0.716,0.587796
885,-0.715,0.587796
886,-0.714,0.587796
887,-0.713,0.587796
888,-0.712,0.587796
889,-0.711,0.587796
890,-0.71,0.587796
891,-0.709,0.587796
892,-0.708,0.587796
893,-0.707,0.587796
894,-0.706,0.587796
895,-0.705,0.589535
896,-0.704,0.589535
897,-0.703,0.589535
898,-0.702,0.587796
899,-0.701,0.587796
900,-0.7,0.587796
901,-0.699,0.591274
902,-0.698,0.586057
903,-0.697,0.591274
904,-0.696,0.587796
905,-0.695,0.582579
906,-0.694,0.579102
907,-0.693,0.579102
908,-0.692,0.579102
909,-0.691,0.584318
910,-0.69,0.579102
911,-0.689,0.582579
912,-0.688,0.582579
913,-0.687,0.582579
914,-0.686,0.579102
915,-0.685,0.579102
916,-0.684,0.582579
917,-0.683,0.582579
918,-0.682,0.582579
919,-0.681,0.582579
920,-0.68,0.584318
921,-0.679,0.582579
922,-0.678,0.582579
923,-0.677,0.582579
924,-0.676,0.582579
925,-0.675,0.582579
926,-0.674,0.582579
927,-0.673,0.582579
928,-0.672,0.582579
929,-0.671,0.584318
930,-0.67,0.577363
931,-0.669,0.577363
932,-0.668,0.579102
933,-0.667,0.579102
934,-0.666,0.579102
935,-0.665,0.579102
936,-0.664,0.579102
937,-0.663,0.582579
938,-0.662,0.579102
939,-0.661,0.579102
940,-0.66,0.579102
941,-0.659,0.582579
942,-0.658,0.579102
943,-0.657,0.582579
944,-0.656,0.582579
945,-0.655,0.582579
946,-0.654,0.579102
947,-0.653,0.579102
948,-0.652,0.579102
949,-0.651,0.579102
950,-0.65,0.579102
951,-0.649,0.579102
952,-0.648,0.582579
953,-0.647,0.582579
954,-0.646,0.582579
955,-0.645,0.582579
956,-0.644,0.582579
957,-0.643,0.582579
958,-0.642,0.582579
959,-0.641,0.582579
960,-0.64,0.584318
961,-0.639,0.584318
962,-0.638,0.582579
963,-0.637,0.577363
964,-0.636,0.582579
965,-0.635,0.582579
966,-0.634,0.582579
967,-0.633,0.582579
968,-0.632,0.582579
969,-0.631,0.582579
970,-0.63,0.579102
971,-0.629,0.579102
972,-0.628,0.579102
973,-0.627,0.582579
974,-0.626,0.582579
975,-0.625,0.582579
976,-0.624,0.582579
977,-0.623,0.584318
978,-0.622,0.582579
979,-0.621,0.582579
980,-0.62,0.582579
981,-0.619,0.582579
982,-0.618,0.582579
983,-0.617,0.582579
984,-0.616,0.582579
985,-0.615,0.584318
986,-0.614,0.582579
987,-0.613,0.582579
988,-0.612,0.582579
989,-0.611,0.582579
990,-0.61,0.582579
991,-0.609,0.582579
992,-0.608,0.584318
993,-0.607,0.584318
994,-0.606,0.582579
995,-0.605,0.579102
996,-0.604,0.579102
997,-0.603,0.582579
998,-0.602,0.582579
999,-0.601,0.582579
1000,-0.6,0.582579
1001,-0.599,0.582579
