mcu/power_measurement/mcu/mst_clk/mcu_clk_70MHz.csv

;Scopy version,438f138
;Exported on,samedi décembre 14/12/2024
;Device,M2K
;Nr of samples,3200
;Sample rate,1000
;Tool,Oscilloscope
;Additional Information,
Sample,Time(S),CH1(V)
0,-1.6,0.862566
1,-1.599,0.862566
2,-1.598,0.860828
3,-1.597,0.860828
4,-1.596,0.860828
5,-1.595,0.860828
6,-1.594,0.860828
7,-1.593,0.864305
8,-1.592,0.864305
9,-1.591,0.864305
10,-1.59,0.860828
11,-1.589,0.860828
12,-1.588,0.862566
13,-1.587,0.862566
14,-1.586,0.862566
15,-1.585,0.862566
16,-1.584,0.864305
17,-1.583,0.862566
18,-1.582,0.862566
19,-1.581,0.860828
20,-1.58,0.862566
21,-1.579,0.862566
22,-1.578,0.862566
23,-1.577,0.862566
24,-1.576,0.864305
25,-1.575,0.864305
26,-1.574,0.860828
27,-1.573,0.860828
28,-1.572,0.862566
29,-1.571,0.862566
30,-1.57,0.862566
31,-1.569,0.864305
32,-1.568,0.864305
33,-1.567,0.866044
34,-1.566,0.862566
35,-1.565,0.862566
36,-1.564,0.862566
37,-1.563,0.862566
38,-1.562,0.862566
39,-1.561,0.862566
40,-1.56,0.864305
41,-1.559,0.864305
42,-1.558,0.859089
43,-1.557,0.859089
44,-1.556,0.859089
45,-1.555,0.862566
46,-1.554,0.860828
47,-1.553,0.860828
48,-1.552,0.864305
49,-1.551,0.864305
50,-1.55,0.860828
51,-1.549,0.860828
52,-1.548,0.860828
53,-1.547,0.862566
54,-1.546,0.860828
55,-1.545,0.864305
56,-1.544,0.862566
57,-1.543,0.862566
58,-1.542,0.859089
59,-1.541,0.859089
60,-1.54,0.860828
61,-1.539,0.860828
62,-1.538,0.860828
63,-1.537,0.860828
64,-1.536,0.864305
65,-1.535,0.864305
66,-1.534,0.860828
67,-1.533,0.860828
68,-1.532,0.862566
69,-1.531,0.862566
70,-1.53,0.862566
71,-1.529,0.862566
72,-1.528,0.864305
73,-1.527,0.862566
74,-1.526,0.862566
75,-1.525,0.860828
76,-1.524,0.862566
77,-1.523,0.862566
78,-1.522,0.862566
79,-1.521,0.862566
80,-1.52,0.864305
81,-1.519,0.862566
82,-1.518,0.862566
83,-1.517,0.860828
84,-1.516,0.864305
85,-1.515,0.862566
86,-1.514,0.862566
87,-1.513,0.862566
88,-1.512,0.864305
89,-1.511,0.866044
90,-1.51,0.862566
91,-1.509,0.859089
92,-1.508,0.864305
93,-1.507,0.862566
94,-1.506,0.862566
95,-1.505,0.866044
96,-1.504,0.864305
97,-1.503,0.866044
98,-1.502,0.862566
99,-1.501,0.862566
100,-1.5,0.862566
101,-1.499,0.862566
102,-1.498,0.862566
103,-1.497,0.864305
104,-1.496,0.864305
105,-1.495,0.866044
106,-1.494,0.860828
107,-1.493,0.859089
108,-1.492,0.859089
109,-1.491,0.859089
110,-1.49,0.859089
111,-1.489,0.860828
112,-1.488,0.859089
113,-1.487,0.860828
114,-1.486,0.859089
115,-1.485,0.859089
116,-1.484,0.859089
117,-1.483,0.862566
118,-1.482,0.860828
119,-1.481,0.860828
120,-1.48,0.860828
121,-1.479,0.862566
122,-1.478,0.859089
123,-1.477,0.859089
124,-1.476,0.859089
125,-1.475,0.860828
126,-1.474,0.855611
127,-1.473,0.862566
128,-1.472,0.860828
129,-1.471,0.864305
130,-1.47,0.860828
131,-1.469,0.860828
132,-1.468,0.860828
133,-1.467,0.864305
134,-1.466,0.862566
135,-1.465,0.862566
136,-1.464,0.862566
137,-1.463,0.864305
138,-1.462,0.860828
139,-1.461,0.860828
140,-1.46,0.859089
141,-1.459,0.862566
142,-1.458,0.860828
143,-1.457,0.860828
144,-1.456,0.860828
145,-1.455,0.864305
146,-1.454,0.860828
147,-1.453,0.860828
148,-1.452,0.860828
149,-1.451,0.864305
150,-1.45,0.862566
151,-1.449,0.864305
152,-1.448,0.864305
153,-1.447,0.866044
154,-1.446,0.862566
155,-1.445,0.862566
156,-1.444,0.862566
157,-1.443,0.862566
158,-1.442,0.862566
159,-1.441,0.862566
160,-1.44,0.864305
161,-1.439,0.864305
162,-1.438,0.862566
163,-1.437,0.862566
164,-1.436,0.862566
165,-1.435,0.866044
166,-1.434,0.864305
167,-1.433,0.864305
168,-1.432,0.866044
169,-1.431,0.866044
170,-1.43,0.862566
171,-1.429,0.859089
172,-1.428,0.859089
173,-1.427,0.859089
174,-1.426,0.859089
175,-1.425,0.860828
176,-1.424,0.860828
177,-1.423,0.862566
178,-1.422,0.859089
179,-1.421,0.859089
180,-1.42,0.859089
181,-1.419,0.862566
182,-1.418,0.860828
183,-1.417,0.860828
184,-1.416,0.860828
185,-1.415,0.864305
186,-1.414,0.859089
187,-1.413,0.860828
188,-1.412,0.855611
189,-1.411,0.862566
190,-1.41,0.860828
191,-1.409,0.860828
192,-1.408,0.860828
193,-1.407,0.864305
194,-1.406,0.860828
195,-1.405,0.860828
196,-1.404,0.860828
197,-1.403,0.864305
198,-1.402,0.862566
199,-1.401,0.862566
200,-1.4,0.862566
201,-1.399,0.864305
202,-1.398,0.862566
203,-1.397,0.860828
204,-1.396,0.860828
205,-1.395,0.860828
206,-1.394,0.860828
207,-1.393,0.862566
208,-1.392,0.862566
209,-1.391,0.864305
210,-1.39,0.860828
211,-1.389,0.864305
212,-1.388,0.862566
213,-1.387,0.862566
214,-1.386,0.862566
215,-1.385,0.864305
216,-1.384,0.864305
217,-1.383,0.864305
218,-1.382,0.864305
219,-1.381,0.862566
220,-1.38,0.860828
221,-1.379,0.864305
222,-1.378,0.862566
223,-1.377,0.862566
224,-1.376,0.862566
225,-1.375,0.864305
226,-1.374,0.864305
227,-1.373,0.862566
228,-1.372,0.862566
229,-1.371,0.866044
230,-1.37,0.864305
231,-1.369,0.864305
232,-1.368,0.867783
233,-1.367,0.866044
234,-1.366,0.862566
235,-1.365,0.862566
236,-1.364,0.859089
237,-1.363,0.859089
238,-1.362,0.859089
239,-1.361,0.860828
240,-1.36,0.859089
241,-1.359,0.860828
242,-1.358,0.860828
243,-1.357,0.859089
244,-1.356,0.859089
245,-1.355,0.862566
246,-1.354,0.860828
247,-1.353,0.862566
248,-1.352,0.862566
249,-1.351,0.862566
250,-1.35,0.862566
251,-1.349,0.860828
252,-1.348,0.860828
253,-1.347,0.860828
254,-1.346,0.860828
255,-1.345,0.862566
256,-1.344,0.862566
257,-1.343,0.862566
258,-1.342,0.862566
259,-1.341,0.860828
260,-1.34,0.860828
261,-1.339,0.864305
262,-1.338,0.862566
263,-1.337,0.862566
264,-1.336,0.862566
265,-1.335,0.866044
266,-1.334,0.862566
267,-1.333,0.860828
268,-1.332,0.860828
269,-1.331,0.862566
270,-1.33,0.862566
271,-1.329,0.862566
272,-1.328,0.862566
273,-1.327,0.866044
274,-1.326,0.862566
275,-1.325,0.862566
276,-1.324,0.862566
277,-1.323,0.862566
278,-1.322,0.862566
279,-1.321,0.864305
280,-1.32,0.864305
281,-1.319,0.864305
282,-1.318,0.864305
283,-1.317,0.862566
284,-1.316,0.862566
285,-1.315,0.862566
286,-1.314,0.862566
287,-1.313,0.864305
288,-1.312,0.864305
289,-1.311,0.866044
290,-1.31,0.864305
291,-1.309,0.862566
292,-1.308,0.864305
293,-1.307,0.864305
294,-1.306,0.864305
295,-1.305,0.866044
296,-1.304,0.866044
297,-1.303,0.866044
298,-1.302,0.862566
299,-1.301,0.859089
300,-1.3,0.855611
301,-1.299,0.855611
302,-1.298,0.855611
303,-1.297,0.855611
304,-1.296,0.855611
305,-1.295,0.859089
306,-1.294,0.859089
307,-1.293,0.855611
308,-1.292,0.855611
309,-1.291,0.860828
310,-1.29,0.859089
311,-1.289,0.859089
312,-1.288,0.860828
313,-1.287,0.860828
314,-1.286,0.859089
315,-1.285,0.853872
316,-1.284,0.860828
317,-1.283,0.859089
318,-1.282,0.859089
319,-1.281,0.859089
320,-1.28,0.860828
321,-1.279,0.860828
322,-1.278,0.860828
323,-1.277,0.859089
324,-1.276,0.859089
325,-1.275,0.859089
326,-1.274,0.859089
327,-1.273,0.860828
328,-1.272,0.860828
329,-1.271,0.862566
330,-1.27,0.859089
331,-1.269,0.859089
332,-1.268,0.859089
333,-1.267,0.860828
334,-1.266,0.859089
335,-1.265,0.860828
336,-1.264,0.860828
337,-1.263,0.862566
338,-1.262,0.859089
339,-1.261,0.859089
340,-1.26,0.859089
341,-1.259,0.859089
342,-1.258,0.859089
343,-1.257,0.859089
344,-1.256,0.862566
345,-1.255,0.860828
346,-1.254,0.860828
347,-1.253,0.859089
348,-1.252,0.859089
349,-1.251,0.862566
350,-1.25,0.860828
351,-1.249,0.860828
352,-1.248,0.864305
353,-1.247,0.862566
354,-1.246,0.862566
355,-1.245,0.860828
356,-1.244,0.860828
357,-1.243,0.860828
358,-1.242,0.860828
359,-1.241,0.860828
360,-1.24,0.864305
361,-1.239,0.862566
362,-1.238,0.860828
363,-1.237,0.855611
364,-1.236,0.855611
365,-1.235,0.860828
366,-1.234,0.859089
367,-1.233,0.859089
368,-1.232,0.860828
369,-1.231,0.860828
370,-1.23,0.860828
371,-1.229,0.859089
372,-1.228,0.859089
373,-1.227,0.859089
374,-1.226,0.859089
375,-1.225,0.859089
376,-1.224,0.860828
377,-1.223,0.860828
378,-1.222,0.860828
379,-1.221,0.855611
380,-1.22,0.860828
381,-1.219,0.859089
382,-1.218,0.859089
383,-1.217,0.859089
384,-1.216,0.860828
385,-1.215,0.860828
386,-1.214,0.860828
387,-1.213,0.859089
388,-1.212,0.860828
389,-1.211,0.860828
390,-1.21,0.860828
391,-1.209,0.860828
392,-1.208,0.860828
393,-1.207,0.862566
394,-1.206,0.862566
395,-1.205,0.859089
396,-1.204,0.860828
397,-1.203,0.860828
398,-1.202,0.860828
399,-1.201,0.860828
400,-1.2,0.860828
401,-1.199,0.862566
402,-1.198,0.862566
403,-1.197,0.860828
404,-1.196,0.860828
405,-1.195,0.860828
406,-1.194,0.860828
407,-1.193,0.860828
408,-1.192,0.864305
409,-1.191,0.862566
410,-1.19,0.862566
411,-1.189,0.860828
412,-1.188,0.860828
413,-1.187,0.862566
414,-1.186,0.864305
415,-1.185,0.860828
416,-1.184,0.862566
417,-1.183,0.862566
418,-1.182,0.864305
419,-1.181,0.860828
420,-1.18,0.860828
421,-1.179,0.864305
422,-1.178,0.862566
423,-1.177,0.862566
424,-1.176,0.862566
425,-1.175,0.864305
426,-1.174,0.860828
427,-1.173,0.859089
428,-1.172,0.859089
429,-1.171,0.859089
430,-1.17,0.859089
431,-1.169,0.859089
432,-1.168,0.860828
433,-1.167,0.860828
434,-1.166,0.860828
435,-1.165,0.859089
436,-1.164,0.859089
437,-1.163,0.859089
438,-1.162,0.859089
439,-1.161,0.859089
440,-1.16,0.859089
441,-1.159,0.860828
442,-1.158,0.860828
443,-1.157,0.855611
444,-1.156,0.859089
445,-1.155,0.859089
446,-1.154,0.859089
447,-1.153,0.859089
448,-1.152,0.860828
449,-1.151,0.860828
450,-1.15,0.862566
451,-1.149,0.859089
452,-1.148,0.859089
453,-1.147,0.862566
454,-1.146,0.860828
455,-1.145,0.860828
456,-1.144,0.860828
457,-1.143,0.860828
458,-1.142,0.862566
459,-1.141,0.859089
460,-1.14,0.859089
461,-1.139,0.859089
462,-1.138,0.859089
463,-1.137,0.859089
464,-1.136,0.862566
465,-1.135,0.860828
466,-1.134,0.862566
467,-1.133,0.859089
468,-1.132,0.862566
469,-1.131,0.860828
470,-1.13,0.860828
471,-1.129,0.860828
472,-1.128,0.860828
473,-1.127,0.862566
474,-1.126,0.862566
475,-1.125,0.859089
476,-1.124,0.862566
477,-1.123,0.860828
478,-1.122,0.860828
479,-1.121,0.860828
480,-1.12,0.862566
481,-1.119,0.862566
482,-1.118,0.864305
483,-1.117,0.860828
484,-1.116,0.860828
485,-1.115,0.862566
486,-1.114,0.862566
487,-1.113,0.862566
488,-1.112,0.862566
489,-1.111,0.864305
490,-1.11,0.864305
491,-1.109,0.859089
492,-1.108,0.859089
493,-1.107,0.862566
494,-1.106,0.860828
495,-1.105,0.860828
496,-1.104,0.860828
497,-1.103,0.862566
498,-1.102,0.862566
499,-1.101,0.859089
500,-1.1,0.862566
501,-1.099,0.860828
502,-1.098,0.862566
503,-1.097,0.855611
504,-1.096,0.862566
505,-1.095,0.860828
506,-1.094,0.862566
507,-1.093,0.859089
508,-1.092,0.859089
509,-1.091,0.860828
510,-1.09,0.860828
511,-1.089,0.859089
512,-1.088,0.859089
513,-1.087,0.860828
514,-1.086,0.860828
515,-1.085,0.859089
516,-1.084,0.859089
517,-1.083,0.860828
518,-1.082,0.860828
519,-1.081,0.859089
520,-1.08,0.860828
521,-1.079,0.860828
522,-1.078,0.862566
523,-1.077,0.859089
524,-1.076,0.859089
525,-1.075,0.860828
526,-1.074,0.860828
527,-1.073,0.855611
528,-1.072,0.862566
529,-1.071,0.862566
530,-1.07,0.862566
531,-1.069,0.860828
532,-1.068,0.860828
533,-1.067,0.862566
534,-1.066,0.862566
535,-1.065,0.859089
536,-1.064,0.864305
537,-1.063,0.862566
538,-1.062,0.864305
539,-1.061,0.855611
540,-1.06,0.859089
541,-1.059,0.862566
542,-1.058,0.862566
543,-1.057,0.855611
544,-1.056,0.862566
545,-1.055,0.860828
546,-1.054,0.862566
547,-1.053,0.859089
548,-1.052,0.862566
549,-1.051,0.862566
550,-1.05,0.862566
551,-1.049,0.859089
552,-1.048,0.864305
553,-1.047,0.864305
554,-1.046,0.864305
555,-1.045,0.855611
556,-1.044,0.859089
557,-1.043,0.859089
558,-1.042,0.859089
559,-1.041,0.855611
560,-1.04,0.860828
561,-1.039,0.859089
562,-1.038,0.860828
563,-1.037,0.855611
564,-1.036,0.859089
565,-1.035,0.859089
566,-1.034,0.862566
567,-1.033,0.855611
568,-1.032,0.862566
569,-1.031,0.860828
570,-1.03,0.862566
571,-1.029,0.859089
572,-1.028,0.859089
573,-1.027,0.860828
574,-1.026,0.860828
575,-1.025,0.859089
576,-1.024,0.859089
577,-1.023,0.860828
578,-1.022,0.860828
579,-1.021,0.859089
580,-1.02,0.859089
581,-1.019,0.859089
582,-1.018,0.862566
583,-1.017,0.859089
584,-1.016,0.860828
585,-1.015,0.860828
586,-1.014,0.864305
587,-1.013,0.859089
588,-1.012,0.860828
589,-1.011,0.860828
590,-1.01,0.860828
591,-1.009,0.860828
592,-1.008,0.860828
593,-1.007,0.862566
594,-1.006,0.862566
595,-1.005,0.860828
596,-1.004,0.860828
597,-1.003,0.860828
598,-1.002,0.864305
599,-1.001,0.859089
600,-1,0.864305
601,-0.999,0.862566
602,-0.998,0.864305
603,-0.997,0.860828
604,-0.996,0.860828
605,-0.995,0.860828
606,-0.994,0.864305
607,-0.993,0.860828
608,-0.992,0.860828
609,-0.991,0.864305
610,-0.99,0.864305
611,-0.989,0.860828
612,-0.988,0.860828
613,-0.987,0.864305
614,-0.986,0.862566
615,-0.985,0.862566
616,-0.984,0.862566
617,-0.983,0.866044
618,-0.982,0.866044
619,-0.981,0.859089
620,-0.98,0.859089
621,-0.979,0.859089
622,-0.978,0.862566
623,-0.977,0.859089
624,-0.976,0.859089
625,-0.975,0.862566
626,-0.974,0.862566
627,-0.973,0.859089
628,-0.972,0.859089
629,-0.971,0.862566
630,-0.97,0.862566
631,-0.969,0.860828
632,-0.968,0.860828
633,-0.967,0.864305
634,-0.966,0.862566
635,-0.965,0.859089
636,-0.964,0.859089
637,-0.963,0.860828
638,-0.962,0.860828
639,-0.961,0.859089
640,-0.96,0.859089
641,-0.959,0.860828
642,-0.958,0.860828
643,-0.957,0.859089
644,-0.956,0.859089
645,-0.955,0.860828
646,-0.954,0.860828
647,-0.953,0.860828
648,-0.952,0.860828
649,-0.951,0.864305
650,-0.95,0.864305
651,-0.949,0.860828
652,-0.948,0.860828
653,-0.947,0.860828
654,-0.946,0.864305
655,-0.945,0.860828
656,-0.944,0.862566
657,-0.943,0.862566
658,-0.942,0.862566
659,-0.941,0.862566
660,-0.94,0.860828
661,-0.939,0.862566
662,-0.938,0.862566
663,-0.937,0.862566
664,-0.936,0.862566
665,-0.935,0.864305
666,-0.934,0.864305
667,-0.933,0.860828
668,-0.932,0.860828
669,-0.931,0.864305
670,-0.93,0.862566
671,-0.929,0.862566
672,-0.928,0.862566
673,-0.927,0.862566
674,-0.926,0.866044
675,-0.925,0.862566
676,-0.924,0.862566
677,-0.923,0.862566
678,-0.922,0.866044
679,-0.921,0.862566
680,-0.92,0.864305
681,-0.919,0.864305
682,-0.918,0.864305
683,-0.917,0.860828
684,-0.916,0.859089
685,-0.915,0.859089
686,-0.914,0.862566
687,-0.913,0.859089
688,-0.912,0.860828
689,-0.911,0.860828
690,-0.91,0.862566
691,-0.909,0.859089
692,-0.908,0.860828
693,-0.907,0.860828
694,-0.906,0.862566
695,-0.905,0.860828
696,-0.904,0.860828
697,-0.903,0.862566
698,-0.902,0.862566
699,-0.901,0.859089
700,-0.9,0.859089
701,-0.899,0.859089
702,-0.898,0.860828
703,-0.897,0.860828
704,-0.896,0.859089
705,-0.895,0.860828
706,-0.894,0.860828
707,-0.893,0.860828
708,-0.892,0.860828
709,-0.891,0.860828
710,-0.89,0.862566
711,-0.889,0.860828
712,-0.888,0.862566
713,-0.887,0.862566
714,-0.886,0.866044
715,-0.885,0.860828
716,-0.884,0.860828
717,-0.883,0.860828
718,-0.882,0.862566
719,-0.881,0.862566
720,-0.88,0.862566
721,-0.879,0.862566
722,-0.878,0.862566
723,-0.877,0.862566
724,-0.876,0.860828
725,-0.875,0.864305
726,-0.874,0.862566
727,-0.873,0.862566
728,-0.872,0.862566
729,-0.871,0.864305
730,-0.87,0.864305
731,-0.869,0.864305
732,-0.868,0.860828
733,-0.867,0.862566
734,-0.866,0.862566
735,-0.865,0.862566
736,-0.864,0.862566
737,-0.863,0.864305
738,-0.862,0.864305
739,-0.861,0.864305
740,-0.86,0.862566
741,-0.859,0.862566
742,-0.858,0.864305
743,-0.857,0.864305
744,-0.856,0.862566
745,-0.855,0.866044
746,-0.854,0.864305
747,-0.853,0.860828
748,-0.852,0.859089
749,-0.851,0.862566
750,-0.85,0.862566
751,-0.849,0.860828
752,-0.848,0.860828
753,-0.847,0.864305
754,-0.846,0.864305
755,-0.845,0.862566
756,-0.844,0.860828
757,-0.843,0.862566
758,-0.842,0.862566
759,-0.841,0.862566
760,-0.84,0.862566
761,-0.839,0.862566
762,-0.838,0.864305
763,-0.837,0.860828
764,-0.836,0.860828
765,-0.835,0.860828
766,-0.834,0.862566
767,-0.833,0.862566
768,-0.832,0.862566
769,-0.831,0.862566
770,-0.83,0.864305
771,-0.829,0.864305
772,-0.828,0.862566
773,-0.827,0.862566
774,-0.826,0.864305
775,-0.825,0.864305
776,-0.824,0.862566
777,-0.823,0.864305
778,-0.822,0.864305
779,-0.821,0.862566
780,-0.82,0.860828
781,-0.819,0.862566
782,-0.818,0.862566
783,-0.817,0.862566
784,-0.816,0.862566
785,-0.815,0.864305
786,-0.814,0.864305
787,-0.813,0.864305
788,-0.812,0.862566
789,-0.811,0.864305
790,-0.81,0.864305
791,-0.809,0.864305
792,-0.808,0.864305
793,-0.807,0.864305
794,-0.806,0.866044
795,-0.805,0.862566
796,-0.804,0.862566
797,-0.803,0.862566
798,-0.802,0.864305
799,-0.801,0.864305
800,-0.8,0.862566
801,-0.799,0.866044
802,-0.798,0.864305
803,-0.797,0.866044
804,-0.796,0.862566
805,-0.795,0.864305
806,-0.794,0.864305
807,-0.793,0.864305
808,-0.792,0.864305
809,-0.791,0.866044
810,-0.79,0.866044
811,-0.789,0.864305
812,-0.788,0.860828
813,-0.787,0.860828
814,-0.786,0.860828
815,-0.785,0.860828
816,-0.784,0.860828
817,-0.783,0.860828
818,-0.782,0.862566
819,-0.781,0.862566
820,-0.78,0.860828
821,-0.779,0.860828
822,-0.778,0.862566
823,-0.777,0.862566
824,-0.776,0.860828
825,-0.775,0.862566
826,-0.774,0.862566
827,-0.773,0.862566
828,-0.772,0.859089
829,-0.771,0.860828
830,-0.77,0.860828
831,-0.769,0.862566
832,-0.768,0.860828
833,-0.767,0.862566
834,-0.766,0.862566
835,-0.765,0.864305
836,-0.764,0.860828
837,-0.763,0.860828
838,-0.762,0.864305
839,-0.761,0.864305
840,-0.76,0.860828
841,-0.759,0.860828
842,-0.758,0.862566
843,-0.757,0.862566
844,-0.756,0.859089
845,-0.755,0.862566
846,-0.754,0.860828
847,-0.753,0.862566
848,-0.752,0.860828
849,-0.751,0.862566
850,-0.75,0.862566
851,-0.749,0.864305
852,-0.748,0.860828
853,-0.747,0.862566
854,-0.746,0.862566
855,-0.745,0.862566
856,-0.744,0.862566
857,-0.743,0.862566
858,-0.742,0.864305
859,-0.741,0.864305
860,-0.74,0.860828
861,-0.739,0.860828
862,-0.738,0.862566
863,-0.737,0.864305
864,-0.736,0.860828
865,-0.735,0.862566
866,-0.734,0.864305
867,-0.733,0.864305
868,-0.732,0.862566
869,-0.731,0.862566
870,-0.73,0.864305
871,-0.729,0.864305
872,-0.728,0.862566
873,-0.727,0.866044
874,-0.726,0.864305
875,-0.725,0.864305
876,-0.724,0.859089
877,-0.723,0.859089
878,-0.722,0.862566
879,-0.721,0.860828
880,-0.72,0.860828
881,-0.719,0.860828
882,-0.718,0.862566
883,-0.717,0.862566
884,-0.716,0.860828
885,-0.715,0.860828
886,-0.714,0.864305
887,-0.713,0.862566
888,-0.712,0.862566
889,-0.711,0.862566
890,-0.71,0.864305
891,-0.709,0.864305
892,-0.708,0.860828
893,-0.707,0.860828
894,-0.706,0.862566
895,-0.705,0.862566
896,-0.704,0.860828
897,-0.703,0.862566
898,-0.702,0.862566
899,-0.701,0.864305
900,-0.7,0.860828
901,-0.699,0.860828
902,-0.698,0.864305
903,-0.697,0.862566
904,-0.696,0.862566
905,-0.695,0.862566
906,-0.694,0.862566
907,-0.693,0.864305
908,-0.692,0.860828
909,-0.691,0.860828
910,-0.69,0.864305
911,-0.689,0.862566
912,-0.688,0.862566
913,-0.687,0.862566
914,-0.686,0.862566
915,-0.685,0.864305
916,-0.684,0.860828
917,-0.683,0.862566
918,-0.682,0.862566
919,-0.681,0.862566
920,-0.68,0.862566
921,-0.679,0.862566
922,-0.678,0.864305
923,-0.677,0.864305
924,-0.676,0.860828
925,-0.675,0.864305
926,-0.674,0.862566
927,-0.673,0.862566
928,-0.672,0.862566
929,-0.671,0.866044
930,-0.67,0.864305
931,-0.669,0.866044
932,-0.668,0.862566
933,-0.667,0.864305
934,-0.666,0.864305
935,-0.665,0.864305
936,-0.664,0.864305
937,-0.663,0.864305
938,-0.662,0.864305
939,-0.661,0.864305
940,-0.66,0.860828
941,-0.659,0.859089
942,-0.658,0.860828
943,-0.657,0.860828
944,-0.656,0.860828
945,-0.655,0.860828
946,-0.654,0.860828
947,-0.653,0.862566
948,-0.652,0.859089
949,-0.651,0.862566
950,-0.65,0.860828
951,-0.649,0.862566
952,-0.648,0.860828
953,-0.647,0.864305
954,-0.646,0.862566
955,-0.645,0.864305
956,-0.644,0.860828
957,-0.643,0.860828
958,-0.642,0.860828
959,-0.641,0.864305
960,-0.64,0.860828
961,-0.639,0.862566
962,-0.638,0.862566
963,-0.637,0.864305
964,-0.636,0.860828
965,-0.635,0.862566
966,-0.634,0.862566
967,-0.633,0.862566
968,-0.632,0.862566
969,-0.631,0.866044
970,-0.63,0.864305
971,-0.629,0.866044
972,-0.628,0.862566
973,-0.627,0.862566
974,-0.626,0.862566
975,-0.625,0.864305
976,-0.624,0.862566
977,-0.623,0.864305
978,-0.622,0.862566
979,-0.621,0.864305
980,-0.62,0.860828
981,-0.619,0.864305
982,-0.618,0.862566
983,-0.617,0.862566
984,-0.616,0.862566
985,-0.615,0.866044
986,-0.614,0.864305
987,-0.613,0.866044
988,-0.612,0.862566
989,-0.611,0.862566
990,-0.61,0.864305
991,-0.609,0.864305
992,-0.608,0.864305
993,-0.607,0.864305
994,-0.606,0.864305
995,-0.605,0.866044
996,-0.604,0.862566
997,-0.603,0.864305
998,-0.602,0.862566
999,-0.601,0.864305
1000,-0.6,0.864305
1001,-0.599,0.864305
