mcu/report/power_measurement/mcu/mcu_2/mcu_2.csv

;Scopy version,438f138
;Exported on,samedi décembre 14/12/2024
;Device,M2K
;Nr of samples,3200
;Sample rate,1000
;Tool,Oscilloscope
;Additional Information,
Sample,Time(S),CH1(V)
0,-1.575,0.570407
1,-1.574,0.572146
2,-1.573,0.572146
3,-1.572,0.570407
4,-1.571,0.570407
5,-1.57,0.570407
6,-1.569,0.568669
7,-1.568,0.570407
8,-1.567,0.570407
9,-1.566,0.570407
10,-1.565,0.570407
11,-1.564,0.570407
12,-1.563,0.570407
13,-1.562,0.570407
14,-1.561,0.570407
15,-1.56,0.572146
16,-1.559,0.572146
17,-1.558,0.572146
18,-1.557,0.572146
19,-1.556,0.572146
20,-1.555,0.568669
21,-1.554,0.568669
22,-1.553,0.568669
23,-1.552,0.568669
24,-1.551,0.568669
25,-1.55,0.568669
26,-1.549,0.568669
27,-1.548,0.568669
28,-1.547,0.568669
29,-1.546,0.568669
30,-1.545,0.568669
31,-1.544,0.570407
32,-1.543,0.570407
33,-1.542,0.570407
34,-1.541,0.570407
35,-1.54,0.570407
36,-1.539,0.570407
37,-1.538,0.570407
38,-1.537,0.570407
39,-1.536,0.570407
40,-1.535,0.570407
41,-1.534,0.570407
42,-1.533,0.570407
43,-1.532,0.570407
44,-1.531,0.568669
45,-1.53,0.568669
46,-1.529,0.568669
47,-1.528,0.570407
48,-1.527,0.570407
49,-1.526,0.570407
50,-1.525,0.568669
51,-1.524,0.572146
52,-1.523,0.570407
53,-1.522,0.570407
54,-1.521,0.570407
55,-1.52,0.570407
56,-1.519,0.570407
57,-1.518,0.572146
58,-1.517,0.572146
59,-1.516,0.572146
60,-1.515,0.570407
61,-1.514,0.570407
62,-1.513,0.570407
63,-1.512,0.570407
64,-1.511,0.570407
65,-1.51,0.570407
66,-1.509,0.572146
67,-1.508,0.572146
68,-1.507,0.570407
69,-1.506,0.570407
70,-1.505,0.570407
71,-1.504,0.570407
72,-1.503,0.570407
73,-1.502,0.572146
74,-1.501,0.572146
75,-1.5,0.572146
76,-1.499,0.570407
77,-1.498,0.573885
78,-1.497,0.568669
79,-1.496,0.573885
80,-1.495,0.568669
81,-1.494,0.572146
82,-1.493,0.572146
83,-1.492,0.573885
84,-1.491,0.56693
85,-1.49,0.568669
86,-1.489,0.568669
87,-1.488,0.568669
88,-1.487,0.568669
89,-1.486,0.568669
90,-1.485,0.568669
91,-1.484,0.572146
92,-1.483,0.568669
93,-1.482,0.568669
94,-1.481,0.568669
95,-1.48,0.570407
96,-1.479,0.570407
97,-1.478,0.570407
98,-1.477,0.570407
99,-1.476,0.573885
100,-1.475,0.568669
101,-1.474,0.568669
102,-1.473,0.568669
103,-1.472,0.570407
104,-1.471,0.56693
105,-1.47,0.570407
106,-1.469,0.570407
107,-1.468,0.570407
108,-1.467,0.568669
109,-1.466,0.568669
110,-1.465,0.568669
111,-1.464,0.570407
112,-1.463,0.570407
113,-1.462,0.570407
114,-1.461,0.570407
115,-1.46,0.572146
116,-1.459,0.570407
117,-1.458,0.570407
118,-1.457,0.570407
119,-1.456,0.570407
120,-1.455,0.570407
121,-1.454,0.570407
122,-1.453,0.570407
123,-1.452,0.572146
124,-1.451,0.568669
125,-1.45,0.570407
126,-1.449,0.570407
127,-1.448,0.570407
128,-1.447,0.570407
129,-1.446,0.570407
130,-1.445,0.572146
131,-1.444,0.572146
132,-1.443,0.570407
133,-1.442,0.570407
134,-1.441,0.570407
135,-1.44,0.572146
136,-1.439,0.572146
137,-1.438,0.572146
138,-1.437,0.572146
139,-1.436,0.572146
140,-1.435,0.572146
141,-1.434,0.570407
142,-1.433,0.568669
143,-1.432,0.570407
144,-1.431,0.570407
145,-1.43,0.570407
146,-1.429,0.572146
147,-1.428,0.572146
148,-1.427,0.568669
149,-1.426,0.568669
150,-1.425,0.568669
151,-1.424,0.570407
152,-1.423,0.573885
153,-1.422,0.575624
154,-1.421,0.575624
155,-1.42,0.575624
156,-1.419,0.575624
157,-1.418,0.575624
158,-1.417,0.575624
159,-1.416,0.575624
160,-1.415,0.575624
161,-1.414,0.575624
162,-1.413,0.577363
163,-1.412,0.577363
164,-1.411,0.575624
165,-1.41,0.575624
166,-1.409,0.575624
167,-1.408,0.575624
168,-1.407,0.575624
169,-1.406,0.575624
170,-1.405,0.575624
171,-1.404,0.577363
172,-1.403,0.577363
173,-1.402,0.575624
174,-1.401,0.577363
175,-1.4,0.577363
176,-1.399,0.577363
177,-1.398,0.577363
178,-1.397,0.577363
179,-1.396,0.579102
180,-1.395,0.577363
181,-1.394,0.577363
182,-1.393,0.577363
183,-1.392,0.577363
184,-1.391,0.575624
185,-1.39,0.575624
186,-1.389,0.577363
187,-1.388,0.577363
188,-1.387,0.577363
189,-1.386,0.573885
190,-1.385,0.577363
191,-1.384,0.577363
192,-1.383,0.577363
193,-1.382,0.577363
194,-1.381,0.577363
195,-1.38,0.579102
196,-1.379,0.577363
197,-1.378,0.577363
198,-1.377,0.577363
199,-1.376,0.577363
200,-1.375,0.577363
201,-1.374,0.577363
202,-1.373,0.577363
203,-1.372,0.579102
204,-1.371,0.577363
205,-1.37,0.577363
206,-1.369,0.577363
207,-1.368,0.577363
208,-1.367,0.577363
209,-1.366,0.577363
210,-1.365,0.579102
211,-1.364,0.579102
212,-1.363,0.577363
213,-1.362,0.577363
214,-1.361,0.575624
215,-1.36,0.579102
216,-1.359,0.575624
217,-1.358,0.575624
218,-1.357,0.575624
219,-1.356,0.577363
220,-1.355,0.575624
221,-1.354,0.575624
222,-1.353,0.575624
223,-1.352,0.575624
224,-1.351,0.575624
225,-1.35,0.575624
226,-1.349,0.575624
227,-1.348,0.577363
228,-1.347,0.577363
229,-1.346,0.575624
230,-1.345,0.575624
231,-1.344,0.575624
232,-1.343,0.577363
233,-1.342,0.577363
234,-1.341,0.577363
235,-1.34,0.577363
236,-1.339,0.577363
237,-1.338,0.577363
238,-1.337,0.577363
239,-1.336,0.577363
240,-1.335,0.577363
241,-1.334,0.577363
242,-1.333,0.577363
243,-1.332,0.577363
244,-1.331,0.577363
245,-1.33,0.575624
246,-1.329,0.575624
247,-1.328,0.577363
248,-1.327,0.577363
249,-1.326,0.575624
250,-1.325,0.577363
251,-1.324,0.577363
252,-1.323,0.577363
253,-1.322,0.577363
254,-1.321,0.577363
255,-1.32,0.577363
256,-1.319,0.582579
257,-1.318,0.575624
258,-1.317,0.579102
259,-1.316,0.579102
260,-1.315,0.579102
261,-1.314,0.577363
262,-1.313,0.577363
263,-1.312,0.577363
264,-1.311,0.577363
265,-1.31,0.577363
266,-1.309,0.577363
267,-1.308,0.579102
268,-1.307,0.579102
269,-1.306,0.579102
270,-1.305,0.579102
271,-1.304,0.579102
272,-1.303,0.579102
273,-1.302,0.579102
274,-1.301,0.579102
275,-1.3,0.582579
276,-1.299,0.582579
277,-1.298,0.577363
278,-1.297,0.577363
279,-1.296,0.577363
280,-1.295,0.575624
281,-1.294,0.575624
282,-1.293,0.575624
283,-1.292,0.573885
284,-1.291,0.577363
285,-1.29,0.575624
286,-1.289,0.575624
287,-1.288,0.575624
288,-1.287,0.575624
289,-1.286,0.575624
290,-1.285,0.575624
291,-1.284,0.577363
292,-1.283,0.577363
293,-1.282,0.577363
294,-1.281,0.577363
295,-1.28,0.577363
296,-1.279,0.577363
297,-1.278,0.577363
298,-1.277,0.577363
299,-1.276,0.577363
300,-1.275,0.582579
301,-1.274,0.577363
302,-1.273,0.577363
303,-1.272,0.577363
304,-1.271,0.577363
305,-1.27,0.577363
306,-1.269,0.577363
307,-1.268,0.577363
308,-1.267,0.582579
309,-1.266,0.577363
310,-1.265,0.577363
311,-1.264,0.577363
312,-1.263,0.577363
313,-1.262,0.577363
314,-1.261,0.577363
315,-1.26,0.579102
316,-1.259,0.579102
317,-1.258,0.577363
318,-1.257,0.577363
319,-1.256,0.577363
320,-1.255,0.579102
321,-1.254,0.579102
322,-1.253,0.579102
323,-1.252,0.579102
324,-1.251,0.579102
325,-1.25,0.577363
326,-1.249,0.577363
327,-1.248,0.577363
328,-1.247,0.577363
329,-1.246,0.577363
330,-1.245,0.577363
331,-1.244,0.579102
332,-1.243,0.579102
333,-1.242,0.579102
334,-1.241,0.579102
335,-1.24,0.579102
336,-1.239,0.579102
337,-1.238,0.579102
338,-1.237,0.579102
339,-1.236,0.582579
340,-1.235,0.582579
341,-1.234,0.577363
342,-1.233,0.575624
343,-1.232,0.575624
344,-1.231,0.575624
345,-1.23,0.575624
346,-1.229,0.575624
347,-1.228,0.575624
348,-1.227,0.575624
349,-1.226,0.575624
350,-1.225,0.575624
351,-1.224,0.575624
352,-1.223,0.575624
353,-1.222,0.573885
354,-1.221,0.568669
355,-1.22,0.570407
356,-1.219,0.570407
357,-1.218,0.568669
358,-1.217,0.568669
359,-1.216,0.568669
360,-1.215,0.568669
361,-1.214,0.568669
362,-1.213,0.568669
363,-1.212,0.568669
364,-1.211,0.568669
365,-1.21,0.568669
366,-1.209,0.568669
367,-1.208,0.568669
368,-1.207,0.56693
369,-1.206,0.570407
370,-1.205,0.568669
371,-1.204,0.570407
372,-1.203,0.570407
373,-1.202,0.570407
374,-1.201,0.568669
375,-1.2,0.568669
376,-1.199,0.570407
377,-1.198,0.570407
378,-1.197,0.568669
379,-1.196,0.570407
380,-1.195,0.570407
381,-1.194,0.570407
382,-1.193,0.568669
383,-1.192,0.568669
384,-1.191,0.568669
385,-1.19,0.568669
386,-1.189,0.568669
387,-1.188,0.568669
388,-1.187,0.570407
389,-1.186,0.570407
390,-1.185,0.568669
391,-1.184,0.568669
392,-1.183,0.570407
393,-1.182,0.570407
394,-1.181,0.570407
395,-1.18,0.570407
396,-1.179,0.570407
397,-1.178,0.572146
398,-1.177,0.570407
399,-1.176,0.570407
400,-1.175,0.570407
401,-1.174,0.572146
402,-1.173,0.570407
403,-1.172,0.570407
404,-1.171,0.570407
405,-1.17,0.572146
406,-1.169,0.568669
407,-1.168,0.56693
408,-1.167,0.568669
409,-1.166,0.568669
410,-1.165,0.568669
411,-1.164,0.568669
412,-1.163,0.570407
413,-1.162,0.570407
414,-1.161,0.568669
415,-1.16,0.568669
416,-1.159,0.570407
417,-1.158,0.570407
418,-1.157,0.568669
419,-1.156,0.568669
420,-1.155,0.570407
421,-1.154,0.570407
422,-1.153,0.568669
423,-1.152,0.568669
424,-1.151,0.568669
425,-1.15,0.568669
426,-1.149,0.568669
427,-1.148,0.568669
428,-1.147,0.568669
429,-1.146,0.570407
430,-1.145,0.568669
431,-1.144,0.568669
432,-1.143,0.568669
433,-1.142,0.570407
434,-1.141,0.570407
435,-1.14,0.570407
436,-1.139,0.570407
437,-1.138,0.572146
438,-1.137,0.570407
439,-1.136,0.570407
440,-1.135,0.570407
441,-1.134,0.570407
442,-1.133,0.568669
443,-1.132,0.570407
444,-1.131,0.570407
445,-1.13,0.570407
446,-1.129,0.570407
447,-1.128,0.570407
448,-1.127,0.570407
449,-1.126,0.570407
450,-1.125,0.570407
451,-1.124,0.570407
452,-1.123,0.570407
453,-1.122,0.572146
454,-1.121,0.570407
455,-1.12,0.570407
456,-1.119,0.570407
457,-1.118,0.572146
458,-1.117,0.572146
459,-1.116,0.572146
460,-1.115,0.572146
461,-1.114,0.572146
462,-1.113,0.570407
463,-1.112,0.570407
464,-1.111,0.570407
465,-1.11,0.573885
466,-1.109,0.570407
467,-1.108,0.570407
468,-1.107,0.572146
469,-1.106,0.572146
470,-1.105,0.568669
471,-1.104,0.568669
472,-1.103,0.568669
473,-1.102,0.570407
474,-1.101,0.568669
475,-1.1,0.570407
476,-1.099,0.570407
477,-1.098,0.572146
478,-1.097,0.568669
479,-1.096,0.568669
480,-1.095,0.570407
481,-1.094,0.570407
482,-1.093,0.568669
483,-1.092,0.568669
484,-1.091,0.568669
485,-1.09,0.572146
486,-1.089,0.568669
487,-1.088,0.56693
488,-1.087,0.568669
489,-1.086,0.568669
490,-1.085,0.568669
491,-1.084,0.568669
492,-1.083,0.570407
493,-1.082,0.572146
494,-1.081,0.568669
495,-1.08,0.570407
496,-1.079,0.570407
497,-1.078,0.570407
498,-1.077,0.570407
499,-1.076,0.570407
500,-1.075,0.570407
501,-1.074,0.573885
502,-1.073,0.570407
503,-1.072,0.56693
504,-1.071,0.570407
505,-1.07,0.570407
506,-1.069,0.570407
507,-1.068,0.570407
508,-1.067,0.570407
509,-1.066,0.572146
510,-1.065,0.568669
511,-1.064,0.570407
512,-1.063,0.570407
513,-1.062,0.570407
514,-1.061,0.570407
515,-1.06,0.570407
516,-1.059,0.572146
517,-1.058,0.572146
518,-1.057,0.570407
519,-1.056,0.570407
520,-1.055,0.570407
521,-1.054,0.570407
522,-1.053,0.570407
523,-1.052,0.570407
524,-1.051,0.570407
525,-1.05,0.572146
526,-1.049,0.570407
527,-1.048,0.570407
528,-1.047,0.570407
529,-1.046,0.570407
530,-1.045,0.570407
531,-1.044,0.572146
532,-1.043,0.572146
533,-1.042,0.572146
534,-1.041,0.572146
535,-1.04,0.570407
536,-1.039,0.570407
537,-1.038,0.570407
538,-1.037,0.570407
539,-1.036,0.570407
540,-1.035,0.570407
541,-1.034,0.572146
542,-1.033,0.570407
543,-1.032,0.56693
544,-1.031,0.570407
545,-1.03,0.570407
546,-1.029,0.570407
547,-1.028,0.56693
548,-1.027,0.570407
549,-1.026,0.570407
550,-1.025,0.570407
551,-1.024,0.56693
552,-1.023,0.570407
553,-1.022,0.570407
554,-1.021,0.570407
555,-1.02,0.570407
556,-1.019,0.577363
557,-1.018,0.577363
558,-1.017,0.577363
559,-1.016,0.577363
560,-1.015,0.577363
561,-1.014,0.577363
562,-1.013,0.577363
563,-1.012,0.577363
564,-1.011,0.577363
565,-1.01,0.577363
566,-1.009,0.577363
567,-1.008,0.575624
568,-1.007,0.575624
569,-1.006,0.577363
570,-1.005,0.577363
571,-1.004,0.577363
572,-1.003,0.577363
573,-1.002,0.577363
574,-1.001,0.579102
575,-1,0.577363
576,-0.999,0.577363
577,-0.998,0.579102
578,-0.997,0.579102
579,-0.996,0.579102
580,-0.995,0.579102
581,-0.994,0.579102
582,-0.993,0.579102
583,-0.992,0.577363
584,-0.991,0.577363
585,-0.99,0.577363
586,-0.989,0.577363
587,-0.988,0.577363
588,-0.987,0.577363
589,-0.986,0.577363
590,-0.985,0.579102
591,-0.984,0.577363
592,-0.983,0.577363
593,-0.982,0.579102
594,-0.981,0.579102
595,-0.98,0.579102
596,-0.979,0.579102
597,-0.978,0.579102
598,-0.977,0.582579
599,-0.976,0.577363
600,-0.975,0.575624
601,-0.974,0.575624
602,-0.973,0.579102
603,-0.972,0.575624
604,-0.971,0.575624
605,-0.97,0.575624
606,-0.969,0.577363
607,-0.968,0.575624
608,-0.967,0.575624
609,-0.966,0.577363
610,-0.965,0.577363
611,-0.964,0.577363
612,-0.963,0.577363
613,-0.962,0.577363
614,-0.961,0.579102
615,-0.96,0.577363
616,-0.959,0.577363
617,-0.958,0.577363
618,-0.957,0.577363
619,-0.956,0.577363
620,-0.955,0.577363
621,-0.954,0.577363
622,-0.953,0.577363
623,-0.952,0.575624
624,-0.951,0.575624
625,-0.95,0.577363
626,-0.949,0.577363
627,-0.948,0.577363
628,-0.947,0.577363
629,-0.946,0.577363
630,-0.945,0.582579
631,-0.944,0.577363
632,-0.943,0.577363
633,-0.942,0.577363
634,-0.941,0.579102
635,-0.94,0.575624
636,-0.939,0.577363
637,-0.938,0.579102
638,-0.937,0.579102
639,-0.936,0.577363
640,-0.935,0.577363
641,-0.934,0.577363
642,-0.933,0.579102
643,-0.932,0.577363
644,-0.931,0.577363
645,-0.93,0.577363
646,-0.929,0.579102
647,-0.928,0.577363
648,-0.927,0.577363
649,-0.926,0.577363
650,-0.925,0.579102
651,-0.924,0.579102
652,-0.923,0.579102
653,-0.922,0.579102
654,-0.921,0.579102
655,-0.92,0.579102
656,-0.919,0.579102
657,-0.918,0.579102
658,-0.917,0.579102
659,-0.916,0.579102
660,-0.915,0.579102
661,-0.914,0.579102
662,-0.913,0.579102
663,-0.912,0.579102
664,-0.911,0.575624
665,-0.91,0.575624
666,-0.909,0.575624
667,-0.908,0.575624
668,-0.907,0.575624
669,-0.906,0.577363
670,-0.905,0.577363
671,-0.904,0.577363
672,-0.903,0.577363
673,-0.902,0.577363
674,-0.901,0.577363
675,-0.9,0.577363
676,-0.899,0.577363
677,-0.898,0.579102
678,-0.897,0.579102
679,-0.896,0.577363
680,-0.895,0.577363
681,-0.894,0.577363
682,-0.893,0.577363
683,-0.892,0.577363
684,-0.891,0.577363
685,-0.89,0.577363
686,-0.889,0.577363
687,-0.888,0.577363
688,-0.887,0.573885
689,-0.886,0.577363
690,-0.885,0.577363
691,-0.884,0.577363
692,-0.883,0.577363
693,-0.882,0.577363
694,-0.881,0.579102
695,-0.88,0.579102
696,-0.879,0.577363
697,-0.878,0.577363
698,-0.877,0.579102
699,-0.876,0.579102
700,-0.875,0.577363
701,-0.874,0.577363
702,-0.873,0.579102
703,-0.872,0.577363
704,-0.871,0.577363
705,-0.87,0.577363
706,-0.869,0.577363
707,-0.868,0.579102
708,-0.867,0.575624
709,-0.866,0.579102
710,-0.865,0.579102
711,-0.864,0.579102
712,-0.863,0.577363
713,-0.862,0.577363
714,-0.861,0.579102
715,-0.86,0.579102
716,-0.859,0.579102
717,-0.858,0.579102
718,-0.857,0.579102
719,-0.856,0.579102
720,-0.855,0.579102
721,-0.854,0.579102
722,-0.853,0.579102
723,-0.852,0.579102
724,-0.851,0.579102
725,-0.85,0.579102
726,-0.849,0.579102
727,-0.848,0.577363
728,-0.847,0.577363
729,-0.846,0.575624
730,-0.845,0.575624
731,-0.844,0.577363
732,-0.843,0.577363
733,-0.842,0.577363
734,-0.841,0.575624
735,-0.84,0.579102
736,-0.839,0.577363
737,-0.838,0.577363
738,-0.837,0.577363
739,-0.836,0.582579
740,-0.835,0.577363
741,-0.834,0.577363
742,-0.833,0.577363
743,-0.832,0.577363
744,-0.831,0.577363
745,-0.83,0.577363
746,-0.829,0.577363
747,-0.828,0.577363
748,-0.827,0.577363
749,-0.826,0.577363
750,-0.825,0.577363
751,-0.824,0.577363
752,-0.823,0.577363
753,-0.822,0.577363
754,-0.821,0.577363
755,-0.82,0.579102
756,-0.819,0.579102
757,-0.818,0.575624
758,-0.817,0.573885
759,-0.816,0.572146
760,-0.815,0.572146
761,-0.814,0.570407
762,-0.813,0.570407
763,-0.812,0.573885
764,-0.811,0.568669
765,-0.81,0.572146
766,-0.809,0.572146
767,-0.808,0.572146
768,-0.807,0.568669
769,-0.806,0.572146
770,-0.805,0.572146
771,-0.804,0.572146
772,-0.803,0.572146
773,-0.802,0.572146
774,-0.801,0.572146
775,-0.8,0.573885
776,-0.799,0.572146
777,-0.798,0.572146
778,-0.797,0.572146
779,-0.796,0.573885
780,-0.795,0.570407
781,-0.794,0.572146
782,-0.793,0.570407
783,-0.792,0.573885
784,-0.791,0.572146
785,-0.79,0.572146
786,-0.789,0.572146
787,-0.788,0.572146
788,-0.787,0.572146
789,-0.786,0.573885
790,-0.785,0.572146
791,-0.784,0.573885
792,-0.783,0.570407
793,-0.782,0.570407
794,-0.781,0.570407
795,-0.78,0.572146
796,-0.779,0.572146
797,-0.778,0.572146
798,-0.777,0.572146
799,-0.776,0.572146
800,-0.775,0.570407
801,-0.774,0.573885
802,-0.773,0.570407
803,-0.772,0.572146
804,-0.771,0.570407
805,-0.77,0.572146
806,-0.769,0.572146
807,-0.768,0.572146
808,-0.767,0.570407
809,-0.766,0.570407
810,-0.765,0.570407
811,-0.764,0.572146
812,-0.763,0.572146
813,-0.762,0.572146
814,-0.761,0.572146
815,-0.76,0.575624
816,-0.759,0.572146
817,-0.758,0.572146
818,-0.757,0.572146
819,-0.756,0.573885
820,-0.755,0.570407
821,-0.754,0.572146
822,-0.753,0.572146
823,-0.752,0.572146
824,-0.751,0.570407
825,-0.75,0.570407
826,-0.749,0.570407
827,-0.748,0.572146
828,-0.747,0.572146
829,-0.746,0.572146
830,-0.745,0.572146
831,-0.744,0.573885
832,-0.743,0.570407
833,-0.742,0.572146
834,-0.741,0.572146
835,-0.74,0.573885
836,-0.739,0.573885
837,-0.738,0.573885
838,-0.737,0.573885
839,-0.736,0.573885
840,-0.735,0.572146
841,-0.734,0.572146
842,-0.733,0.572146
843,-0.732,0.572146
844,-0.731,0.572146
845,-0.73,0.572146
846,-0.729,0.572146
847,-0.728,0.573885
848,-0.727,0.572146
849,-0.726,0.572146
850,-0.725,0.572146
851,-0.724,0.573885
852,-0.723,0.573885
853,-0.722,0.573885
854,-0.721,0.573885
855,-0.72,0.575624
856,-0.719,0.572146
857,-0.718,0.570407
858,-0.717,0.570407
859,-0.716,0.570407
860,-0.715,0.570407
861,-0.714,0.570407
862,-0.713,0.570407
863,-0.712,0.570407
864,-0.711,0.570407
865,-0.71,0.56693
866,-0.709,0.570407
867,-0.708,0.570407
868,-0.707,0.570407
869,-0.706,0.570407
870,-0.705,0.570407
871,-0.704,0.570407
872,-0.703,0.570407
873,-0.702,0.570407
874,-0.701,0.570407
875,-0.7,0.570407
876,-0.699,0.570407
877,-0.698,0.572146
878,-0.697,0.572146
879,-0.696,0.572146
880,-0.695,0.570407
881,-0.694,0.570407
882,-0.693,0.570407
883,-0.692,0.570407
884,-0.691,0.570407
885,-0.69,0.570407
886,-0.689,0.570407
887,-0.688,0.570407
888,-0.687,0.570407
889,-0.686,0.56693
890,-0.685,0.570407
891,-0.684,0.570407
892,-0.683,0.570407
893,-0.682,0.570407
894,-0.681,0.572146
895,-0.68,0.572146
896,-0.679,0.572146
897,-0.678,0.568669
898,-0.677,0.572146
899,-0.676,0.572146
900,-0.675,0.572146
901,-0.674,0.572146
902,-0.673,0.572146
903,-0.672,0.572146
904,-0.671,0.570407
905,-0.67,0.570407
906,-0.669,0.570407
907,-0.668,0.570407
908,-0.667,0.570407
909,-0.666,0.570407
910,-0.665,0.572146
911,-0.664,0.572146
912,-0.663,0.572146
913,-0.662,0.572146
914,-0.661,0.572146
915,-0.66,0.572146
916,-0.659,0.572146
917,-0.658,0.572146
918,-0.657,0.572146
919,-0.656,0.572146
920,-0.655,0.573885
921,-0.654,0.570407
922,-0.653,0.570407
923,-0.652,0.570407
924,-0.651,0.570407
925,-0.65,0.568669
926,-0.649,0.570407
927,-0.648,0.570407
928,-0.647,0.570407
929,-0.646,0.570407
930,-0.645,0.570407
931,-0.644,0.570407
932,-0.643,0.570407
933,-0.642,0.570407
934,-0.641,0.572146
935,-0.64,0.572146
936,-0.639,0.572146
937,-0.638,0.570407
938,-0.637,0.570407
939,-0.636,0.570407
940,-0.635,0.573885
941,-0.634,0.570407
942,-0.633,0.570407
943,-0.632,0.570407
944,-0.631,0.573885
945,-0.63,0.570407
946,-0.629,0.570407
947,-0.628,0.570407
948,-0.627,0.573885
949,-0.626,0.568669
950,-0.625,0.572146
951,-0.624,0.572146
952,-0.623,0.572146
953,-0.622,0.570407
954,-0.621,0.572146
955,-0.62,0.572146
956,-0.619,0.572146
957,-0.618,0.572146
958,-0.617,0.572146
959,-0.616,0.572146
960,-0.615,0.577363
961,-0.614,0.577363
962,-0.613,0.577363
963,-0.612,0.577363
964,-0.611,0.577363
965,-0.61,0.577363
966,-0.609,0.577363
967,-0.608,0.575624
968,-0.607,0.579102
969,-0.606,0.577363
970,-0.605,0.577363
971,-0.604,0.577363
972,-0.603,0.579102
973,-0.602,0.577363
974,-0.601,0.579102
975,-0.6,0.579102
976,-0.599,0.579102
977,-0.598,0.579102
978,-0.597,0.579102
979,-0.596,0.579102
980,-0.595,0.579102
981,-0.594,0.579102
982,-0.593,0.579102
983,-0.592,0.579102
984,-0.591,0.579102
985,-0.59,0.575624
986,-0.589,0.575624
987,-0.588,0.575624
988,-0.587,0.575624
989,-0.586,0.575624
990,-0.585,0.575624
991,-0.584,0.577363
992,-0.583,0.577363
993,-0.582,0.577363
994,-0.581,0.577363
995,-0.58,0.577363
996,-0.579,0.577363
997,-0.578,0.577363
998,-0.577,0.577363
999,-0.576,0.575624
1000,-0.575,0.579102
1001,-0.574,0.577363
